<?xml version="1.0" encoding="UTF-8" standalone="no"?>
<!-- Created with Inkscape (http://www.inkscape.org/) -->

<svg
   width="80mm"
   height="73.321259mm"
   viewBox="0 0 80 73.321259"
   version="1.1"
   id="svg82823"
   xml:space="preserve"
   inkscape:version="1.2.2 (b0a8486, 2022-12-01)"
   sodipodi:docname="32-pupils.svg"
   xmlns:inkscape="http://www.inkscape.org/namespaces/inkscape"
   xmlns:sodipodi="http://sodipodi.sourceforge.net/DTD/sodipodi-0.dtd"
   xmlns="http://www.w3.org/2000/svg"
   xmlns:svg="http://www.w3.org/2000/svg"><sodipodi:namedview
     id="namedview82825"
     pagecolor="#ffffff"
     bordercolor="#666666"
     borderopacity="1.0"
     inkscape:showpageshadow="2"
     inkscape:pageopacity="0.0"
     inkscape:pagecheckerboard="0"
     inkscape:deskcolor="#d1d1d1"
     inkscape:document-units="mm"
     showgrid="false"
     inkscape:zoom="1.8388542"
     inkscape:cx="204.47516"
     inkscape:cy="128.6127"
     inkscape:window-width="1309"
     inkscape:window-height="869"
     inkscape:window-x="15"
     inkscape:window-y="0"
     inkscape:window-maximized="0"
     inkscape:current-layer="layer1" /><defs
     id="defs82820" /><g
     inkscape:label="Layer 1"
     inkscape:groupmode="layer"
     id="layer1"
     transform="translate(-74.461062,-17.278701)"><rect
       style="font-variation-settings:normal;opacity:1;fill:#ff80b2;fill-opacity:1;stroke:#333333;stroke-width:0.35232;stroke-linecap:butt;stroke-linejoin:miter;stroke-miterlimit:4;stroke-dasharray:none;stroke-dashoffset:0;stroke-opacity:1;marker-end:url(#Arrow1L);paint-order:normal;stop-color:#000000;stop-opacity:1"
       id="rect82912"
       width="2.4862566"
       height="8.0803347"
       x="-154.2849"
       y="22.204929"
       transform="scale(-1,1)" /><rect
       style="font-variation-settings:normal;opacity:1;fill:#ff80b2;fill-opacity:1;stroke:#333333;stroke-width:0.35232;stroke-linecap:butt;stroke-linejoin:miter;stroke-miterlimit:4;stroke-dasharray:none;stroke-dashoffset:0;stroke-opacity:1;marker-end:url(#Arrow1L);paint-order:normal;stop-color:#000000;stop-opacity:1"
       id="rect82914"
       width="2.4862566"
       height="8.0803347"
       x="-151.79575"
       y="22.204929"
       transform="scale(-1,1)" /><rect
       style="font-variation-settings:normal;opacity:1;fill:#ff80b2;fill-opacity:1;stroke:#333333;stroke-width:0.35232;stroke-linecap:butt;stroke-linejoin:miter;stroke-miterlimit:4;stroke-dasharray:none;stroke-dashoffset:0;stroke-opacity:1;marker-end:url(#Arrow1L);paint-order:normal;stop-color:#000000;stop-opacity:1"
       id="rect82916"
       width="2.4862566"
       height="8.0803347"
       x="-149.30263"
       y="22.204929"
       transform="scale(-1,1)" /><rect
       style="font-variation-settings:normal;opacity:1;fill:#ff80b2;fill-opacity:1;stroke:#333333;stroke-width:0.35232;stroke-linecap:butt;stroke-linejoin:miter;stroke-miterlimit:4;stroke-dasharray:none;stroke-dashoffset:0;stroke-opacity:1;marker-end:url(#Arrow1L);paint-order:normal;stop-color:#000000;stop-opacity:1"
       id="rect82918"
       width="2.4862566"
       height="8.0803347"
       x="-146.81346"
       y="22.204929"
       transform="scale(-1,1)" /><rect
       style="font-variation-settings:normal;opacity:1;fill:#ff80b2;fill-opacity:1;stroke:#333333;stroke-width:0.35232;stroke-linecap:butt;stroke-linejoin:miter;stroke-miterlimit:4;stroke-dasharray:none;stroke-dashoffset:0;stroke-opacity:1;marker-end:url(#Arrow1L);paint-order:normal;stop-color:#000000;stop-opacity:1"
       id="rect82920"
       width="2.4862566"
       height="8.0803347"
       x="-144.3334"
       y="22.204929"
       transform="scale(-1,1)" /><rect
       style="font-variation-settings:normal;opacity:1;fill:#ff80b2;fill-opacity:1;stroke:#333333;stroke-width:0.35232;stroke-linecap:butt;stroke-linejoin:miter;stroke-miterlimit:4;stroke-dasharray:none;stroke-dashoffset:0;stroke-opacity:1;marker-end:url(#Arrow1L);paint-order:normal;stop-color:#000000;stop-opacity:1"
       id="rect82922"
       width="2.4862566"
       height="8.0803347"
       x="-141.84424"
       y="22.204929"
       transform="scale(-1,1)" /><rect
       style="font-variation-settings:normal;opacity:1;fill:#ff80b2;fill-opacity:1;stroke:#333333;stroke-width:0.35232;stroke-linecap:butt;stroke-linejoin:miter;stroke-miterlimit:4;stroke-dasharray:none;stroke-dashoffset:0;stroke-opacity:1;marker-end:url(#Arrow1L);paint-order:normal;stop-color:#000000;stop-opacity:1"
       id="rect82924"
       width="2.4862566"
       height="8.0803347"
       x="-139.35114"
       y="22.204929"
       transform="scale(-1,1)" /><rect
       style="font-variation-settings:normal;opacity:1;fill:#ff80b2;fill-opacity:1;stroke:#333333;stroke-width:0.35232;stroke-linecap:butt;stroke-linejoin:miter;stroke-miterlimit:4;stroke-dasharray:none;stroke-dashoffset:0;stroke-opacity:1;marker-end:url(#Arrow1L);paint-order:normal;stop-color:#000000;stop-opacity:1"
       id="rect82926"
       width="2.4862566"
       height="8.0803347"
       x="-136.86195"
       y="22.204929"
       transform="scale(-1,1)" /><rect
       style="font-variation-settings:normal;opacity:1;fill:#ff80b2;fill-opacity:1;stroke:#333333;stroke-width:0.35232;stroke-linecap:butt;stroke-linejoin:miter;stroke-miterlimit:4;stroke-dasharray:none;stroke-dashoffset:0;stroke-opacity:1;marker-end:url(#Arrow1L);paint-order:normal;stop-color:#000000;stop-opacity:1"
       id="rect82928"
       width="2.4862566"
       height="8.0803347"
       x="-134.37454"
       y="22.204929"
       transform="scale(-1,1)" /><rect
       style="font-variation-settings:normal;opacity:1;fill:#ff80b2;fill-opacity:1;stroke:#333333;stroke-width:0.35232;stroke-linecap:butt;stroke-linejoin:miter;stroke-miterlimit:4;stroke-dasharray:none;stroke-dashoffset:0;stroke-opacity:1;marker-end:url(#Arrow1L);paint-order:normal;stop-color:#000000;stop-opacity:1"
       id="rect82930"
       width="2.4862566"
       height="8.0803347"
       x="-131.88536"
       y="22.204929"
       transform="scale(-1,1)" /><rect
       style="font-variation-settings:normal;opacity:1;fill:#ff80b2;fill-opacity:1;stroke:#333333;stroke-width:0.35232;stroke-linecap:butt;stroke-linejoin:miter;stroke-miterlimit:4;stroke-dasharray:none;stroke-dashoffset:0;stroke-opacity:1;marker-end:url(#Arrow1L);paint-order:normal;stop-color:#000000;stop-opacity:1"
       id="rect82932"
       width="2.4862566"
       height="8.0803347"
       x="-129.39227"
       y="22.204929"
       transform="scale(-1,1)" /><rect
       style="font-variation-settings:normal;opacity:1;fill:#ff80b2;fill-opacity:1;stroke:#333333;stroke-width:0.35232;stroke-linecap:butt;stroke-linejoin:miter;stroke-miterlimit:4;stroke-dasharray:none;stroke-dashoffset:0;stroke-opacity:1;marker-end:url(#Arrow1L);paint-order:normal;stop-color:#000000;stop-opacity:1"
       id="rect82934"
       width="2.4862566"
       height="8.0803347"
       x="-126.90311"
       y="22.204929"
       transform="scale(-1,1)" /><rect
       style="font-variation-settings:normal;opacity:1;fill:#ff80b2;fill-opacity:1;stroke:#333333;stroke-width:0.35232;stroke-linecap:butt;stroke-linejoin:miter;stroke-miterlimit:4;stroke-dasharray:none;stroke-dashoffset:0;stroke-opacity:1;marker-end:url(#Arrow1L);paint-order:normal;stop-color:#000000;stop-opacity:1"
       id="rect82936"
       width="2.4862566"
       height="8.0803347"
       x="-124.42303"
       y="22.204929"
       transform="scale(-1,1)" /><rect
       style="font-variation-settings:normal;opacity:1;fill:#ff80b2;fill-opacity:1;stroke:#333333;stroke-width:0.35232;stroke-linecap:butt;stroke-linejoin:miter;stroke-miterlimit:4;stroke-dasharray:none;stroke-dashoffset:0;stroke-opacity:1;marker-end:url(#Arrow1L);paint-order:normal;stop-color:#000000;stop-opacity:1"
       id="rect82938"
       width="2.4862566"
       height="8.0803347"
       x="-121.93386"
       y="22.204929"
       transform="scale(-1,1)" /><rect
       style="font-variation-settings:normal;opacity:1;fill:#ff80b2;fill-opacity:1;stroke:#333333;stroke-width:0.35232;stroke-linecap:butt;stroke-linejoin:miter;stroke-miterlimit:4;stroke-dasharray:none;stroke-dashoffset:0;stroke-opacity:1;marker-end:url(#Arrow1L);paint-order:normal;stop-color:#000000;stop-opacity:1"
       id="rect82940"
       width="2.4862566"
       height="8.0803347"
       x="-119.44075"
       y="22.204929"
       transform="scale(-1,1)" /><rect
       style="font-variation-settings:normal;opacity:1;fill:#ff80b2;fill-opacity:1;stroke:#333333;stroke-width:0.35232;stroke-linecap:butt;stroke-linejoin:miter;stroke-miterlimit:4;stroke-dasharray:none;stroke-dashoffset:0;stroke-opacity:1;marker-end:url(#Arrow1L);paint-order:normal;stop-color:#000000;stop-opacity:1"
       id="rect82942"
       width="2.4862566"
       height="8.0803347"
       x="-116.95161"
       y="22.204929"
       transform="scale(-1,1)" /><rect
       style="font-variation-settings:normal;opacity:1;fill:#fff6d5;fill-opacity:1;stroke:#333333;stroke-width:0.35232;stroke-linecap:butt;stroke-linejoin:miter;stroke-miterlimit:4;stroke-dasharray:none;stroke-dashoffset:0;stroke-opacity:1;marker-end:url(#Arrow1L);paint-order:normal;stop-color:#000000;stop-opacity:1"
       id="rect82944"
       width="2.4862566"
       height="8.0803347"
       x="-114.45687"
       y="22.204929"
       transform="scale(-1,1)" /><rect
       style="font-variation-settings:normal;opacity:1;fill:#fff6d5;fill-opacity:1;stroke:#333333;stroke-width:0.35232;stroke-linecap:butt;stroke-linejoin:miter;stroke-miterlimit:4;stroke-dasharray:none;stroke-dashoffset:0;stroke-opacity:1;marker-end:url(#Arrow1L);paint-order:normal;stop-color:#000000;stop-opacity:1"
       id="rect82946"
       width="2.4862566"
       height="8.0803347"
       x="-111.96769"
       y="22.204929"
       transform="scale(-1,1)" /><rect
       style="font-variation-settings:normal;opacity:1;fill:#fff6d5;fill-opacity:1;stroke:#333333;stroke-width:0.35232;stroke-linecap:butt;stroke-linejoin:miter;stroke-miterlimit:4;stroke-dasharray:none;stroke-dashoffset:0;stroke-opacity:1;marker-end:url(#Arrow1L);paint-order:normal;stop-color:#000000;stop-opacity:1"
       id="rect82948"
       width="2.4862566"
       height="8.0803347"
       x="-109.47459"
       y="22.204929"
       transform="scale(-1,1)" /><rect
       style="font-variation-settings:normal;opacity:1;fill:#fff6d5;fill-opacity:1;stroke:#333333;stroke-width:0.35232;stroke-linecap:butt;stroke-linejoin:miter;stroke-miterlimit:4;stroke-dasharray:none;stroke-dashoffset:0;stroke-opacity:1;marker-end:url(#Arrow1L);paint-order:normal;stop-color:#000000;stop-opacity:1"
       id="rect82950"
       width="2.4862566"
       height="8.0803347"
       x="-106.98538"
       y="22.204929"
       transform="scale(-1,1)" /><rect
       style="font-variation-settings:normal;opacity:1;fill:#fff6d5;fill-opacity:1;stroke:#333333;stroke-width:0.35232;stroke-linecap:butt;stroke-linejoin:miter;stroke-miterlimit:4;stroke-dasharray:none;stroke-dashoffset:0;stroke-opacity:1;marker-end:url(#Arrow1L);paint-order:normal;stop-color:#000000;stop-opacity:1"
       id="rect82952"
       width="2.4862566"
       height="8.0803347"
       x="-104.5053"
       y="22.204929"
       transform="scale(-1,1)" /><rect
       style="font-variation-settings:normal;opacity:1;fill:#fff6d5;fill-opacity:1;stroke:#333333;stroke-width:0.35232;stroke-linecap:butt;stroke-linejoin:miter;stroke-miterlimit:4;stroke-dasharray:none;stroke-dashoffset:0;stroke-opacity:1;marker-end:url(#Arrow1L);paint-order:normal;stop-color:#000000;stop-opacity:1"
       id="rect82954"
       width="2.4862566"
       height="8.0803347"
       x="-102.01614"
       y="22.204929"
       transform="scale(-1,1)" /><rect
       style="font-variation-settings:normal;opacity:1;fill:#fff6d5;fill-opacity:1;stroke:#333333;stroke-width:0.35232;stroke-linecap:butt;stroke-linejoin:miter;stroke-miterlimit:4;stroke-dasharray:none;stroke-dashoffset:0;stroke-opacity:1;marker-end:url(#Arrow1L);paint-order:normal;stop-color:#000000;stop-opacity:1"
       id="rect82956"
       width="2.4862566"
       height="8.0803347"
       x="-99.523018"
       y="22.204929"
       transform="scale(-1,1)" /><rect
       style="font-variation-settings:normal;opacity:1;fill:#fff6d5;fill-opacity:1;stroke:#333333;stroke-width:0.35232;stroke-linecap:butt;stroke-linejoin:miter;stroke-miterlimit:4;stroke-dasharray:none;stroke-dashoffset:0;stroke-opacity:1;marker-end:url(#Arrow1L);paint-order:normal;stop-color:#000000;stop-opacity:1"
       id="rect82958"
       width="2.4862566"
       height="8.0803347"
       x="-97.033875"
       y="22.204929"
       transform="scale(-1,1)" /><rect
       style="font-variation-settings:normal;opacity:1;fill:#fff6d5;fill-opacity:1;stroke:#333333;stroke-width:0.35232;stroke-linecap:butt;stroke-linejoin:miter;stroke-miterlimit:4;stroke-dasharray:none;stroke-dashoffset:0;stroke-opacity:1;marker-end:url(#Arrow1L);paint-order:normal;stop-color:#000000;stop-opacity:1"
       id="rect82960"
       width="2.4862566"
       height="8.0803347"
       x="-94.546417"
       y="22.204929"
       transform="scale(-1,1)" /><rect
       style="font-variation-settings:normal;opacity:1;fill:#fff6d5;fill-opacity:1;stroke:#333333;stroke-width:0.35232;stroke-linecap:butt;stroke-linejoin:miter;stroke-miterlimit:4;stroke-dasharray:none;stroke-dashoffset:0;stroke-opacity:1;marker-end:url(#Arrow1L);paint-order:normal;stop-color:#000000;stop-opacity:1"
       id="rect82962"
       width="2.4862566"
       height="8.0803347"
       x="-92.057236"
       y="22.204929"
       transform="scale(-1,1)" /><rect
       style="font-variation-settings:normal;opacity:1;fill:#fff6d5;fill-opacity:1;stroke:#333333;stroke-width:0.35232;stroke-linecap:butt;stroke-linejoin:miter;stroke-miterlimit:4;stroke-dasharray:none;stroke-dashoffset:0;stroke-opacity:1;marker-end:url(#Arrow1L);paint-order:normal;stop-color:#000000;stop-opacity:1"
       id="rect82964"
       width="2.4862566"
       height="8.0803347"
       x="-89.56414"
       y="22.204929"
       transform="scale(-1,1)" /><rect
       style="font-variation-settings:normal;opacity:1;fill:#fff6d5;fill-opacity:1;stroke:#333333;stroke-width:0.35232;stroke-linecap:butt;stroke-linejoin:miter;stroke-miterlimit:4;stroke-dasharray:none;stroke-dashoffset:0;stroke-opacity:1;marker-end:url(#Arrow1L);paint-order:normal;stop-color:#000000;stop-opacity:1"
       id="rect82966"
       width="2.4862566"
       height="8.0803347"
       x="-87.074997"
       y="22.204929"
       transform="scale(-1,1)" /><rect
       style="font-variation-settings:normal;opacity:1;fill:#fff6d5;fill-opacity:1;stroke:#333333;stroke-width:0.35232;stroke-linecap:butt;stroke-linejoin:miter;stroke-miterlimit:4;stroke-dasharray:none;stroke-dashoffset:0;stroke-opacity:1;marker-end:url(#Arrow1L);paint-order:normal;stop-color:#000000;stop-opacity:1"
       id="rect82968"
       width="2.4862566"
       height="8.0803347"
       x="-84.59491"
       y="22.204929"
       transform="scale(-1,1)" /><rect
       style="font-variation-settings:normal;opacity:1;fill:#fff6d5;fill-opacity:1;stroke:#333333;stroke-width:0.35232;stroke-linecap:butt;stroke-linejoin:miter;stroke-miterlimit:4;stroke-dasharray:none;stroke-dashoffset:0;stroke-opacity:1;marker-end:url(#Arrow1L);paint-order:normal;stop-color:#000000;stop-opacity:1"
       id="rect82970"
       width="2.4862566"
       height="8.0803347"
       x="-82.105721"
       y="22.204929"
       transform="scale(-1,1)" /><rect
       style="font-variation-settings:normal;opacity:1;fill:#fff6d5;fill-opacity:1;stroke:#333333;stroke-width:0.35232;stroke-linecap:butt;stroke-linejoin:miter;stroke-miterlimit:4;stroke-dasharray:none;stroke-dashoffset:0;stroke-opacity:1;marker-end:url(#Arrow1L);paint-order:normal;stop-color:#000000;stop-opacity:1"
       id="rect82972"
       width="2.4862566"
       height="8.0803347"
       x="-79.61261"
       y="22.204929"
       transform="scale(-1,1)" /><rect
       style="font-variation-settings:normal;opacity:1;fill:#fff6d5;fill-opacity:1;stroke:#333333;stroke-width:0.35232;stroke-linecap:butt;stroke-linejoin:miter;stroke-miterlimit:4;stroke-dasharray:none;stroke-dashoffset:0;stroke-opacity:1;marker-end:url(#Arrow1L);paint-order:normal;stop-color:#000000;stop-opacity:1"
       id="rect82974"
       width="2.4862566"
       height="8.0803347"
       x="-77.123482"
       y="22.204929"
       transform="scale(-1,1)" /><rect
       style="font-variation-settings:normal;opacity:1;fill:#fff6d5;fill-opacity:1;stroke:#333333;stroke-width:0.35232;stroke-linecap:butt;stroke-linejoin:miter;stroke-miterlimit:4;stroke-dasharray:none;stroke-dashoffset:0;stroke-opacity:1;marker-end:url(#Arrow1L);paint-order:normal;stop-color:#000000;stop-opacity:1"
       id="rect82976"
       width="2.4862566"
       height="8.0803347"
       x="74.637222"
       y="36.187634" /><rect
       style="font-variation-settings:normal;opacity:1;fill:#fff6d5;fill-opacity:1;stroke:#333333;stroke-width:0.35232;stroke-linecap:butt;stroke-linejoin:miter;stroke-miterlimit:4;stroke-dasharray:none;stroke-dashoffset:0;stroke-opacity:1;marker-end:url(#Arrow1L);paint-order:normal;stop-color:#000000;stop-opacity:1"
       id="rect82978"
       width="2.4862566"
       height="8.0803347"
       x="77.126389"
       y="36.187634" /><rect
       style="font-variation-settings:normal;opacity:1;fill:#fff6d5;fill-opacity:1;stroke:#333333;stroke-width:0.35232;stroke-linecap:butt;stroke-linejoin:miter;stroke-miterlimit:4;stroke-dasharray:none;stroke-dashoffset:0;stroke-opacity:1;marker-end:url(#Arrow1L);paint-order:normal;stop-color:#000000;stop-opacity:1"
       id="rect82980"
       width="2.4862566"
       height="8.0803347"
       x="79.619499"
       y="36.187634" /><rect
       style="font-variation-settings:normal;opacity:1;fill:#fff6d5;fill-opacity:1;stroke:#333333;stroke-width:0.35232;stroke-linecap:butt;stroke-linejoin:miter;stroke-miterlimit:4;stroke-dasharray:none;stroke-dashoffset:0;stroke-opacity:1;marker-end:url(#Arrow1L);paint-order:normal;stop-color:#000000;stop-opacity:1"
       id="rect82982"
       width="2.4862566"
       height="8.0803347"
       x="82.108665"
       y="36.187634" /><rect
       style="font-variation-settings:normal;opacity:1;fill:#fff6d5;fill-opacity:1;stroke:#333333;stroke-width:0.35232;stroke-linecap:butt;stroke-linejoin:miter;stroke-miterlimit:4;stroke-dasharray:none;stroke-dashoffset:0;stroke-opacity:1;marker-end:url(#Arrow1L);paint-order:normal;stop-color:#000000;stop-opacity:1"
       id="rect82984"
       width="2.4862566"
       height="8.0803347"
       x="84.588722"
       y="36.187634" /><rect
       style="font-variation-settings:normal;opacity:1;fill:#fff6d5;fill-opacity:1;stroke:#333333;stroke-width:0.35232;stroke-linecap:butt;stroke-linejoin:miter;stroke-miterlimit:4;stroke-dasharray:none;stroke-dashoffset:0;stroke-opacity:1;marker-end:url(#Arrow1L);paint-order:normal;stop-color:#000000;stop-opacity:1"
       id="rect82986"
       width="2.4862566"
       height="8.0803347"
       x="87.077888"
       y="36.187634" /><rect
       style="font-variation-settings:normal;opacity:1;fill:#fff6d5;fill-opacity:1;stroke:#333333;stroke-width:0.35232;stroke-linecap:butt;stroke-linejoin:miter;stroke-miterlimit:4;stroke-dasharray:none;stroke-dashoffset:0;stroke-opacity:1;marker-end:url(#Arrow1L);paint-order:normal;stop-color:#000000;stop-opacity:1"
       id="rect82988"
       width="2.4862566"
       height="8.0803347"
       x="89.570999"
       y="36.187634" /><rect
       style="font-variation-settings:normal;opacity:1;fill:#fff6d5;fill-opacity:1;stroke:#333333;stroke-width:0.35232;stroke-linecap:butt;stroke-linejoin:miter;stroke-miterlimit:4;stroke-dasharray:none;stroke-dashoffset:0;stroke-opacity:1;marker-end:url(#Arrow1L);paint-order:normal;stop-color:#000000;stop-opacity:1"
       id="rect82990"
       width="2.4862566"
       height="8.0803347"
       x="92.060165"
       y="36.187634" /><rect
       style="font-variation-settings:normal;opacity:1;fill:#fff6d5;fill-opacity:1;stroke:#333333;stroke-width:0.35232;stroke-linecap:butt;stroke-linejoin:miter;stroke-miterlimit:4;stroke-dasharray:none;stroke-dashoffset:0;stroke-opacity:1;marker-end:url(#Arrow1L);paint-order:normal;stop-color:#000000;stop-opacity:1"
       id="rect82992"
       width="2.4862566"
       height="8.0803347"
       x="94.547577"
       y="36.187634" /><rect
       style="font-variation-settings:normal;opacity:1;fill:#fff6d5;fill-opacity:1;stroke:#333333;stroke-width:0.35232;stroke-linecap:butt;stroke-linejoin:miter;stroke-miterlimit:4;stroke-dasharray:none;stroke-dashoffset:0;stroke-opacity:1;marker-end:url(#Arrow1L);paint-order:normal;stop-color:#000000;stop-opacity:1"
       id="rect82994"
       width="2.4862566"
       height="8.0803347"
       x="97.036758"
       y="36.187634" /><rect
       style="font-variation-settings:normal;opacity:1;fill:#fff6d5;fill-opacity:1;stroke:#333333;stroke-width:0.35232;stroke-linecap:butt;stroke-linejoin:miter;stroke-miterlimit:4;stroke-dasharray:none;stroke-dashoffset:0;stroke-opacity:1;marker-end:url(#Arrow1L);paint-order:normal;stop-color:#000000;stop-opacity:1"
       id="rect82996"
       width="2.4862566"
       height="8.0803347"
       x="99.529861"
       y="36.187634" /><rect
       style="font-variation-settings:normal;opacity:1;fill:#fff6d5;fill-opacity:1;stroke:#333333;stroke-width:0.35232;stroke-linecap:butt;stroke-linejoin:miter;stroke-miterlimit:4;stroke-dasharray:none;stroke-dashoffset:0;stroke-opacity:1;marker-end:url(#Arrow1L);paint-order:normal;stop-color:#000000;stop-opacity:1"
       id="rect82998"
       width="2.4862566"
       height="8.0803347"
       x="102.01902"
       y="36.187634" /><rect
       style="font-variation-settings:normal;opacity:1;fill:#fff6d5;fill-opacity:1;stroke:#333333;stroke-width:0.35232;stroke-linecap:butt;stroke-linejoin:miter;stroke-miterlimit:4;stroke-dasharray:none;stroke-dashoffset:0;stroke-opacity:1;marker-end:url(#Arrow1L);paint-order:normal;stop-color:#000000;stop-opacity:1"
       id="rect83000"
       width="2.4862566"
       height="8.0803347"
       x="104.4991"
       y="36.187634" /><rect
       style="font-variation-settings:normal;opacity:1;fill:#fff6d5;fill-opacity:1;stroke:#333333;stroke-width:0.35232;stroke-linecap:butt;stroke-linejoin:miter;stroke-miterlimit:4;stroke-dasharray:none;stroke-dashoffset:0;stroke-opacity:1;marker-end:url(#Arrow1L);paint-order:normal;stop-color:#000000;stop-opacity:1"
       id="rect83002"
       width="2.4862566"
       height="8.0803347"
       x="106.98827"
       y="36.187634" /><rect
       style="font-variation-settings:normal;opacity:1;fill:#fff6d5;fill-opacity:1;stroke:#333333;stroke-width:0.35232;stroke-linecap:butt;stroke-linejoin:miter;stroke-miterlimit:4;stroke-dasharray:none;stroke-dashoffset:0;stroke-opacity:1;marker-end:url(#Arrow1L);paint-order:normal;stop-color:#000000;stop-opacity:1"
       id="rect83004"
       width="2.4862566"
       height="8.0803347"
       x="109.48138"
       y="36.187634" /><rect
       style="font-variation-settings:normal;opacity:1;fill:#fff6d5;fill-opacity:1;stroke:#333333;stroke-width:0.35232;stroke-linecap:butt;stroke-linejoin:miter;stroke-miterlimit:4;stroke-dasharray:none;stroke-dashoffset:0;stroke-opacity:1;marker-end:url(#Arrow1L);paint-order:normal;stop-color:#000000;stop-opacity:1"
       id="rect83006"
       width="2.4862566"
       height="8.0803347"
       x="111.97051"
       y="36.187634" /><rect
       style="font-variation-settings:normal;opacity:1;fill:#ff80b2;fill-opacity:1;stroke:#333333;stroke-width:0.35232;stroke-linecap:butt;stroke-linejoin:miter;stroke-miterlimit:4;stroke-dasharray:none;stroke-dashoffset:0;stroke-opacity:1;marker-end:url(#Arrow1L);paint-order:normal;stop-color:#000000;stop-opacity:1"
       id="rect83008"
       width="2.4862566"
       height="8.0803347"
       x="114.46526"
       y="36.187634" /><rect
       style="font-variation-settings:normal;opacity:1;fill:#ff80b2;fill-opacity:1;stroke:#333333;stroke-width:0.35232;stroke-linecap:butt;stroke-linejoin:miter;stroke-miterlimit:4;stroke-dasharray:none;stroke-dashoffset:0;stroke-opacity:1;marker-end:url(#Arrow1L);paint-order:normal;stop-color:#000000;stop-opacity:1"
       id="rect83010"
       width="2.4862566"
       height="8.0803347"
       x="116.95444"
       y="36.187634" /><rect
       style="font-variation-settings:normal;opacity:1;fill:#ff80b2;fill-opacity:1;stroke:#333333;stroke-width:0.35232;stroke-linecap:butt;stroke-linejoin:miter;stroke-miterlimit:4;stroke-dasharray:none;stroke-dashoffset:0;stroke-opacity:1;marker-end:url(#Arrow1L);paint-order:normal;stop-color:#000000;stop-opacity:1"
       id="rect83012"
       width="2.4862566"
       height="8.0803347"
       x="119.44753"
       y="36.187634" /><rect
       style="font-variation-settings:normal;opacity:1;fill:#ff80b2;fill-opacity:1;stroke:#333333;stroke-width:0.35232;stroke-linecap:butt;stroke-linejoin:miter;stroke-miterlimit:4;stroke-dasharray:none;stroke-dashoffset:0;stroke-opacity:1;marker-end:url(#Arrow1L);paint-order:normal;stop-color:#000000;stop-opacity:1"
       id="rect83014"
       width="2.4862566"
       height="8.0803347"
       x="121.93674"
       y="36.187634" /><rect
       style="font-variation-settings:normal;opacity:1;fill:#ff80b2;fill-opacity:1;stroke:#333333;stroke-width:0.35232;stroke-linecap:butt;stroke-linejoin:miter;stroke-miterlimit:4;stroke-dasharray:none;stroke-dashoffset:0;stroke-opacity:1;marker-end:url(#Arrow1L);paint-order:normal;stop-color:#000000;stop-opacity:1"
       id="rect83016"
       width="2.4862566"
       height="8.0803347"
       x="124.41682"
       y="36.187634" /><rect
       style="font-variation-settings:normal;opacity:1;fill:#ff80b2;fill-opacity:1;stroke:#333333;stroke-width:0.35232;stroke-linecap:butt;stroke-linejoin:miter;stroke-miterlimit:4;stroke-dasharray:none;stroke-dashoffset:0;stroke-opacity:1;marker-end:url(#Arrow1L);paint-order:normal;stop-color:#000000;stop-opacity:1"
       id="rect83018"
       width="2.4862566"
       height="8.0803347"
       x="126.906"
       y="36.187634" /><rect
       style="font-variation-settings:normal;opacity:1;fill:#ff80b2;fill-opacity:1;stroke:#333333;stroke-width:0.35232;stroke-linecap:butt;stroke-linejoin:miter;stroke-miterlimit:4;stroke-dasharray:none;stroke-dashoffset:0;stroke-opacity:1;marker-end:url(#Arrow1L);paint-order:normal;stop-color:#000000;stop-opacity:1"
       id="rect83020"
       width="2.4862566"
       height="8.0803347"
       x="129.39911"
       y="36.187634" /><rect
       style="font-variation-settings:normal;opacity:1;fill:#ff80b2;fill-opacity:1;stroke:#333333;stroke-width:0.35232;stroke-linecap:butt;stroke-linejoin:miter;stroke-miterlimit:4;stroke-dasharray:none;stroke-dashoffset:0;stroke-opacity:1;marker-end:url(#Arrow1L);paint-order:normal;stop-color:#000000;stop-opacity:1"
       id="rect83022"
       width="2.4862566"
       height="8.0803347"
       x="131.88826"
       y="36.187634" /><rect
       style="font-variation-settings:normal;opacity:1;fill:#fff6d5;fill-opacity:1;stroke:#333333;stroke-width:0.35232;stroke-linecap:butt;stroke-linejoin:miter;stroke-miterlimit:4;stroke-dasharray:none;stroke-dashoffset:0;stroke-opacity:1;marker-end:url(#Arrow1L);paint-order:normal;stop-color:#000000;stop-opacity:1"
       id="rect83024"
       width="2.4862566"
       height="8.0803347"
       x="134.3757"
       y="36.187634" /><rect
       style="font-variation-settings:normal;opacity:1;fill:#fff6d5;fill-opacity:1;stroke:#333333;stroke-width:0.35232;stroke-linecap:butt;stroke-linejoin:miter;stroke-miterlimit:4;stroke-dasharray:none;stroke-dashoffset:0;stroke-opacity:1;marker-end:url(#Arrow1L);paint-order:normal;stop-color:#000000;stop-opacity:1"
       id="rect83026"
       width="2.4862566"
       height="8.0803347"
       x="136.8649"
       y="36.187634" /><rect
       style="font-variation-settings:normal;opacity:1;fill:#fff6d5;fill-opacity:1;stroke:#333333;stroke-width:0.35232;stroke-linecap:butt;stroke-linejoin:miter;stroke-miterlimit:4;stroke-dasharray:none;stroke-dashoffset:0;stroke-opacity:1;marker-end:url(#Arrow1L);paint-order:normal;stop-color:#000000;stop-opacity:1"
       id="rect83028"
       width="2.4862566"
       height="8.0803347"
       x="139.35799"
       y="36.187634" /><rect
       style="font-variation-settings:normal;opacity:1;fill:#fff6d5;fill-opacity:1;stroke:#333333;stroke-width:0.35232;stroke-linecap:butt;stroke-linejoin:miter;stroke-miterlimit:4;stroke-dasharray:none;stroke-dashoffset:0;stroke-opacity:1;marker-end:url(#Arrow1L);paint-order:normal;stop-color:#000000;stop-opacity:1"
       id="rect83030"
       width="2.4862566"
       height="8.0803347"
       x="141.84714"
       y="36.187634" /><rect
       style="font-variation-settings:normal;opacity:1;fill:#fff6d5;fill-opacity:1;stroke:#333333;stroke-width:0.35232;stroke-linecap:butt;stroke-linejoin:miter;stroke-miterlimit:4;stroke-dasharray:none;stroke-dashoffset:0;stroke-opacity:1;marker-end:url(#Arrow1L);paint-order:normal;stop-color:#000000;stop-opacity:1"
       id="rect83032"
       width="2.4862566"
       height="8.0803347"
       x="144.32722"
       y="36.187634" /><rect
       style="font-variation-settings:normal;opacity:1;fill:#fff6d5;fill-opacity:1;stroke:#333333;stroke-width:0.35232;stroke-linecap:butt;stroke-linejoin:miter;stroke-miterlimit:4;stroke-dasharray:none;stroke-dashoffset:0;stroke-opacity:1;marker-end:url(#Arrow1L);paint-order:normal;stop-color:#000000;stop-opacity:1"
       id="rect83034"
       width="2.4862566"
       height="8.0803347"
       x="146.81641"
       y="36.187634" /><rect
       style="font-variation-settings:normal;opacity:1;fill:#fff6d5;fill-opacity:1;stroke:#333333;stroke-width:0.35232;stroke-linecap:butt;stroke-linejoin:miter;stroke-miterlimit:4;stroke-dasharray:none;stroke-dashoffset:0;stroke-opacity:1;marker-end:url(#Arrow1L);paint-order:normal;stop-color:#000000;stop-opacity:1"
       id="rect83036"
       width="2.4862566"
       height="8.0803347"
       x="149.30951"
       y="36.187634" /><rect
       style="font-variation-settings:normal;opacity:1;fill:#fff6d5;fill-opacity:1;stroke:#333333;stroke-width:0.35232;stroke-linecap:butt;stroke-linejoin:miter;stroke-miterlimit:4;stroke-dasharray:none;stroke-dashoffset:0;stroke-opacity:1;marker-end:url(#Arrow1L);paint-order:normal;stop-color:#000000;stop-opacity:1"
       id="rect83038"
       width="2.4862566"
       height="8.0803347"
       x="151.79865"
       y="36.187634" /><rect
       style="font-variation-settings:normal;opacity:1;fill:#fff6d5;fill-opacity:1;stroke:#333333;stroke-width:0.35232;stroke-linecap:butt;stroke-linejoin:miter;stroke-miterlimit:4;stroke-dasharray:none;stroke-dashoffset:0;stroke-opacity:1;marker-end:url(#Arrow1L);paint-order:normal;stop-color:#000000;stop-opacity:1"
       id="rect83040"
       width="2.4862566"
       height="8.0803347"
       x="74.637222"
       y="50.170341" /><rect
       style="font-variation-settings:normal;opacity:1;fill:#fff6d5;fill-opacity:1;stroke:#333333;stroke-width:0.35232;stroke-linecap:butt;stroke-linejoin:miter;stroke-miterlimit:4;stroke-dasharray:none;stroke-dashoffset:0;stroke-opacity:1;marker-end:url(#Arrow1L);paint-order:normal;stop-color:#000000;stop-opacity:1"
       id="rect83042"
       width="2.4862566"
       height="8.0803347"
       x="77.126389"
       y="50.170341" /><rect
       style="font-variation-settings:normal;opacity:1;fill:#fff6d5;fill-opacity:1;stroke:#333333;stroke-width:0.35232;stroke-linecap:butt;stroke-linejoin:miter;stroke-miterlimit:4;stroke-dasharray:none;stroke-dashoffset:0;stroke-opacity:1;marker-end:url(#Arrow1L);paint-order:normal;stop-color:#000000;stop-opacity:1"
       id="rect83044"
       width="2.4862566"
       height="8.0803347"
       x="79.619499"
       y="50.170341" /><rect
       style="font-variation-settings:normal;opacity:1;fill:#fff6d5;fill-opacity:1;stroke:#333333;stroke-width:0.35232;stroke-linecap:butt;stroke-linejoin:miter;stroke-miterlimit:4;stroke-dasharray:none;stroke-dashoffset:0;stroke-opacity:1;marker-end:url(#Arrow1L);paint-order:normal;stop-color:#000000;stop-opacity:1"
       id="rect83046"
       width="2.4862566"
       height="8.0803347"
       x="82.108665"
       y="50.170341" /><rect
       style="font-variation-settings:normal;opacity:1;fill:#fff6d5;fill-opacity:1;stroke:#333333;stroke-width:0.35232;stroke-linecap:butt;stroke-linejoin:miter;stroke-miterlimit:4;stroke-dasharray:none;stroke-dashoffset:0;stroke-opacity:1;marker-end:url(#Arrow1L);paint-order:normal;stop-color:#000000;stop-opacity:1"
       id="rect83048"
       width="2.4862566"
       height="8.0803347"
       x="84.588722"
       y="50.170341" /><rect
       style="font-variation-settings:normal;opacity:1;fill:#fff6d5;fill-opacity:1;stroke:#333333;stroke-width:0.35232;stroke-linecap:butt;stroke-linejoin:miter;stroke-miterlimit:4;stroke-dasharray:none;stroke-dashoffset:0;stroke-opacity:1;marker-end:url(#Arrow1L);paint-order:normal;stop-color:#000000;stop-opacity:1"
       id="rect83050"
       width="2.4862566"
       height="8.0803347"
       x="87.077888"
       y="50.170341" /><rect
       style="font-variation-settings:normal;opacity:1;fill:#fff6d5;fill-opacity:1;stroke:#333333;stroke-width:0.35232;stroke-linecap:butt;stroke-linejoin:miter;stroke-miterlimit:4;stroke-dasharray:none;stroke-dashoffset:0;stroke-opacity:1;marker-end:url(#Arrow1L);paint-order:normal;stop-color:#000000;stop-opacity:1"
       id="rect83052"
       width="2.4862566"
       height="8.0803347"
       x="89.570999"
       y="50.170341" /><rect
       style="font-variation-settings:normal;opacity:1;fill:#fff6d5;fill-opacity:1;stroke:#333333;stroke-width:0.35232;stroke-linecap:butt;stroke-linejoin:miter;stroke-miterlimit:4;stroke-dasharray:none;stroke-dashoffset:0;stroke-opacity:1;marker-end:url(#Arrow1L);paint-order:normal;stop-color:#000000;stop-opacity:1"
       id="rect83054"
       width="2.4862566"
       height="8.0803347"
       x="92.060165"
       y="50.170341" /><rect
       style="font-variation-settings:normal;opacity:1;fill:#fff6d5;fill-opacity:1;stroke:#333333;stroke-width:0.35232;stroke-linecap:butt;stroke-linejoin:miter;stroke-miterlimit:4;stroke-dasharray:none;stroke-dashoffset:0;stroke-opacity:1;marker-end:url(#Arrow1L);paint-order:normal;stop-color:#000000;stop-opacity:1"
       id="rect83056"
       width="2.4862566"
       height="8.0803347"
       x="94.547577"
       y="50.170341" /><rect
       style="font-variation-settings:normal;opacity:1;fill:#fff6d5;fill-opacity:1;stroke:#333333;stroke-width:0.35232;stroke-linecap:butt;stroke-linejoin:miter;stroke-miterlimit:4;stroke-dasharray:none;stroke-dashoffset:0;stroke-opacity:1;marker-end:url(#Arrow1L);paint-order:normal;stop-color:#000000;stop-opacity:1"
       id="rect83058"
       width="2.4862566"
       height="8.0803347"
       x="97.036758"
       y="50.170341" /><rect
       style="font-variation-settings:normal;opacity:1;fill:#fff6d5;fill-opacity:1;stroke:#333333;stroke-width:0.35232;stroke-linecap:butt;stroke-linejoin:miter;stroke-miterlimit:4;stroke-dasharray:none;stroke-dashoffset:0;stroke-opacity:1;marker-end:url(#Arrow1L);paint-order:normal;stop-color:#000000;stop-opacity:1"
       id="rect83060"
       width="2.4862566"
       height="8.0803347"
       x="99.529861"
       y="50.170341" /><rect
       style="font-variation-settings:normal;opacity:1;fill:#fff6d5;fill-opacity:1;stroke:#333333;stroke-width:0.35232;stroke-linecap:butt;stroke-linejoin:miter;stroke-miterlimit:4;stroke-dasharray:none;stroke-dashoffset:0;stroke-opacity:1;marker-end:url(#Arrow1L);paint-order:normal;stop-color:#000000;stop-opacity:1"
       id="rect83062"
       width="2.4862566"
       height="8.0803347"
       x="102.01902"
       y="50.170341" /><rect
       style="font-variation-settings:normal;opacity:1;fill:#fff6d5;fill-opacity:1;stroke:#333333;stroke-width:0.35232;stroke-linecap:butt;stroke-linejoin:miter;stroke-miterlimit:4;stroke-dasharray:none;stroke-dashoffset:0;stroke-opacity:1;marker-end:url(#Arrow1L);paint-order:normal;stop-color:#000000;stop-opacity:1"
       id="rect83064"
       width="2.4862566"
       height="8.0803347"
       x="104.4991"
       y="50.170341" /><rect
       style="font-variation-settings:normal;opacity:1;fill:#fff6d5;fill-opacity:1;stroke:#333333;stroke-width:0.35232;stroke-linecap:butt;stroke-linejoin:miter;stroke-miterlimit:4;stroke-dasharray:none;stroke-dashoffset:0;stroke-opacity:1;marker-end:url(#Arrow1L);paint-order:normal;stop-color:#000000;stop-opacity:1"
       id="rect83066"
       width="2.4862566"
       height="8.0803347"
       x="106.98827"
       y="50.170341" /><rect
       style="font-variation-settings:normal;opacity:1;fill:#fff6d5;fill-opacity:1;stroke:#333333;stroke-width:0.35232;stroke-linecap:butt;stroke-linejoin:miter;stroke-miterlimit:4;stroke-dasharray:none;stroke-dashoffset:0;stroke-opacity:1;marker-end:url(#Arrow1L);paint-order:normal;stop-color:#000000;stop-opacity:1"
       id="rect83068"
       width="2.4862566"
       height="8.0803347"
       x="109.48138"
       y="50.170341" /><rect
       style="font-variation-settings:normal;opacity:1;fill:#fff6d5;fill-opacity:1;stroke:#333333;stroke-width:0.35232;stroke-linecap:butt;stroke-linejoin:miter;stroke-miterlimit:4;stroke-dasharray:none;stroke-dashoffset:0;stroke-opacity:1;marker-end:url(#Arrow1L);paint-order:normal;stop-color:#000000;stop-opacity:1"
       id="rect83070"
       width="2.4862566"
       height="8.0803347"
       x="111.97051"
       y="50.170341" /><rect
       style="font-variation-settings:normal;opacity:1;fill:#ff80b2;fill-opacity:1;stroke:#333333;stroke-width:0.35232;stroke-linecap:butt;stroke-linejoin:miter;stroke-miterlimit:4;stroke-dasharray:none;stroke-dashoffset:0;stroke-opacity:1;marker-end:url(#Arrow1L);paint-order:normal;stop-color:#000000;stop-opacity:1"
       id="rect83072"
       width="2.4862566"
       height="8.0803347"
       x="114.46526"
       y="50.170341" /><rect
       style="font-variation-settings:normal;opacity:1;fill:#ff80b2;fill-opacity:1;stroke:#333333;stroke-width:0.35232;stroke-linecap:butt;stroke-linejoin:miter;stroke-miterlimit:4;stroke-dasharray:none;stroke-dashoffset:0;stroke-opacity:1;marker-end:url(#Arrow1L);paint-order:normal;stop-color:#000000;stop-opacity:1"
       id="rect83074"
       width="2.4862566"
       height="8.0803347"
       x="116.95444"
       y="50.170341" /><rect
       style="font-variation-settings:normal;opacity:1;fill:#ff80b2;fill-opacity:1;stroke:#333333;stroke-width:0.35232;stroke-linecap:butt;stroke-linejoin:miter;stroke-miterlimit:4;stroke-dasharray:none;stroke-dashoffset:0;stroke-opacity:1;marker-end:url(#Arrow1L);paint-order:normal;stop-color:#000000;stop-opacity:1"
       id="rect83076"
       width="2.4862566"
       height="8.0803347"
       x="119.44753"
       y="50.170341" /><rect
       style="font-variation-settings:normal;opacity:1;fill:#ff80b2;fill-opacity:1;stroke:#333333;stroke-width:0.35232;stroke-linecap:butt;stroke-linejoin:miter;stroke-miterlimit:4;stroke-dasharray:none;stroke-dashoffset:0;stroke-opacity:1;marker-end:url(#Arrow1L);paint-order:normal;stop-color:#000000;stop-opacity:1"
       id="rect83078"
       width="2.4862566"
       height="8.0803347"
       x="121.93674"
       y="50.170341" /><rect
       style="font-variation-settings:normal;opacity:1;fill:#fff6d5;fill-opacity:1;stroke:#333333;stroke-width:0.35232;stroke-linecap:butt;stroke-linejoin:miter;stroke-miterlimit:4;stroke-dasharray:none;stroke-dashoffset:0;stroke-opacity:1;marker-end:url(#Arrow1L);paint-order:normal;stop-color:#000000;stop-opacity:1"
       id="rect83080"
       width="2.4862566"
       height="8.0803347"
       x="124.41682"
       y="50.170341" /><rect
       style="font-variation-settings:normal;opacity:1;fill:#fff6d5;fill-opacity:1;stroke:#333333;stroke-width:0.35232;stroke-linecap:butt;stroke-linejoin:miter;stroke-miterlimit:4;stroke-dasharray:none;stroke-dashoffset:0;stroke-opacity:1;marker-end:url(#Arrow1L);paint-order:normal;stop-color:#000000;stop-opacity:1"
       id="rect83082"
       width="2.4862566"
       height="8.0803347"
       x="126.906"
       y="50.170341" /><rect
       style="font-variation-settings:normal;opacity:1;fill:#fff6d5;fill-opacity:1;stroke:#333333;stroke-width:0.35232;stroke-linecap:butt;stroke-linejoin:miter;stroke-miterlimit:4;stroke-dasharray:none;stroke-dashoffset:0;stroke-opacity:1;marker-end:url(#Arrow1L);paint-order:normal;stop-color:#000000;stop-opacity:1"
       id="rect83084"
       width="2.4862566"
       height="8.0803347"
       x="129.39911"
       y="50.170341" /><rect
       style="font-variation-settings:normal;opacity:1;fill:#fff6d5;fill-opacity:1;stroke:#333333;stroke-width:0.35232;stroke-linecap:butt;stroke-linejoin:miter;stroke-miterlimit:4;stroke-dasharray:none;stroke-dashoffset:0;stroke-opacity:1;marker-end:url(#Arrow1L);paint-order:normal;stop-color:#000000;stop-opacity:1"
       id="rect83086"
       width="2.4862566"
       height="8.0803347"
       x="131.88826"
       y="50.170341" /><rect
       style="font-variation-settings:normal;opacity:1;fill:#fff6d5;fill-opacity:1;stroke:#333333;stroke-width:0.35232;stroke-linecap:butt;stroke-linejoin:miter;stroke-miterlimit:4;stroke-dasharray:none;stroke-dashoffset:0;stroke-opacity:1;marker-end:url(#Arrow1L);paint-order:normal;stop-color:#000000;stop-opacity:1"
       id="rect83088"
       width="2.4862566"
       height="8.0803347"
       x="134.3757"
       y="50.170341" /><rect
       style="font-variation-settings:normal;opacity:1;fill:#fff6d5;fill-opacity:1;stroke:#333333;stroke-width:0.35232;stroke-linecap:butt;stroke-linejoin:miter;stroke-miterlimit:4;stroke-dasharray:none;stroke-dashoffset:0;stroke-opacity:1;marker-end:url(#Arrow1L);paint-order:normal;stop-color:#000000;stop-opacity:1"
       id="rect83090"
       width="2.4862566"
       height="8.0803347"
       x="136.8649"
       y="50.170341" /><rect
       style="font-variation-settings:normal;opacity:1;fill:#fff6d5;fill-opacity:1;stroke:#333333;stroke-width:0.35232;stroke-linecap:butt;stroke-linejoin:miter;stroke-miterlimit:4;stroke-dasharray:none;stroke-dashoffset:0;stroke-opacity:1;marker-end:url(#Arrow1L);paint-order:normal;stop-color:#000000;stop-opacity:1"
       id="rect83092"
       width="2.4862566"
       height="8.0803347"
       x="139.35799"
       y="50.170341" /><rect
       style="font-variation-settings:normal;opacity:1;fill:#fff6d5;fill-opacity:1;stroke:#333333;stroke-width:0.35232;stroke-linecap:butt;stroke-linejoin:miter;stroke-miterlimit:4;stroke-dasharray:none;stroke-dashoffset:0;stroke-opacity:1;marker-end:url(#Arrow1L);paint-order:normal;stop-color:#000000;stop-opacity:1"
       id="rect83094"
       width="2.4862566"
       height="8.0803347"
       x="141.84714"
       y="50.170341" /><rect
       style="font-variation-settings:normal;opacity:1;fill:#fff6d5;fill-opacity:1;stroke:#333333;stroke-width:0.35232;stroke-linecap:butt;stroke-linejoin:miter;stroke-miterlimit:4;stroke-dasharray:none;stroke-dashoffset:0;stroke-opacity:1;marker-end:url(#Arrow1L);paint-order:normal;stop-color:#000000;stop-opacity:1"
       id="rect83096"
       width="2.4862566"
       height="8.0803347"
       x="144.32722"
       y="50.170341" /><rect
       style="font-variation-settings:normal;opacity:1;fill:#fff6d5;fill-opacity:1;stroke:#333333;stroke-width:0.35232;stroke-linecap:butt;stroke-linejoin:miter;stroke-miterlimit:4;stroke-dasharray:none;stroke-dashoffset:0;stroke-opacity:1;marker-end:url(#Arrow1L);paint-order:normal;stop-color:#000000;stop-opacity:1"
       id="rect83098"
       width="2.4862566"
       height="8.0803347"
       x="146.81641"
       y="50.170341" /><rect
       style="font-variation-settings:normal;opacity:1;fill:#fff6d5;fill-opacity:1;stroke:#333333;stroke-width:0.35232;stroke-linecap:butt;stroke-linejoin:miter;stroke-miterlimit:4;stroke-dasharray:none;stroke-dashoffset:0;stroke-opacity:1;marker-end:url(#Arrow1L);paint-order:normal;stop-color:#000000;stop-opacity:1"
       id="rect83100"
       width="2.4862566"
       height="8.0803347"
       x="149.30951"
       y="50.170341" /><rect
       style="font-variation-settings:normal;opacity:1;fill:#fff6d5;fill-opacity:1;stroke:#333333;stroke-width:0.35232;stroke-linecap:butt;stroke-linejoin:miter;stroke-miterlimit:4;stroke-dasharray:none;stroke-dashoffset:0;stroke-opacity:1;marker-end:url(#Arrow1L);paint-order:normal;stop-color:#000000;stop-opacity:1"
       id="rect83102"
       width="2.4862566"
       height="8.0803347"
       x="151.79865"
       y="50.170341" /><rect
       style="font-variation-settings:normal;opacity:1;fill:#fff6d5;fill-opacity:1;stroke:#333333;stroke-width:0.35232;stroke-linecap:butt;stroke-linejoin:miter;stroke-miterlimit:4;stroke-dasharray:none;stroke-dashoffset:0;stroke-opacity:1;marker-end:url(#Arrow1L);paint-order:normal;stop-color:#000000;stop-opacity:1"
       id="rect83104"
       width="2.4862566"
       height="8.0803347"
       x="74.637222"
       y="64.153046" /><rect
       style="font-variation-settings:normal;opacity:1;fill:#fff6d5;fill-opacity:1;stroke:#333333;stroke-width:0.35232;stroke-linecap:butt;stroke-linejoin:miter;stroke-miterlimit:4;stroke-dasharray:none;stroke-dashoffset:0;stroke-opacity:1;marker-end:url(#Arrow1L);paint-order:normal;stop-color:#000000;stop-opacity:1"
       id="rect83106"
       width="2.4862566"
       height="8.0803347"
       x="77.126389"
       y="64.153046" /><rect
       style="font-variation-settings:normal;opacity:1;fill:#fff6d5;fill-opacity:1;stroke:#333333;stroke-width:0.35232;stroke-linecap:butt;stroke-linejoin:miter;stroke-miterlimit:4;stroke-dasharray:none;stroke-dashoffset:0;stroke-opacity:1;marker-end:url(#Arrow1L);paint-order:normal;stop-color:#000000;stop-opacity:1"
       id="rect83108"
       width="2.4862566"
       height="8.0803347"
       x="79.619499"
       y="64.153046" /><rect
       style="font-variation-settings:normal;opacity:1;fill:#fff6d5;fill-opacity:1;stroke:#333333;stroke-width:0.35232;stroke-linecap:butt;stroke-linejoin:miter;stroke-miterlimit:4;stroke-dasharray:none;stroke-dashoffset:0;stroke-opacity:1;marker-end:url(#Arrow1L);paint-order:normal;stop-color:#000000;stop-opacity:1"
       id="rect83110"
       width="2.4862566"
       height="8.0803347"
       x="82.108665"
       y="64.153046" /><rect
       style="font-variation-settings:normal;opacity:1;fill:#fff6d5;fill-opacity:1;stroke:#333333;stroke-width:0.35232;stroke-linecap:butt;stroke-linejoin:miter;stroke-miterlimit:4;stroke-dasharray:none;stroke-dashoffset:0;stroke-opacity:1;marker-end:url(#Arrow1L);paint-order:normal;stop-color:#000000;stop-opacity:1"
       id="rect83112"
       width="2.4862566"
       height="8.0803347"
       x="84.588722"
       y="64.153046" /><rect
       style="font-variation-settings:normal;opacity:1;fill:#fff6d5;fill-opacity:1;stroke:#333333;stroke-width:0.35232;stroke-linecap:butt;stroke-linejoin:miter;stroke-miterlimit:4;stroke-dasharray:none;stroke-dashoffset:0;stroke-opacity:1;marker-end:url(#Arrow1L);paint-order:normal;stop-color:#000000;stop-opacity:1"
       id="rect83114"
       width="2.4862566"
       height="8.0803347"
       x="87.077888"
       y="64.153046" /><rect
       style="font-variation-settings:normal;opacity:1;fill:#fff6d5;fill-opacity:1;stroke:#333333;stroke-width:0.35232;stroke-linecap:butt;stroke-linejoin:miter;stroke-miterlimit:4;stroke-dasharray:none;stroke-dashoffset:0;stroke-opacity:1;marker-end:url(#Arrow1L);paint-order:normal;stop-color:#000000;stop-opacity:1"
       id="rect83116"
       width="2.4862566"
       height="8.0803347"
       x="89.570999"
       y="64.153046" /><rect
       style="font-variation-settings:normal;opacity:1;fill:#fff6d5;fill-opacity:1;stroke:#333333;stroke-width:0.35232;stroke-linecap:butt;stroke-linejoin:miter;stroke-miterlimit:4;stroke-dasharray:none;stroke-dashoffset:0;stroke-opacity:1;marker-end:url(#Arrow1L);paint-order:normal;stop-color:#000000;stop-opacity:1"
       id="rect83118"
       width="2.4862566"
       height="8.0803347"
       x="92.060165"
       y="64.153046" /><rect
       style="font-variation-settings:normal;opacity:1;fill:#fff6d5;fill-opacity:1;stroke:#333333;stroke-width:0.35232;stroke-linecap:butt;stroke-linejoin:miter;stroke-miterlimit:4;stroke-dasharray:none;stroke-dashoffset:0;stroke-opacity:1;marker-end:url(#Arrow1L);paint-order:normal;stop-color:#000000;stop-opacity:1"
       id="rect83120"
       width="2.4862566"
       height="8.0803347"
       x="94.547577"
       y="64.153046" /><rect
       style="font-variation-settings:normal;opacity:1;fill:#fff6d5;fill-opacity:1;stroke:#333333;stroke-width:0.35232;stroke-linecap:butt;stroke-linejoin:miter;stroke-miterlimit:4;stroke-dasharray:none;stroke-dashoffset:0;stroke-opacity:1;marker-end:url(#Arrow1L);paint-order:normal;stop-color:#000000;stop-opacity:1"
       id="rect83122"
       width="2.4862566"
       height="8.0803347"
       x="97.036758"
       y="64.153046" /><rect
       style="font-variation-settings:normal;opacity:1;fill:#fff6d5;fill-opacity:1;stroke:#333333;stroke-width:0.35232;stroke-linecap:butt;stroke-linejoin:miter;stroke-miterlimit:4;stroke-dasharray:none;stroke-dashoffset:0;stroke-opacity:1;marker-end:url(#Arrow1L);paint-order:normal;stop-color:#000000;stop-opacity:1"
       id="rect83124"
       width="2.4862566"
       height="8.0803347"
       x="99.529861"
       y="64.153046" /><rect
       style="font-variation-settings:normal;opacity:1;fill:#fff6d5;fill-opacity:1;stroke:#333333;stroke-width:0.35232;stroke-linecap:butt;stroke-linejoin:miter;stroke-miterlimit:4;stroke-dasharray:none;stroke-dashoffset:0;stroke-opacity:1;marker-end:url(#Arrow1L);paint-order:normal;stop-color:#000000;stop-opacity:1"
       id="rect83126"
       width="2.4862566"
       height="8.0803347"
       x="102.01902"
       y="64.153046" /><rect
       style="font-variation-settings:normal;opacity:1;fill:#fff6d5;fill-opacity:1;stroke:#333333;stroke-width:0.35232;stroke-linecap:butt;stroke-linejoin:miter;stroke-miterlimit:4;stroke-dasharray:none;stroke-dashoffset:0;stroke-opacity:1;marker-end:url(#Arrow1L);paint-order:normal;stop-color:#000000;stop-opacity:1"
       id="rect83128"
       width="2.4862566"
       height="8.0803347"
       x="104.4991"
       y="64.153046" /><rect
       style="font-variation-settings:normal;opacity:1;fill:#fff6d5;fill-opacity:1;stroke:#333333;stroke-width:0.35232;stroke-linecap:butt;stroke-linejoin:miter;stroke-miterlimit:4;stroke-dasharray:none;stroke-dashoffset:0;stroke-opacity:1;marker-end:url(#Arrow1L);paint-order:normal;stop-color:#000000;stop-opacity:1"
       id="rect83130"
       width="2.4862566"
       height="8.0803347"
       x="106.98827"
       y="64.153046" /><rect
       style="font-variation-settings:normal;opacity:1;fill:#fff6d5;fill-opacity:1;stroke:#333333;stroke-width:0.35232;stroke-linecap:butt;stroke-linejoin:miter;stroke-miterlimit:4;stroke-dasharray:none;stroke-dashoffset:0;stroke-opacity:1;marker-end:url(#Arrow1L);paint-order:normal;stop-color:#000000;stop-opacity:1"
       id="rect83132"
       width="2.4862566"
       height="8.0803347"
       x="109.48138"
       y="64.153046" /><rect
       style="font-variation-settings:normal;opacity:1;fill:#fff6d5;fill-opacity:1;stroke:#333333;stroke-width:0.35232;stroke-linecap:butt;stroke-linejoin:miter;stroke-miterlimit:4;stroke-dasharray:none;stroke-dashoffset:0;stroke-opacity:1;marker-end:url(#Arrow1L);paint-order:normal;stop-color:#000000;stop-opacity:1"
       id="rect83134"
       width="2.4862566"
       height="8.0803347"
       x="111.97051"
       y="64.153046" /><rect
       style="font-variation-settings:normal;opacity:1;fill:#fff6d5;fill-opacity:1;stroke:#333333;stroke-width:0.35232;stroke-linecap:butt;stroke-linejoin:miter;stroke-miterlimit:4;stroke-dasharray:none;stroke-dashoffset:0;stroke-opacity:1;marker-end:url(#Arrow1L);paint-order:normal;stop-color:#000000;stop-opacity:1"
       id="rect83136"
       width="2.4862566"
       height="8.0803347"
       x="114.46526"
       y="64.153046" /><rect
       style="font-variation-settings:normal;opacity:1;fill:#fff6d5;fill-opacity:1;stroke:#333333;stroke-width:0.35232;stroke-linecap:butt;stroke-linejoin:miter;stroke-miterlimit:4;stroke-dasharray:none;stroke-dashoffset:0;stroke-opacity:1;marker-end:url(#Arrow1L);paint-order:normal;stop-color:#000000;stop-opacity:1"
       id="rect83138"
       width="2.4862566"
       height="8.0803347"
       x="116.95444"
       y="64.153046" /><rect
       style="font-variation-settings:normal;opacity:1;fill:#ff80b2;fill-opacity:1;stroke:#333333;stroke-width:0.35232;stroke-linecap:butt;stroke-linejoin:miter;stroke-miterlimit:4;stroke-dasharray:none;stroke-dashoffset:0;stroke-opacity:1;marker-end:url(#Arrow1L);paint-order:normal;stop-color:#000000;stop-opacity:1"
       id="rect83140"
       width="2.4862566"
       height="8.0803347"
       x="119.44753"
       y="64.153046" /><rect
       style="font-variation-settings:normal;opacity:1;fill:#ff80b2;fill-opacity:1;stroke:#333333;stroke-width:0.35232;stroke-linecap:butt;stroke-linejoin:miter;stroke-miterlimit:4;stroke-dasharray:none;stroke-dashoffset:0;stroke-opacity:1;marker-end:url(#Arrow1L);paint-order:normal;stop-color:#000000;stop-opacity:1"
       id="rect83142"
       width="2.4862566"
       height="8.0803347"
       x="121.93674"
       y="64.153046" /><rect
       style="font-variation-settings:normal;opacity:1;fill:#fff6d5;fill-opacity:1;stroke:#333333;stroke-width:0.35232;stroke-linecap:butt;stroke-linejoin:miter;stroke-miterlimit:4;stroke-dasharray:none;stroke-dashoffset:0;stroke-opacity:1;marker-end:url(#Arrow1L);paint-order:normal;stop-color:#000000;stop-opacity:1"
       id="rect83144"
       width="2.4862566"
       height="8.0803347"
       x="124.41682"
       y="64.153046" /><rect
       style="font-variation-settings:normal;opacity:1;fill:#fff6d5;fill-opacity:1;stroke:#333333;stroke-width:0.35232;stroke-linecap:butt;stroke-linejoin:miter;stroke-miterlimit:4;stroke-dasharray:none;stroke-dashoffset:0;stroke-opacity:1;marker-end:url(#Arrow1L);paint-order:normal;stop-color:#000000;stop-opacity:1"
       id="rect83146"
       width="2.4862566"
       height="8.0803347"
       x="126.906"
       y="64.153046" /><rect
       style="font-variation-settings:normal;opacity:1;fill:#fff6d5;fill-opacity:1;stroke:#333333;stroke-width:0.35232;stroke-linecap:butt;stroke-linejoin:miter;stroke-miterlimit:4;stroke-dasharray:none;stroke-dashoffset:0;stroke-opacity:1;marker-end:url(#Arrow1L);paint-order:normal;stop-color:#000000;stop-opacity:1"
       id="rect83148"
       width="2.4862566"
       height="8.0803347"
       x="129.39911"
       y="64.153046" /><rect
       style="font-variation-settings:normal;opacity:1;fill:#fff6d5;fill-opacity:1;stroke:#333333;stroke-width:0.35232;stroke-linecap:butt;stroke-linejoin:miter;stroke-miterlimit:4;stroke-dasharray:none;stroke-dashoffset:0;stroke-opacity:1;marker-end:url(#Arrow1L);paint-order:normal;stop-color:#000000;stop-opacity:1"
       id="rect83150"
       width="2.4862566"
       height="8.0803347"
       x="131.88826"
       y="64.153046" /><rect
       style="font-variation-settings:normal;opacity:1;fill:#fff6d5;fill-opacity:1;stroke:#333333;stroke-width:0.35232;stroke-linecap:butt;stroke-linejoin:miter;stroke-miterlimit:4;stroke-dasharray:none;stroke-dashoffset:0;stroke-opacity:1;marker-end:url(#Arrow1L);paint-order:normal;stop-color:#000000;stop-opacity:1"
       id="rect83152"
       width="2.4862566"
       height="8.0803347"
       x="134.3757"
       y="64.153046" /><rect
       style="font-variation-settings:normal;opacity:1;fill:#fff6d5;fill-opacity:1;stroke:#333333;stroke-width:0.35232;stroke-linecap:butt;stroke-linejoin:miter;stroke-miterlimit:4;stroke-dasharray:none;stroke-dashoffset:0;stroke-opacity:1;marker-end:url(#Arrow1L);paint-order:normal;stop-color:#000000;stop-opacity:1"
       id="rect83154"
       width="2.4862566"
       height="8.0803347"
       x="136.8649"
       y="64.153046" /><rect
       style="font-variation-settings:normal;opacity:1;fill:#fff6d5;fill-opacity:1;stroke:#333333;stroke-width:0.35232;stroke-linecap:butt;stroke-linejoin:miter;stroke-miterlimit:4;stroke-dasharray:none;stroke-dashoffset:0;stroke-opacity:1;marker-end:url(#Arrow1L);paint-order:normal;stop-color:#000000;stop-opacity:1"
       id="rect83156"
       width="2.4862566"
       height="8.0803347"
       x="139.35799"
       y="64.153046" /><rect
       style="font-variation-settings:normal;opacity:1;fill:#fff6d5;fill-opacity:1;stroke:#333333;stroke-width:0.35232;stroke-linecap:butt;stroke-linejoin:miter;stroke-miterlimit:4;stroke-dasharray:none;stroke-dashoffset:0;stroke-opacity:1;marker-end:url(#Arrow1L);paint-order:normal;stop-color:#000000;stop-opacity:1"
       id="rect83158"
       width="2.4862566"
       height="8.0803347"
       x="141.84714"
       y="64.153046" /><rect
       style="font-variation-settings:normal;opacity:1;fill:#fff6d5;fill-opacity:1;stroke:#333333;stroke-width:0.35232;stroke-linecap:butt;stroke-linejoin:miter;stroke-miterlimit:4;stroke-dasharray:none;stroke-dashoffset:0;stroke-opacity:1;marker-end:url(#Arrow1L);paint-order:normal;stop-color:#000000;stop-opacity:1"
       id="rect83160"
       width="2.4862566"
       height="8.0803347"
       x="144.32722"
       y="64.153046" /><rect
       style="font-variation-settings:normal;opacity:1;fill:#fff6d5;fill-opacity:1;stroke:#333333;stroke-width:0.35232;stroke-linecap:butt;stroke-linejoin:miter;stroke-miterlimit:4;stroke-dasharray:none;stroke-dashoffset:0;stroke-opacity:1;marker-end:url(#Arrow1L);paint-order:normal;stop-color:#000000;stop-opacity:1"
       id="rect83162"
       width="2.4862566"
       height="8.0803347"
       x="146.81641"
       y="64.153046" /><rect
       style="font-variation-settings:normal;opacity:1;fill:#fff6d5;fill-opacity:1;stroke:#333333;stroke-width:0.35232;stroke-linecap:butt;stroke-linejoin:miter;stroke-miterlimit:4;stroke-dasharray:none;stroke-dashoffset:0;stroke-opacity:1;marker-end:url(#Arrow1L);paint-order:normal;stop-color:#000000;stop-opacity:1"
       id="rect83164"
       width="2.4862566"
       height="8.0803347"
       x="149.30951"
       y="64.153046" /><rect
       style="font-variation-settings:normal;opacity:1;fill:#fff6d5;fill-opacity:1;stroke:#333333;stroke-width:0.35232;stroke-linecap:butt;stroke-linejoin:miter;stroke-miterlimit:4;stroke-dasharray:none;stroke-dashoffset:0;stroke-opacity:1;marker-end:url(#Arrow1L);paint-order:normal;stop-color:#000000;stop-opacity:1"
       id="rect83166"
       width="2.4862566"
       height="8.0803347"
       x="151.79865"
       y="64.153046" /><text
       xml:space="preserve"
       style="font-size:2.82222222px;line-height:0.65;font-family:'EB Garamond';-inkscape-font-specification:'EB Garamond, Normal';text-align:start;letter-spacing:0px;word-spacing:0px;text-anchor:start;stroke-width:0.233045"
       x="76.836517"
       y="19.691809"
       id="text83308"><tspan
         sodipodi:role="line"
         id="tspan83306"
         style="text-align:start;text-anchor:start;stroke-width:0.233045;font-size:2.82222222px"
         x="76.836517"
         y="19.691809">After answering</tspan></text><text
       xml:space="preserve"
       style="font-size:2.82222222px;line-height:0.65;font-family:'EB Garamond';-inkscape-font-specification:'EB Garamond, Normal';text-align:start;letter-spacing:0px;word-spacing:0px;text-anchor:start;stroke-width:0.233045"
       x="76.734123"
       y="33.695023"
       id="text83312"><tspan
         sodipodi:role="line"
         id="tspan83310"
         style="text-align:start;text-anchor:start;stroke-width:0.233045;font-size:2.82222222px"
         x="76.734123"
         y="33.695023">The first question</tspan></text><text
       xml:space="preserve"
       style="font-size:2.82222222px;line-height:0.65;font-family:'EB Garamond';-inkscape-font-specification:'EB Garamond, Normal';text-align:start;letter-spacing:0px;word-spacing:0px;text-anchor:start;stroke-width:0.233045"
       x="76.734123"
       y="47.677731"
       id="text83316"><tspan
         sodipodi:role="line"
         id="tspan83314"
         style="text-align:start;text-anchor:start;stroke-width:0.233045;font-size:2.82222222px"
         x="76.734123"
         y="47.677731">The second question</tspan></text><text
       xml:space="preserve"
       style="font-size:2.82222222px;line-height:0.65;font-family:'EB Garamond';-inkscape-font-specification:'EB Garamond, Normal';text-align:start;letter-spacing:0px;word-spacing:0px;text-anchor:start;stroke-width:0.233045"
       x="76.734123"
       y="61.660439"
       id="text83320"><tspan
         sodipodi:role="line"
         id="tspan83318"
         style="text-align:start;text-anchor:start;stroke-width:0.233045;font-size:2.82222222px"
         x="76.734123"
         y="61.660439">The third question</tspan></text><rect
       style="font-variation-settings:normal;opacity:1;fill:#fff6d5;fill-opacity:1;stroke:#333333;stroke-width:0.35232;stroke-linecap:butt;stroke-linejoin:miter;stroke-miterlimit:4;stroke-dasharray:none;stroke-dashoffset:0;stroke-opacity:1;marker-end:url(#Arrow1L);paint-order:normal;stop-color:#000000;stop-opacity:1"
       id="rect83322"
       width="2.4862566"
       height="8.0803347"
       x="74.637222"
       y="78.135742" /><rect
       style="font-variation-settings:normal;opacity:1;fill:#fff6d5;fill-opacity:1;stroke:#333333;stroke-width:0.35232;stroke-linecap:butt;stroke-linejoin:miter;stroke-miterlimit:4;stroke-dasharray:none;stroke-dashoffset:0;stroke-opacity:1;marker-end:url(#Arrow1L);paint-order:normal;stop-color:#000000;stop-opacity:1"
       id="rect83324"
       width="2.4862566"
       height="8.0803347"
       x="77.126389"
       y="78.135742" /><rect
       style="font-variation-settings:normal;opacity:1;fill:#fff6d5;fill-opacity:1;stroke:#333333;stroke-width:0.35232;stroke-linecap:butt;stroke-linejoin:miter;stroke-miterlimit:4;stroke-dasharray:none;stroke-dashoffset:0;stroke-opacity:1;marker-end:url(#Arrow1L);paint-order:normal;stop-color:#000000;stop-opacity:1"
       id="rect83326"
       width="2.4862566"
       height="8.0803347"
       x="79.619499"
       y="78.135742" /><rect
       style="font-variation-settings:normal;opacity:1;fill:#fff6d5;fill-opacity:1;stroke:#333333;stroke-width:0.35232;stroke-linecap:butt;stroke-linejoin:miter;stroke-miterlimit:4;stroke-dasharray:none;stroke-dashoffset:0;stroke-opacity:1;marker-end:url(#Arrow1L);paint-order:normal;stop-color:#000000;stop-opacity:1"
       id="rect83328"
       width="2.4862566"
       height="8.0803347"
       x="82.108665"
       y="78.135742" /><rect
       style="font-variation-settings:normal;opacity:1;fill:#fff6d5;fill-opacity:1;stroke:#333333;stroke-width:0.35232;stroke-linecap:butt;stroke-linejoin:miter;stroke-miterlimit:4;stroke-dasharray:none;stroke-dashoffset:0;stroke-opacity:1;marker-end:url(#Arrow1L);paint-order:normal;stop-color:#000000;stop-opacity:1"
       id="rect83330"
       width="2.4862566"
       height="8.0803347"
       x="84.588722"
       y="78.135742" /><rect
       style="font-variation-settings:normal;opacity:1;fill:#fff6d5;fill-opacity:1;stroke:#333333;stroke-width:0.35232;stroke-linecap:butt;stroke-linejoin:miter;stroke-miterlimit:4;stroke-dasharray:none;stroke-dashoffset:0;stroke-opacity:1;marker-end:url(#Arrow1L);paint-order:normal;stop-color:#000000;stop-opacity:1"
       id="rect83332"
       width="2.4862566"
       height="8.0803347"
       x="87.077888"
       y="78.135742" /><rect
       style="font-variation-settings:normal;opacity:1;fill:#fff6d5;fill-opacity:1;stroke:#333333;stroke-width:0.35232;stroke-linecap:butt;stroke-linejoin:miter;stroke-miterlimit:4;stroke-dasharray:none;stroke-dashoffset:0;stroke-opacity:1;marker-end:url(#Arrow1L);paint-order:normal;stop-color:#000000;stop-opacity:1"
       id="rect83334"
       width="2.4862566"
       height="8.0803347"
       x="89.570999"
       y="78.135742" /><rect
       style="font-variation-settings:normal;opacity:1;fill:#fff6d5;fill-opacity:1;stroke:#333333;stroke-width:0.35232;stroke-linecap:butt;stroke-linejoin:miter;stroke-miterlimit:4;stroke-dasharray:none;stroke-dashoffset:0;stroke-opacity:1;marker-end:url(#Arrow1L);paint-order:normal;stop-color:#000000;stop-opacity:1"
       id="rect83336"
       width="2.4862566"
       height="8.0803347"
       x="92.060165"
       y="78.135742" /><rect
       style="font-variation-settings:normal;opacity:1;fill:#fff6d5;fill-opacity:1;stroke:#333333;stroke-width:0.35232;stroke-linecap:butt;stroke-linejoin:miter;stroke-miterlimit:4;stroke-dasharray:none;stroke-dashoffset:0;stroke-opacity:1;marker-end:url(#Arrow1L);paint-order:normal;stop-color:#000000;stop-opacity:1"
       id="rect83338"
       width="2.4862566"
       height="8.0803347"
       x="94.547577"
       y="78.135742" /><rect
       style="font-variation-settings:normal;opacity:1;fill:#fff6d5;fill-opacity:1;stroke:#333333;stroke-width:0.35232;stroke-linecap:butt;stroke-linejoin:miter;stroke-miterlimit:4;stroke-dasharray:none;stroke-dashoffset:0;stroke-opacity:1;marker-end:url(#Arrow1L);paint-order:normal;stop-color:#000000;stop-opacity:1"
       id="rect83340"
       width="2.4862566"
       height="8.0803347"
       x="97.036758"
       y="78.135742" /><rect
       style="font-variation-settings:normal;opacity:1;fill:#fff6d5;fill-opacity:1;stroke:#333333;stroke-width:0.35232;stroke-linecap:butt;stroke-linejoin:miter;stroke-miterlimit:4;stroke-dasharray:none;stroke-dashoffset:0;stroke-opacity:1;marker-end:url(#Arrow1L);paint-order:normal;stop-color:#000000;stop-opacity:1"
       id="rect83342"
       width="2.4862566"
       height="8.0803347"
       x="99.529861"
       y="78.135742" /><rect
       style="font-variation-settings:normal;opacity:1;fill:#fff6d5;fill-opacity:1;stroke:#333333;stroke-width:0.35232;stroke-linecap:butt;stroke-linejoin:miter;stroke-miterlimit:4;stroke-dasharray:none;stroke-dashoffset:0;stroke-opacity:1;marker-end:url(#Arrow1L);paint-order:normal;stop-color:#000000;stop-opacity:1"
       id="rect83344"
       width="2.4862566"
       height="8.0803347"
       x="102.01902"
       y="78.135742" /><rect
       style="font-variation-settings:normal;opacity:1;fill:#fff6d5;fill-opacity:1;stroke:#333333;stroke-width:0.35232;stroke-linecap:butt;stroke-linejoin:miter;stroke-miterlimit:4;stroke-dasharray:none;stroke-dashoffset:0;stroke-opacity:1;marker-end:url(#Arrow1L);paint-order:normal;stop-color:#000000;stop-opacity:1"
       id="rect83346"
       width="2.4862566"
       height="8.0803347"
       x="104.4991"
       y="78.135742" /><rect
       style="font-variation-settings:normal;opacity:1;fill:#fff6d5;fill-opacity:1;stroke:#333333;stroke-width:0.35232;stroke-linecap:butt;stroke-linejoin:miter;stroke-miterlimit:4;stroke-dasharray:none;stroke-dashoffset:0;stroke-opacity:1;marker-end:url(#Arrow1L);paint-order:normal;stop-color:#000000;stop-opacity:1"
       id="rect83348"
       width="2.4862566"
       height="8.0803347"
       x="106.98827"
       y="78.135742" /><rect
       style="font-variation-settings:normal;opacity:1;fill:#fff6d5;fill-opacity:1;stroke:#333333;stroke-width:0.35232;stroke-linecap:butt;stroke-linejoin:miter;stroke-miterlimit:4;stroke-dasharray:none;stroke-dashoffset:0;stroke-opacity:1;marker-end:url(#Arrow1L);paint-order:normal;stop-color:#000000;stop-opacity:1"
       id="rect83350"
       width="2.4862566"
       height="8.0803347"
       x="109.48138"
       y="78.135742" /><rect
       style="font-variation-settings:normal;opacity:1;fill:#fff6d5;fill-opacity:1;stroke:#333333;stroke-width:0.35232;stroke-linecap:butt;stroke-linejoin:miter;stroke-miterlimit:4;stroke-dasharray:none;stroke-dashoffset:0;stroke-opacity:1;marker-end:url(#Arrow1L);paint-order:normal;stop-color:#000000;stop-opacity:1"
       id="rect83352"
       width="2.4862566"
       height="8.0803347"
       x="111.97051"
       y="78.135742" /><rect
       style="font-variation-settings:normal;opacity:1;fill:#fff6d5;fill-opacity:1;stroke:#333333;stroke-width:0.35232;stroke-linecap:butt;stroke-linejoin:miter;stroke-miterlimit:4;stroke-dasharray:none;stroke-dashoffset:0;stroke-opacity:1;marker-end:url(#Arrow1L);paint-order:normal;stop-color:#000000;stop-opacity:1"
       id="rect83354"
       width="2.4862566"
       height="8.0803347"
       x="114.46526"
       y="78.135742" /><rect
       style="font-variation-settings:normal;opacity:1;fill:#fff6d5;fill-opacity:1;stroke:#333333;stroke-width:0.35232;stroke-linecap:butt;stroke-linejoin:miter;stroke-miterlimit:4;stroke-dasharray:none;stroke-dashoffset:0;stroke-opacity:1;marker-end:url(#Arrow1L);paint-order:normal;stop-color:#000000;stop-opacity:1"
       id="rect83356"
       width="2.4862566"
       height="8.0803347"
       x="116.95444"
       y="78.135742" /><rect
       style="font-variation-settings:normal;opacity:1;fill:#ff80b2;fill-opacity:1;stroke:#333333;stroke-width:0.35232;stroke-linecap:butt;stroke-linejoin:miter;stroke-miterlimit:4;stroke-dasharray:none;stroke-dashoffset:0;stroke-opacity:1;marker-end:url(#Arrow1L);paint-order:normal;stop-color:#000000;stop-opacity:1"
       id="rect83358"
       width="2.4862566"
       height="8.0803347"
       x="119.44753"
       y="78.135742" /><rect
       style="font-variation-settings:normal;opacity:1;fill:#fff6d5;fill-opacity:1;stroke:#333333;stroke-width:0.35232;stroke-linecap:butt;stroke-linejoin:miter;stroke-miterlimit:4;stroke-dasharray:none;stroke-dashoffset:0;stroke-opacity:1;marker-end:url(#Arrow1L);paint-order:normal;stop-color:#000000;stop-opacity:1"
       id="rect83360"
       width="2.4862566"
       height="8.0803347"
       x="121.93674"
       y="78.135742" /><rect
       style="font-variation-settings:normal;opacity:1;fill:#fff6d5;fill-opacity:1;stroke:#333333;stroke-width:0.35232;stroke-linecap:butt;stroke-linejoin:miter;stroke-miterlimit:4;stroke-dasharray:none;stroke-dashoffset:0;stroke-opacity:1;marker-end:url(#Arrow1L);paint-order:normal;stop-color:#000000;stop-opacity:1"
       id="rect83362"
       width="2.4862566"
       height="8.0803347"
       x="124.41682"
       y="78.135742" /><rect
       style="font-variation-settings:normal;opacity:1;fill:#fff6d5;fill-opacity:1;stroke:#333333;stroke-width:0.35232;stroke-linecap:butt;stroke-linejoin:miter;stroke-miterlimit:4;stroke-dasharray:none;stroke-dashoffset:0;stroke-opacity:1;marker-end:url(#Arrow1L);paint-order:normal;stop-color:#000000;stop-opacity:1"
       id="rect83364"
       width="2.4862566"
       height="8.0803347"
       x="126.906"
       y="78.135742" /><rect
       style="font-variation-settings:normal;opacity:1;fill:#fff6d5;fill-opacity:1;stroke:#333333;stroke-width:0.35232;stroke-linecap:butt;stroke-linejoin:miter;stroke-miterlimit:4;stroke-dasharray:none;stroke-dashoffset:0;stroke-opacity:1;marker-end:url(#Arrow1L);paint-order:normal;stop-color:#000000;stop-opacity:1"
       id="rect83366"
       width="2.4862566"
       height="8.0803347"
       x="129.39911"
       y="78.135742" /><rect
       style="font-variation-settings:normal;opacity:1;fill:#fff6d5;fill-opacity:1;stroke:#333333;stroke-width:0.35232;stroke-linecap:butt;stroke-linejoin:miter;stroke-miterlimit:4;stroke-dasharray:none;stroke-dashoffset:0;stroke-opacity:1;marker-end:url(#Arrow1L);paint-order:normal;stop-color:#000000;stop-opacity:1"
       id="rect83368"
       width="2.4862566"
       height="8.0803347"
       x="131.88826"
       y="78.135742" /><rect
       style="font-variation-settings:normal;opacity:1;fill:#fff6d5;fill-opacity:1;stroke:#333333;stroke-width:0.35232;stroke-linecap:butt;stroke-linejoin:miter;stroke-miterlimit:4;stroke-dasharray:none;stroke-dashoffset:0;stroke-opacity:1;marker-end:url(#Arrow1L);paint-order:normal;stop-color:#000000;stop-opacity:1"
       id="rect83370"
       width="2.4862566"
       height="8.0803347"
       x="134.3757"
       y="78.135742" /><rect
       style="font-variation-settings:normal;opacity:1;fill:#fff6d5;fill-opacity:1;stroke:#333333;stroke-width:0.35232;stroke-linecap:butt;stroke-linejoin:miter;stroke-miterlimit:4;stroke-dasharray:none;stroke-dashoffset:0;stroke-opacity:1;marker-end:url(#Arrow1L);paint-order:normal;stop-color:#000000;stop-opacity:1"
       id="rect83372"
       width="2.4862566"
       height="8.0803347"
       x="136.8649"
       y="78.135742" /><rect
       style="font-variation-settings:normal;opacity:1;fill:#fff6d5;fill-opacity:1;stroke:#333333;stroke-width:0.35232;stroke-linecap:butt;stroke-linejoin:miter;stroke-miterlimit:4;stroke-dasharray:none;stroke-dashoffset:0;stroke-opacity:1;marker-end:url(#Arrow1L);paint-order:normal;stop-color:#000000;stop-opacity:1"
       id="rect83374"
       width="2.4862566"
       height="8.0803347"
       x="139.35799"
       y="78.135742" /><rect
       style="font-variation-settings:normal;opacity:1;fill:#fff6d5;fill-opacity:1;stroke:#333333;stroke-width:0.35232;stroke-linecap:butt;stroke-linejoin:miter;stroke-miterlimit:4;stroke-dasharray:none;stroke-dashoffset:0;stroke-opacity:1;marker-end:url(#Arrow1L);paint-order:normal;stop-color:#000000;stop-opacity:1"
       id="rect83376"
       width="2.4862566"
       height="8.0803347"
       x="141.84714"
       y="78.135742" /><rect
       style="font-variation-settings:normal;opacity:1;fill:#fff6d5;fill-opacity:1;stroke:#333333;stroke-width:0.35232;stroke-linecap:butt;stroke-linejoin:miter;stroke-miterlimit:4;stroke-dasharray:none;stroke-dashoffset:0;stroke-opacity:1;marker-end:url(#Arrow1L);paint-order:normal;stop-color:#000000;stop-opacity:1"
       id="rect83378"
       width="2.4862566"
       height="8.0803347"
       x="144.32722"
       y="78.135742" /><rect
       style="font-variation-settings:normal;opacity:1;fill:#fff6d5;fill-opacity:1;stroke:#333333;stroke-width:0.35232;stroke-linecap:butt;stroke-linejoin:miter;stroke-miterlimit:4;stroke-dasharray:none;stroke-dashoffset:0;stroke-opacity:1;marker-end:url(#Arrow1L);paint-order:normal;stop-color:#000000;stop-opacity:1"
       id="rect83380"
       width="2.4862566"
       height="8.0803347"
       x="146.81641"
       y="78.135742" /><rect
       style="font-variation-settings:normal;opacity:1;fill:#fff6d5;fill-opacity:1;stroke:#333333;stroke-width:0.35232;stroke-linecap:butt;stroke-linejoin:miter;stroke-miterlimit:4;stroke-dasharray:none;stroke-dashoffset:0;stroke-opacity:1;marker-end:url(#Arrow1L);paint-order:normal;stop-color:#000000;stop-opacity:1"
       id="rect83382"
       width="2.4862566"
       height="8.0803347"
       x="149.30951"
       y="78.135742" /><rect
       style="font-variation-settings:normal;opacity:1;fill:#fff6d5;fill-opacity:1;stroke:#333333;stroke-width:0.35232;stroke-linecap:butt;stroke-linejoin:miter;stroke-miterlimit:4;stroke-dasharray:none;stroke-dashoffset:0;stroke-opacity:1;marker-end:url(#Arrow1L);paint-order:normal;stop-color:#000000;stop-opacity:1"
       id="rect83384"
       width="2.4862566"
       height="8.0803347"
       x="151.79865"
       y="78.135742" /><text
       xml:space="preserve"
       style="font-size:2.82222222px;line-height:0.65;font-family:'EB Garamond';-inkscape-font-specification:'EB Garamond, Normal';text-align:start;letter-spacing:0px;word-spacing:0px;text-anchor:start;stroke-width:0.233045"
       x="76.734123"
       y="75.643135"
       id="text83388"><tspan
         sodipodi:role="line"
         id="tspan83386"
         style="text-align:start;text-anchor:start;stroke-width:0.233045;font-size:2.82222222px"
         x="76.734123"
         y="75.643135">The fourth question</tspan></text><text
       xml:space="preserve"
       style="font-size:2.82222222px;line-height:0.65;font-family:'EB Garamond';-inkscape-font-specification:'EB Garamond, Normal';text-align:start;letter-spacing:0px;word-spacing:0px;text-anchor:start;stroke-width:0.233045"
       x="76.734123"
       y="89.625832"
       id="text83392"><tspan
         sodipodi:role="line"
         id="tspan83390"
         style="text-align:start;text-anchor:start;stroke-width:0.233045;font-size:2.82222222px"
         x="76.734123"
         y="89.625832">The fifth question</tspan></text><text
       xml:space="preserve"
       style="font-size:2.82222222px;line-height:0.65;font-family:'EB Garamond';-inkscape-font-specification:'EB Garamond, Normal';text-align:start;letter-spacing:0px;word-spacing:0px;text-anchor:start;stroke-width:0.233045"
       x="112.97396"
       y="21.090485"
       id="text84431"><tspan
         sodipodi:role="line"
         id="tspan84429"
         style="text-align:start;text-anchor:start;stroke-width:0.233045;font-size:2.82222222px"
         x="112.97396"
         y="21.090485">17</tspan></text><text
       xml:space="preserve"
       style="font-size:2.82222222px;line-height:0.65;font-family:'EB Garamond';-inkscape-font-specification:'EB Garamond, Normal';text-align:start;letter-spacing:0px;word-spacing:0px;text-anchor:start;stroke-width:0.233045"
       x="150.26118"
       y="21.090485"
       id="text84435"><tspan
         sodipodi:role="line"
         id="tspan84433"
         style="text-align:start;text-anchor:start;stroke-width:0.233045;font-size:2.82222222px"
         x="150.26118"
         y="21.090485">32</tspan></text><text
       xml:space="preserve"
       style="font-size:2.82222222px;line-height:0.65;font-family:'EB Garamond';-inkscape-font-specification:'EB Garamond, Normal';text-align:start;letter-spacing:0px;word-spacing:0px;text-anchor:start;stroke-width:0.233045"
       x="112.97396"
       y="35.073189"
       id="text84577"><tspan
         sodipodi:role="line"
         id="tspan84575"
         style="text-align:start;text-anchor:start;stroke-width:0.233045;font-size:2.82222222px"
         x="112.97396"
         y="35.073189">17</tspan></text><text
       xml:space="preserve"
       style="font-size:2.82222222px;line-height:0.65;font-family:'EB Garamond';-inkscape-font-specification:'EB Garamond, Normal';text-align:start;letter-spacing:0px;word-spacing:0px;text-anchor:start;stroke-width:0.233045"
       x="132.08366"
       y="35.073189"
       id="text84581"><tspan
         sodipodi:role="line"
         id="tspan84579"
         style="text-align:start;text-anchor:start;stroke-width:0.233045;font-size:2.82222222px"
         x="132.08366"
         y="35.073189">24</tspan></text><text
       xml:space="preserve"
       style="font-size:2.82222222px;line-height:0.65;font-family:'EB Garamond';-inkscape-font-specification:'EB Garamond, Normal';text-align:start;letter-spacing:0px;word-spacing:0px;text-anchor:start;stroke-width:0.233045"
       x="112.97396"
       y="49.055897"
       id="text84723"><tspan
         sodipodi:role="line"
         id="tspan84721"
         style="text-align:start;text-anchor:start;stroke-width:0.233045;font-size:2.82222222px"
         x="112.97396"
         y="49.055897">17</tspan></text><text
       xml:space="preserve"
       style="font-size:2.82222222px;line-height:0.65;font-family:'EB Garamond';-inkscape-font-specification:'EB Garamond, Normal';text-align:start;letter-spacing:0px;word-spacing:0px;text-anchor:start;stroke-width:0.233045"
       x="122.29576"
       y="49.055897"
       id="text84727"><tspan
         sodipodi:role="line"
         id="tspan84725"
         style="text-align:start;text-anchor:start;stroke-width:0.233045;font-size:2.82222222px"
         x="122.29576"
         y="49.055897">20</tspan></text><text
       xml:space="preserve"
       style="font-size:2.82222222px;line-height:0.65;font-family:'EB Garamond';-inkscape-font-specification:'EB Garamond, Normal';text-align:start;letter-spacing:0px;word-spacing:0px;text-anchor:start;stroke-width:0.233045"
       x="122.29576"
       y="63.038605"
       id="text84800"><tspan
         sodipodi:role="line"
         id="tspan84798"
         style="text-align:start;text-anchor:start;stroke-width:0.233045;font-size:2.82222222px"
         x="122.29576"
         y="63.038605">20</tspan></text><text
       xml:space="preserve"
       style="font-size:2.82222222px;line-height:0.65;font-family:'EB Garamond';-inkscape-font-specification:'EB Garamond, Normal';text-align:start;letter-spacing:0px;word-spacing:0px;text-anchor:start;stroke-width:0.233045"
       x="117.63486"
       y="63.038605"
       id="text84804"><tspan
         sodipodi:role="line"
         id="tspan84802"
         style="text-align:start;text-anchor:start;stroke-width:0.233045;font-size:2.82222222px"
         x="117.63486"
         y="63.038605">19</tspan></text><text
       xml:space="preserve"
       style="font-size:2.82222222px;line-height:0.65;font-family:'EB Garamond';-inkscape-font-specification:'EB Garamond, Normal';text-align:start;letter-spacing:0px;word-spacing:0px;text-anchor:start;stroke-width:0.233045"
       x="118.69527"
       y="77.021301"
       id="text84877"><tspan
         sodipodi:role="line"
         id="tspan84875"
         style="text-align:start;text-anchor:start;stroke-width:0.233045;font-size:2.82222222px"
         x="118.69527"
         y="77.021301">19</tspan></text></g></svg>
