<?xml version="1.0" encoding="UTF-8" standalone="no"?>
<!-- Created with Inkscape (http://www.inkscape.org/) -->

<svg
   width="48.498722mm"
   height="70.242401mm"
   viewBox="0 0 48.498722 70.242401"
   version="1.1"
   id="svg14311"
   xml:space="preserve"
   inkscape:version="1.2.2 (b0a8486, 2022-12-01)"
   sodipodi:docname="fonts.svg"
   xmlns:inkscape="http://www.inkscape.org/namespaces/inkscape"
   xmlns:sodipodi="http://sodipodi.sourceforge.net/DTD/sodipodi-0.dtd"
   xmlns="http://www.w3.org/2000/svg"
   xmlns:svg="http://www.w3.org/2000/svg"><sodipodi:namedview
     id="namedview14313"
     pagecolor="#ffffff"
     bordercolor="#666666"
     borderopacity="1.0"
     inkscape:showpageshadow="2"
     inkscape:pageopacity="0.0"
     inkscape:pagecheckerboard="0"
     inkscape:deskcolor="#d1d1d1"
     inkscape:document-units="mm"
     showgrid="false"
     inkscape:zoom="1.1610334"
     inkscape:cx="-15.50343"
     inkscape:cy="157.6182"
     inkscape:window-width="1440"
     inkscape:window-height="878"
     inkscape:window-x="0"
     inkscape:window-y="0"
     inkscape:window-maximized="1"
     inkscape:current-layer="layer1" /><defs
     id="defs14308" /><g
     inkscape:label="Layer 1"
     inkscape:groupmode="layer"
     id="layer1"
     transform="translate(-71.639283,-112.21802)"><rect
       style="font-variation-settings:normal;opacity:1;fill:none;fill-opacity:1;stroke:#333333;stroke-width:0.4;stroke-linecap:round;stroke-linejoin:round;stroke-miterlimit:4;stroke-dasharray:none;stroke-dashoffset:0;stroke-opacity:1;stop-color:#000000;stop-opacity:1"
       id="rect32480"
       width="47.998722"
       height="69.742401"
       x="71.889282"
       y="112.46802" /><text
       xml:space="preserve"
       style="font-size:5.29167px;line-height:0.65;font-family:'EB Garamond';-inkscape-font-specification:'EB Garamond, Normal';text-align:end;letter-spacing:0.396875px;word-spacing:0px;text-anchor:end;stroke-width:0.264583"
       x="114.73152"
       y="122.78851"
       id="text32641"><tspan
         sodipodi:role="line"
         id="tspan32639"
         style="font-style:normal;font-variant:normal;font-weight:normal;font-stretch:normal;font-size:14.1111px;font-family:Essays1743;-inkscape-font-specification:'Essays1743, Normal';font-variant-ligatures:normal;font-variant-caps:normal;font-variant-numeric:normal;font-variant-east-asian:normal;stroke-width:0.264583"
         x="115.1284"
         y="122.78851">a</tspan></text><text
       xml:space="preserve"
       style="font-style:normal;font-variant:normal;font-weight:normal;font-stretch:normal;font-size:15.1102px;line-height:0.65;font-family:Big_Bottom_Cartoon;-inkscape-font-specification:'Big_Bottom_Cartoon, Normal';font-variant-ligatures:normal;font-variant-caps:normal;font-variant-numeric:normal;font-variant-east-asian:normal;text-align:end;letter-spacing:0.377755px;word-spacing:0px;text-anchor:end;fill:#ff0000;fill-opacity:1;stroke-width:0.264583"
       x="105.42233"
       y="150.65379"
       id="text32645"><tspan
         sodipodi:role="line"
         id="tspan32643"
         style="font-style:normal;font-variant:normal;font-weight:normal;font-stretch:normal;font-size:15.1102px;font-family:Big_Bottom_Cartoon;-inkscape-font-specification:'Big_Bottom_Cartoon, Normal';font-variant-ligatures:normal;font-variant-caps:normal;font-variant-numeric:normal;font-variant-east-asian:normal;fill:#ff0000;fill-opacity:1;stroke-width:0.264583"
         x="105.80009"
         y="150.65379">A</tspan></text><text
       xml:space="preserve"
       style="font-style:normal;font-variant:normal;font-weight:normal;font-stretch:normal;font-size:15.875px;line-height:0.65;font-family:Damion;-inkscape-font-specification:'Damion, Normal';font-variant-ligatures:normal;font-variant-caps:normal;font-variant-numeric:normal;font-variant-east-asian:normal;text-align:end;letter-spacing:0.396875px;word-spacing:0px;text-anchor:end;stroke-width:0.264583"
       x="112.84108"
       y="134.02876"
       id="text32649"><tspan
         sodipodi:role="line"
         id="tspan32647"
         style="font-style:normal;font-variant:normal;font-weight:normal;font-stretch:normal;font-size:15.875px;font-family:Damion;-inkscape-font-specification:'Damion, Normal';font-variant-ligatures:normal;font-variant-caps:normal;font-variant-numeric:normal;font-variant-east-asian:normal;stroke-width:0.264583"
         x="113.23795"
         y="134.02876">a</tspan></text><text
       xml:space="preserve"
       style="font-style:normal;font-variant:normal;font-weight:normal;font-stretch:normal;font-size:15.875px;line-height:0.65;font-family:'Bradley Gratis';-inkscape-font-specification:'Bradley Gratis, Normal';font-variant-ligatures:normal;font-variant-caps:normal;font-variant-numeric:normal;font-variant-east-asian:normal;text-align:end;letter-spacing:0.396875px;word-spacing:0px;text-anchor:end;fill:#00ccff;fill-opacity:1;stroke-width:0.264583"
       x="106.08039"
       y="128.22919"
       id="text32653"><tspan
         sodipodi:role="line"
         id="tspan32651"
         style="font-style:normal;font-variant:normal;font-weight:normal;font-stretch:normal;font-size:15.875px;font-family:'Bradley Gratis';-inkscape-font-specification:'Bradley Gratis, Normal';font-variant-ligatures:normal;font-variant-caps:normal;font-variant-numeric:normal;font-variant-east-asian:normal;fill:#00ccff;fill-opacity:1;stroke-width:0.264583"
         x="106.47726"
         y="128.22919">A</tspan></text><text
       xml:space="preserve"
       style="font-style:normal;font-variant:normal;font-weight:normal;font-stretch:normal;font-size:15.875px;line-height:0.65;font-family:'Chalk Line';-inkscape-font-specification:'Chalk Line, Normal';font-variant-ligatures:normal;font-variant-caps:normal;font-variant-numeric:normal;font-variant-east-asian:normal;text-align:end;letter-spacing:0.396875px;word-spacing:0px;text-anchor:end;fill:#ff0000;fill-opacity:1;stroke-width:0.264583"
       x="93.982521"
       y="126.89568"
       id="text32657"><tspan
         sodipodi:role="line"
         id="tspan32655"
         style="font-style:normal;font-variant:normal;font-weight:normal;font-stretch:normal;font-size:15.875px;font-family:'Chalk Line';-inkscape-font-specification:'Chalk Line, Normal';font-variant-ligatures:normal;font-variant-caps:normal;font-variant-numeric:normal;font-variant-east-asian:normal;fill:#ff0000;fill-opacity:1;stroke-width:0.264583"
         x="94.379395"
         y="126.89568">A</tspan></text><text
       xml:space="preserve"
       style="font-style:normal;font-variant:normal;font-weight:normal;font-stretch:normal;font-size:15.875px;line-height:0.65;font-family:Dynalight;-inkscape-font-specification:'Dynalight, Normal';font-variant-ligatures:normal;font-variant-caps:normal;font-variant-numeric:normal;font-variant-east-asian:normal;text-align:end;letter-spacing:0.396875px;word-spacing:0px;text-anchor:end;stroke-width:0.264583"
       x="88.80912"
       y="139.70737"
       id="text32661"><tspan
         sodipodi:role="line"
         id="tspan32659"
         style="font-style:normal;font-variant:normal;font-weight:normal;font-stretch:normal;font-size:15.875px;font-family:Dynalight;-inkscape-font-specification:'Dynalight, Normal';font-variant-ligatures:normal;font-variant-caps:normal;font-variant-numeric:normal;font-variant-east-asian:normal;stroke-width:0.264583"
         x="89.205994"
         y="139.70737">A</tspan></text><text
       xml:space="preserve"
       style="font-style:normal;font-variant:normal;font-weight:normal;font-stretch:normal;font-size:15.875px;line-height:0.65;font-family:'Bilbo Swash Caps';-inkscape-font-specification:'Bilbo Swash Caps, Normal';font-variant-ligatures:normal;font-variant-caps:normal;font-variant-numeric:normal;font-variant-east-asian:normal;text-align:end;letter-spacing:0.396875px;word-spacing:0px;text-anchor:end;stroke-width:0.264583"
       x="117.06902"
       y="158.06664"
       id="text32665"><tspan
         sodipodi:role="line"
         id="tspan32663"
         style="font-style:normal;font-variant:normal;font-weight:normal;font-stretch:normal;font-size:15.875px;font-family:'Bilbo Swash Caps';-inkscape-font-specification:'Bilbo Swash Caps, Normal';font-variant-ligatures:normal;font-variant-caps:normal;font-variant-numeric:normal;font-variant-east-asian:normal;stroke-width:0.264583"
         x="117.4659"
         y="158.06664">a</tspan></text><text
       xml:space="preserve"
       style="font-style:normal;font-variant:normal;font-weight:normal;font-stretch:normal;font-size:15.875px;line-height:0.65;font-family:'Lavishly Yours';-inkscape-font-specification:'Lavishly Yours, Normal';font-variant-ligatures:normal;font-variant-caps:normal;font-variant-numeric:normal;font-variant-east-asian:normal;text-align:end;letter-spacing:0.396875px;word-spacing:0px;text-anchor:end;stroke-width:0.264583"
       x="90.547455"
       y="154.41547"
       id="text32669"><tspan
         sodipodi:role="line"
         id="tspan32667"
         style="font-style:normal;font-variant:normal;font-weight:normal;font-stretch:normal;font-size:15.875px;font-family:'Lavishly Yours';-inkscape-font-specification:'Lavishly Yours, Normal';font-variant-ligatures:normal;font-variant-caps:normal;font-variant-numeric:normal;font-variant-east-asian:normal;stroke-width:0.264583"
         x="90.944328"
         y="154.41547">A</tspan></text><text
       xml:space="preserve"
       style="font-style:normal;font-variant:normal;font-weight:normal;font-stretch:normal;font-size:12.1822px;line-height:0.65;font-family:Meddon;-inkscape-font-specification:'Meddon, Normal';font-variant-ligatures:normal;font-variant-caps:normal;font-variant-numeric:normal;font-variant-east-asian:normal;text-align:end;letter-spacing:0.304555px;word-spacing:0px;text-anchor:end;fill:#00ccff;fill-opacity:1;stroke-width:0.264582"
       x="113.92651"
       y="179.4025"
       id="text32673"><tspan
         sodipodi:role="line"
         id="tspan32671"
         style="font-style:normal;font-variant:normal;font-weight:normal;font-stretch:normal;font-size:12.1822px;font-family:Meddon;-inkscape-font-specification:'Meddon, Normal';font-variant-ligatures:normal;font-variant-caps:normal;font-variant-numeric:normal;font-variant-east-asian:normal;fill:#00ccff;fill-opacity:1;stroke-width:0.264582"
         x="114.23107"
         y="179.4025">A</tspan></text><text
       xml:space="preserve"
       style="font-style:normal;font-variant:normal;font-weight:normal;font-stretch:normal;font-size:15.875px;line-height:0.65;font-family:'Petit Formal Script';-inkscape-font-specification:'Petit Formal Script, Normal';font-variant-ligatures:normal;font-variant-caps:normal;font-variant-numeric:normal;font-variant-east-asian:normal;text-align:end;letter-spacing:0.396875px;word-spacing:0px;text-anchor:end;fill:#ff0000;stroke-width:0.264583"
       x="91.607285"
       y="178.47366"
       id="text32677"><tspan
         sodipodi:role="line"
         id="tspan32675"
         style="font-style:normal;font-variant:normal;font-weight:normal;font-stretch:normal;font-size:15.875px;font-family:'Petit Formal Script';-inkscape-font-specification:'Petit Formal Script, Normal';font-variant-ligatures:normal;font-variant-caps:normal;font-variant-numeric:normal;font-variant-east-asian:normal;fill:#ff0000;stroke-width:0.264583"
         x="92.004158"
         y="178.47366">A</tspan></text><text
       xml:space="preserve"
       style="font-style:normal;font-variant:normal;font-weight:normal;font-stretch:normal;font-size:15.875px;line-height:0.65;font-family:Sail;-inkscape-font-specification:'Sail, Normal';font-variant-ligatures:normal;font-variant-caps:normal;font-variant-numeric:normal;font-variant-east-asian:normal;text-align:end;letter-spacing:0.396875px;word-spacing:0px;text-anchor:end;fill:#00ccff;stroke-width:0.264583"
       x="97.059715"
       y="163.07947"
       id="text32685"><tspan
         sodipodi:role="line"
         id="tspan32683"
         style="font-style:normal;font-variant:normal;font-weight:normal;font-stretch:normal;font-size:15.875px;font-family:Sail;-inkscape-font-specification:'Sail, Normal';font-variant-ligatures:normal;font-variant-caps:normal;font-variant-numeric:normal;font-variant-east-asian:normal;fill:#00ccff;stroke-width:0.264583"
         x="97.456589"
         y="163.07947">A</tspan></text><text
       xml:space="preserve"
       style="font-style:normal;font-variant:normal;font-weight:normal;font-stretch:normal;font-size:15.875px;line-height:0.65;font-family:Chomsky;-inkscape-font-specification:'Chomsky, Normal';font-variant-ligatures:normal;font-variant-caps:normal;font-variant-numeric:normal;font-variant-east-asian:normal;text-align:end;letter-spacing:0.396875px;word-spacing:0px;text-anchor:end;fill:#00ccff;fill-opacity:1;stroke-width:0.264583"
       x="117.54111"
       y="149.16878"
       id="text32689"><tspan
         sodipodi:role="line"
         id="tspan32687"
         style="font-style:normal;font-variant:normal;font-weight:normal;font-stretch:normal;font-size:15.875px;font-family:Chomsky;-inkscape-font-specification:'Chomsky, Normal';font-variant-ligatures:normal;font-variant-caps:normal;font-variant-numeric:normal;font-variant-east-asian:normal;fill:#00ccff;fill-opacity:1;stroke-width:0.264583"
         x="117.93798"
         y="149.16878">A</tspan></text><text
       xml:space="preserve"
       style="font-style:normal;font-variant:normal;font-weight:normal;font-stretch:normal;font-size:15.875px;line-height:0.65;font-family:Amita;-inkscape-font-specification:'Amita, Normal';font-variant-ligatures:normal;font-variant-caps:normal;font-variant-numeric:normal;font-variant-east-asian:normal;text-align:end;letter-spacing:0.396875px;word-spacing:0px;text-anchor:end;stroke-width:0.264583"
       x="110.05607"
       y="165.23846"
       id="text32693"><tspan
         sodipodi:role="line"
         id="tspan32691"
         style="font-style:normal;font-variant:normal;font-weight:normal;font-stretch:normal;font-size:15.875px;font-family:Amita;-inkscape-font-specification:'Amita, Normal';font-variant-ligatures:normal;font-variant-caps:normal;font-variant-numeric:normal;font-variant-east-asian:normal;stroke-width:0.264583"
         x="110.45294"
         y="165.23846">A</tspan></text></g></svg>
