<?xml version="1.0" encoding="utf-8"  standalone="no"?>
<!DOCTYPE svg PUBLIC "-//W3C//DTD SVG 1.1//EN"
 "http://www.w3.org/Graphics/SVG/1.1/DTD/svg11.dtd">
<svg 
 width="600" height="480"
 viewBox="0 0 600 480"
 xmlns="http://www.w3.org/2000/svg"
 xmlns:xlink="http://www.w3.org/1999/xlink"
>

<title>Gnuplot</title>
<desc>Produced by GNUPLOT 5.0 patchlevel 1 </desc>

<g id="gnuplot_canvas">

<rect x="0" y="0" width="600" height="480" fill="none"/>
<defs>

	<circle id='gpDot' r='0.5' stroke-width='0.5'/>
	<path id='gpPt0' stroke-width='0.222' stroke='currentColor' d='M-1,0 h2 M0,-1 v2'/>
	<path id='gpPt1' stroke-width='0.222' stroke='currentColor' d='M-1,-1 L1,1 M1,-1 L-1,1'/>
	<path id='gpPt2' stroke-width='0.222' stroke='currentColor' d='M-1,0 L1,0 M0,-1 L0,1 M-1,-1 L1,1 M-1,1 L1,-1'/>
	<rect id='gpPt3' stroke-width='0.222' stroke='currentColor' x='-1' y='-1' width='2' height='2'/>
	<rect id='gpPt4' stroke-width='0.222' stroke='currentColor' fill='currentColor' x='-1' y='-1' width='2' height='2'/>
	<circle id='gpPt5' stroke-width='0.222' stroke='currentColor' cx='0' cy='0' r='1'/>
	<use xlink:href='#gpPt5' id='gpPt6' fill='currentColor' stroke='none'/>
	<path id='gpPt7' stroke-width='0.222' stroke='currentColor' d='M0,-1.33 L-1.33,0.67 L1.33,0.67 z'/>
	<use xlink:href='#gpPt7' id='gpPt8' fill='currentColor' stroke='none'/>
	<use xlink:href='#gpPt7' id='gpPt9' stroke='currentColor' transform='rotate(180)'/>
	<use xlink:href='#gpPt9' id='gpPt10' fill='currentColor' stroke='none'/>
	<use xlink:href='#gpPt3' id='gpPt11' stroke='currentColor' transform='rotate(45)'/>
	<use xlink:href='#gpPt11' id='gpPt12' fill='currentColor' stroke='none'/>
	<path id='gpPt13' stroke-width='0.222' stroke='currentColor' d='M0,1.330 L1.265,0.411 L0.782,-1.067 L-0.782,-1.076 L-1.265,0.411 z'/>
	<use xlink:href='#gpPt13' id='gpPt14' fill='currentColor' stroke='none'/>
	<filter id='textbox' filterUnits='objectBoundingBox' x='0' y='0' height='1' width='1'>
	  <feFlood flood-color='white' flood-opacity='1' result='bgnd'/>
	  <feComposite in='SourceGraphic' in2='bgnd' operator='atop'/>
	</filter>
	<filter id='greybox' filterUnits='objectBoundingBox' x='0' y='0' height='1' width='1'>
	  <feFlood flood-color='lightgrey' flood-opacity='1' result='grey'/>
	  <feComposite in='SourceGraphic' in2='grey' operator='atop'/>
	</filter>
</defs>
<g fill="none" color="white" stroke="black" stroke-width="1.00" stroke-linecap="butt" stroke-linejoin="miter">
</g>
<g fill="none" color="black" stroke="currentColor" stroke-width="1.00" stroke-linecap="butt" stroke-linejoin="miter">
	<path stroke='black'  d='M53.9,444.0 L62.9,444.0 M575.0,444.0 L566.0,444.0  '/>	<g transform="translate(45.6,448.5)" stroke="none" fill="black" font-family="Alegreya" font-size="12.00"  text-anchor="end">
		<text><tspan font-family="Alegreya" > 0</tspan></text>
	</g>
</g>
<g fill="none" color="black" stroke="currentColor" stroke-width="1.00" stroke-linecap="butt" stroke-linejoin="miter">
	<path stroke='black'  d='M53.9,401.3 L62.9,401.3 M575.0,401.3 L566.0,401.3  '/>	<g transform="translate(45.6,405.8)" stroke="none" fill="black" font-family="Alegreya" font-size="12.00"  text-anchor="end">
		<text><tspan font-family="Alegreya" > 0.1</tspan></text>
	</g>
</g>
<g fill="none" color="black" stroke="currentColor" stroke-width="1.00" stroke-linecap="butt" stroke-linejoin="miter">
	<path stroke='black'  d='M53.9,358.5 L62.9,358.5 M575.0,358.5 L566.0,358.5  '/>	<g transform="translate(45.6,363.0)" stroke="none" fill="black" font-family="Alegreya" font-size="12.00"  text-anchor="end">
		<text><tspan font-family="Alegreya" > 0.2</tspan></text>
	</g>
</g>
<g fill="none" color="black" stroke="currentColor" stroke-width="1.00" stroke-linecap="butt" stroke-linejoin="miter">
	<path stroke='black'  d='M53.9,315.8 L62.9,315.8 M575.0,315.8 L566.0,315.8  '/>	<g transform="translate(45.6,320.3)" stroke="none" fill="black" font-family="Alegreya" font-size="12.00"  text-anchor="end">
		<text><tspan font-family="Alegreya" > 0.3</tspan></text>
	</g>
</g>
<g fill="none" color="black" stroke="currentColor" stroke-width="1.00" stroke-linecap="butt" stroke-linejoin="miter">
	<path stroke='black'  d='M53.9,273.1 L62.9,273.1 M575.0,273.1 L566.0,273.1  '/>	<g transform="translate(45.6,277.6)" stroke="none" fill="black" font-family="Alegreya" font-size="12.00"  text-anchor="end">
		<text><tspan font-family="Alegreya" > 0.4</tspan></text>
	</g>
</g>
<g fill="none" color="black" stroke="currentColor" stroke-width="1.00" stroke-linecap="butt" stroke-linejoin="miter">
	<path stroke='black'  d='M53.9,230.3 L62.9,230.3 M575.0,230.3 L566.0,230.3  '/>	<g transform="translate(45.6,234.8)" stroke="none" fill="black" font-family="Alegreya" font-size="12.00"  text-anchor="end">
		<text><tspan font-family="Alegreya" > 0.5</tspan></text>
	</g>
</g>
<g fill="none" color="black" stroke="currentColor" stroke-width="1.00" stroke-linecap="butt" stroke-linejoin="miter">
	<path stroke='black'  d='M53.9,187.6 L62.9,187.6 M575.0,187.6 L566.0,187.6  '/>	<g transform="translate(45.6,192.1)" stroke="none" fill="black" font-family="Alegreya" font-size="12.00"  text-anchor="end">
		<text><tspan font-family="Alegreya" > 0.6</tspan></text>
	</g>
</g>
<g fill="none" color="black" stroke="currentColor" stroke-width="1.00" stroke-linecap="butt" stroke-linejoin="miter">
	<path stroke='black'  d='M53.9,144.9 L62.9,144.9 M575.0,144.9 L566.0,144.9  '/>	<g transform="translate(45.6,149.4)" stroke="none" fill="black" font-family="Alegreya" font-size="12.00"  text-anchor="end">
		<text><tspan font-family="Alegreya" > 0.7</tspan></text>
	</g>
</g>
<g fill="none" color="black" stroke="currentColor" stroke-width="1.00" stroke-linecap="butt" stroke-linejoin="miter">
	<path stroke='black'  d='M53.9,102.2 L62.9,102.2 M575.0,102.2 L566.0,102.2  '/>	<g transform="translate(45.6,106.7)" stroke="none" fill="black" font-family="Alegreya" font-size="12.00"  text-anchor="end">
		<text><tspan font-family="Alegreya" > 0.8</tspan></text>
	</g>
</g>
<g fill="none" color="black" stroke="currentColor" stroke-width="1.00" stroke-linecap="butt" stroke-linejoin="miter">
	<path stroke='black'  d='M53.9,59.4 L62.9,59.4 M575.0,59.4 L566.0,59.4  '/>	<g transform="translate(45.6,63.9)" stroke="none" fill="black" font-family="Alegreya" font-size="12.00"  text-anchor="end">
		<text><tspan font-family="Alegreya" > 0.9</tspan></text>
	</g>
</g>
<g fill="none" color="black" stroke="currentColor" stroke-width="1.00" stroke-linecap="butt" stroke-linejoin="miter">
	<path stroke='black'  d='M53.9,16.7 L62.9,16.7 M575.0,16.7 L566.0,16.7  '/>	<g transform="translate(45.6,21.2)" stroke="none" fill="black" font-family="Alegreya" font-size="12.00"  text-anchor="end">
		<text><tspan font-family="Alegreya" > 1</tspan></text>
	</g>
</g>
<g fill="none" color="black" stroke="currentColor" stroke-width="1.00" stroke-linecap="butt" stroke-linejoin="miter">
	<path stroke='black'  d='M106.0,444.0 L106.0,435.0 M106.0,16.7 L106.0,25.7  '/>	<g transform="translate(72.8,462.0)" stroke="none" fill="black" font-family="Alegreya" font-size="12.00"  text-anchor="middle">
		<text><tspan font-family="Alegreya" >-4</tspan></text>
	</g>
</g>
<g fill="none" color="black" stroke="currentColor" stroke-width="1.00" stroke-linecap="butt" stroke-linejoin="miter">
	<path stroke='black'  d='M210.2,444.0 L210.2,435.0 M210.2,16.7 L210.2,25.7  '/>	<g transform="translate(177.0,462.0)" stroke="none" fill="black" font-family="Alegreya" font-size="12.00"  text-anchor="middle">
		<text><tspan font-family="Alegreya" >-2</tspan></text>
	</g>
</g>
<g fill="none" color="black" stroke="currentColor" stroke-width="1.00" stroke-linecap="butt" stroke-linejoin="miter">
	<path stroke='black'  d='M314.5,444.0 L314.5,435.0 M314.5,16.7 L314.5,25.7  '/>	<g transform="translate(281.3,462.0)" stroke="none" fill="black" font-family="Alegreya" font-size="12.00"  text-anchor="middle">
		<text><tspan font-family="Alegreya" > 0</tspan></text>
	</g>
</g>
<g fill="none" color="black" stroke="currentColor" stroke-width="1.00" stroke-linecap="butt" stroke-linejoin="miter">
	<path stroke='black'  d='M418.7,444.0 L418.7,435.0 M418.7,16.7 L418.7,25.7  '/>	<g transform="translate(385.5,462.0)" stroke="none" fill="black" font-family="Alegreya" font-size="12.00"  text-anchor="middle">
		<text><tspan font-family="Alegreya" > 2</tspan></text>
	</g>
</g>
<g fill="none" color="black" stroke="currentColor" stroke-width="1.00" stroke-linecap="butt" stroke-linejoin="miter">
	<path stroke='black'  d='M522.9,444.0 L522.9,435.0 M522.9,16.7 L522.9,25.7  '/>	<g transform="translate(489.7,462.0)" stroke="none" fill="black" font-family="Alegreya" font-size="12.00"  text-anchor="middle">
		<text><tspan font-family="Alegreya" > 4</tspan></text>
	</g>
</g>
<g fill="none" color="black" stroke="currentColor" stroke-width="1.00" stroke-linecap="butt" stroke-linejoin="miter">
</g>
<g fill="none" color="black" stroke="currentColor" stroke-width="1.00" stroke-linecap="butt" stroke-linejoin="miter">
	<path stroke='black'  d='M53.9,16.7 L53.9,444.0 L575.0,444.0 L575.0,16.7 L53.9,16.7 Z  '/></g>
<g fill="none" color="black" stroke="currentColor" stroke-width="1.00" stroke-linecap="butt" stroke-linejoin="miter">
</g>
	<g id="gnuplot_plot_1" ><title>exp(-x**2)</title>
<g fill="none" color="black" stroke="currentColor" stroke-width="1.00" stroke-linecap="butt" stroke-linejoin="miter">
	<g transform="translate(507.9,39.2)" stroke="none" fill="black" font-family="Alegreya" font-size="12.00"  text-anchor="end">
		<text>exp(-x**2)</text>
	</g>
</g>
<g fill="none" color="black" stroke="currentColor" stroke-width="1.00" stroke-linecap="butt" stroke-linejoin="miter">
	<g stroke='none' shape-rendering='crispEdges'>
		<polygon fill = 'rgb(148,   0, 211)' points = '516.2,39.2 558.4,39.2 558.4,30.2 516.2,30.2 '/>
	</g>
	<path stroke='rgb(148,   0, 211)'  d='M516.2,39.2 L558.4,39.2 L558.4,30.2 L516.2,30.2 L516.2,39.2 Z  '/></g>
<g fill="none" color="black" stroke="currentColor" stroke-width="1.00" stroke-linecap="butt" stroke-linejoin="miter">
	<g stroke='none' shape-rendering='crispEdges'>
		<polygon fill = 'rgb(148,   0, 211)' points = '53.9,444.0 54.9,444.0 54.9,443.9 53.9,443.9 '/>
	</g>
	<path stroke='rgb(148,   0, 211)'  d='M53.9,444.0 L54.8,444.0 L53.9,444.0 Z  '/>	<g stroke='none' shape-rendering='crispEdges'>
		<polygon fill = 'rgb(148,   0, 211)' points = '58.3,444.0 60.2,444.0 60.2,443.9 58.3,443.9 '/>
	</g>
	<path stroke='rgb(148,   0, 211)'  d='M58.3,444.0 L60.1,444.0 L58.3,444.0 Z  '/>	<g stroke='none' shape-rendering='crispEdges'>
		<polygon fill = 'rgb(148,   0, 211)' points = '63.5,444.0 65.4,444.0 65.4,443.9 63.5,443.9 '/>
	</g>
	<path stroke='rgb(148,   0, 211)'  d='M63.5,444.0 L65.3,444.0 L63.5,444.0 Z  '/>	<g stroke='none' shape-rendering='crispEdges'>
		<polygon fill = 'rgb(148,   0, 211)' points = '68.8,444.0 70.7,444.0 70.7,443.9 68.8,443.9 '/>
	</g>
	<path stroke='rgb(148,   0, 211)'  d='M68.8,444.0 L70.6,444.0 L68.8,444.0 Z  '/>	<g stroke='none' shape-rendering='crispEdges'>
		<polygon fill = 'rgb(148,   0, 211)' points = '74.0,444.0 76.0,444.0 76.0,443.9 74.0,443.9 '/>
	</g>
	<path stroke='rgb(148,   0, 211)'  d='M74.0,444.0 L75.9,444.0 L74.0,444.0 Z  '/>	<g stroke='none' shape-rendering='crispEdges'>
		<polygon fill = 'rgb(148,   0, 211)' points = '79.3,444.0 81.2,444.0 81.2,443.9 79.3,443.9 '/>
	</g>
	<path stroke='rgb(148,   0, 211)'  d='M79.3,444.0 L81.1,444.0 L79.3,444.0 Z  '/>	<g stroke='none' shape-rendering='crispEdges'>
		<polygon fill = 'rgb(148,   0, 211)' points = '84.6,444.0 86.5,444.0 86.5,443.9 84.6,443.9 '/>
	</g>
	<path stroke='rgb(148,   0, 211)'  d='M84.6,444.0 L86.4,444.0 L84.6,444.0 Z  '/>	<g stroke='none' shape-rendering='crispEdges'>
		<polygon fill = 'rgb(148,   0, 211)' points = '89.8,444.0 91.8,444.0 91.8,443.9 89.8,443.9 '/>
	</g>
	<path stroke='rgb(148,   0, 211)'  d='M89.8,444.0 L91.7,444.0 L89.8,444.0 Z  '/>	<g stroke='none' shape-rendering='crispEdges'>
		<polygon fill = 'rgb(148,   0, 211)' points = '95.1,444.0 97.0,444.0 97.0,443.9 95.1,443.9 '/>
	</g>
	<path stroke='rgb(148,   0, 211)'  d='M95.1,444.0 L96.9,444.0 L95.1,444.0 Z  '/>	<g stroke='none' shape-rendering='crispEdges'>
		<polygon fill = 'rgb(148,   0, 211)' points = '100.4,444.0 102.3,444.0 102.3,443.9 100.4,443.9 '/>
	</g>
	<path stroke='rgb(148,   0, 211)'  d='M100.4,444.0 L102.2,444.0 L100.4,444.0 Z  '/>	<g stroke='none' shape-rendering='crispEdges'>
		<polygon fill = 'rgb(148,   0, 211)' points = '105.6,444.0 107.5,444.0 107.5,443.9 105.6,443.9 '/>
	</g>
	<path stroke='rgb(148,   0, 211)'  d='M105.6,444.0 L107.4,444.0 L105.6,444.0 Z  '/>	<g stroke='none' shape-rendering='crispEdges'>
		<polygon fill = 'rgb(148,   0, 211)' points = '110.9,444.0 112.8,444.0 112.8,443.9 110.9,443.9 '/>
	</g>
	<path stroke='rgb(148,   0, 211)'  d='M110.9,444.0 L112.7,444.0 L110.9,444.0 Z  '/>	<g stroke='none' shape-rendering='crispEdges'>
		<polygon fill = 'rgb(148,   0, 211)' points = '116.2,444.0 118.1,444.0 118.1,443.9 116.2,443.9 '/>
	</g>
	<path stroke='rgb(148,   0, 211)'  d='M116.2,444.0 L118.0,444.0 L116.2,444.0 Z  '/>	<g stroke='none' shape-rendering='crispEdges'>
		<polygon fill = 'rgb(148,   0, 211)' points = '121.4,444.0 123.3,444.0 123.3,443.9 121.4,443.9 '/>
	</g>
	<path stroke='rgb(148,   0, 211)'  d='M121.4,444.0 L123.2,444.0 L121.4,444.0 Z  '/>	<g stroke='none' shape-rendering='crispEdges'>
		<polygon fill = 'rgb(148,   0, 211)' points = '126.7,444.0 128.6,444.0 128.6,443.9 126.7,443.9 '/>
	</g>
	<path stroke='rgb(148,   0, 211)'  d='M126.7,444.0 L128.5,444.0 L126.7,444.0 Z  '/>	<g stroke='none' shape-rendering='crispEdges'>
		<polygon fill = 'rgb(148,   0, 211)' points = '131.9,444.0 133.9,444.0 133.9,443.9 131.9,443.9 '/>
	</g>
	<path stroke='rgb(148,   0, 211)'  d='M131.9,444.0 L133.8,444.0 L131.9,444.0 Z  '/>	<g stroke='none' shape-rendering='crispEdges'>
		<polygon fill = 'rgb(148,   0, 211)' points = '137.2,444.0 139.1,444.0 139.1,443.9 137.2,443.9 '/>
	</g>
	<path stroke='rgb(148,   0, 211)'  d='M137.2,444.0 L139.0,444.0 L137.2,444.0 Z  '/>	<g stroke='none' shape-rendering='crispEdges'>
		<polygon fill = 'rgb(148,   0, 211)' points = '142.5,444.0 144.4,444.0 144.4,443.9 142.5,443.9 '/>
	</g>
	<path stroke='rgb(148,   0, 211)'  d='M142.5,444.0 L144.3,444.0 L142.5,444.0 Z  '/>	<g stroke='none' shape-rendering='crispEdges'>
		<polygon fill = 'rgb(148,   0, 211)' points = '147.7,444.0 149.7,444.0 149.7,443.9 147.7,443.9 '/>
	</g>
	<path stroke='rgb(148,   0, 211)'  d='M147.7,444.0 L149.6,444.0 L147.7,444.0 Z  '/>	<g stroke='none' shape-rendering='crispEdges'>
		<polygon fill = 'rgb(148,   0, 211)' points = '153.0,444.0 154.9,444.0 154.9,443.9 153.0,443.9 '/>
	</g>
	<path stroke='rgb(148,   0, 211)'  d='M153.0,444.0 L154.8,444.0 L153.0,444.0 Z  '/>	<g stroke='none' shape-rendering='crispEdges'>
		<polygon fill = 'rgb(148,   0, 211)' points = '158.3,444.0 160.2,444.0 160.2,443.8 158.3,443.8 '/>
	</g>
	<path stroke='rgb(148,   0, 211)'  d='M158.3,444.0 L158.3,443.9 L160.1,443.9 L160.1,444.0 L158.3,444.0 Z  '/>	<g stroke='none' shape-rendering='crispEdges'>
		<polygon fill = 'rgb(148,   0, 211)' points = '163.5,444.0 165.4,444.0 165.4,443.8 163.5,443.8 '/>
	</g>
	<path stroke='rgb(148,   0, 211)'  d='M163.5,444.0 L163.5,443.9 L165.3,443.9 L165.3,444.0 L163.5,444.0 Z  '/>	<g stroke='none' shape-rendering='crispEdges'>
		<polygon fill = 'rgb(148,   0, 211)' points = '168.8,444.0 170.7,444.0 170.7,443.7 168.8,443.7 '/>
	</g>
	<path stroke='rgb(148,   0, 211)'  d='M168.8,444.0 L168.8,443.8 L170.6,443.8 L170.6,444.0 L168.8,444.0 Z  '/>	<g stroke='none' shape-rendering='crispEdges'>
		<polygon fill = 'rgb(148,   0, 211)' points = '174.1,444.0 176.0,444.0 176.0,443.6 174.1,443.6 '/>
	</g>
	<path stroke='rgb(148,   0, 211)'  d='M174.1,444.0 L174.1,443.7 L175.9,443.7 L175.9,444.0 L174.1,444.0 Z  '/>	<g stroke='none' shape-rendering='crispEdges'>
		<polygon fill = 'rgb(148,   0, 211)' points = '179.3,444.0 181.2,444.0 181.2,443.3 179.3,443.3 '/>
	</g>
	<path stroke='rgb(148,   0, 211)'  d='M179.3,444.0 L179.3,443.4 L181.1,443.4 L181.1,444.0 L179.3,444.0 Z  '/>	<g stroke='none' shape-rendering='crispEdges'>
		<polygon fill = 'rgb(148,   0, 211)' points = '184.6,444.0 186.5,444.0 186.5,443.0 184.6,443.0 '/>
	</g>
	<path stroke='rgb(148,   0, 211)'  d='M184.6,444.0 L184.6,443.1 L186.4,443.1 L186.4,444.0 L184.6,444.0 Z  '/>	<g stroke='none' shape-rendering='crispEdges'>
		<polygon fill = 'rgb(148,   0, 211)' points = '189.8,444.0 191.8,444.0 191.8,442.4 189.8,442.4 '/>
	</g>
	<path stroke='rgb(148,   0, 211)'  d='M189.8,444.0 L189.8,442.5 L191.7,442.5 L191.7,444.0 L189.8,444.0 Z  '/>	<g stroke='none' shape-rendering='crispEdges'>
		<polygon fill = 'rgb(148,   0, 211)' points = '195.1,444.0 197.0,444.0 197.0,441.5 195.1,441.5 '/>
	</g>
	<path stroke='rgb(148,   0, 211)'  d='M195.1,444.0 L195.1,441.6 L196.9,441.6 L196.9,444.0 L195.1,444.0 Z  '/>	<g stroke='none' shape-rendering='crispEdges'>
		<polygon fill = 'rgb(148,   0, 211)' points = '200.4,444.0 202.3,444.0 202.3,440.1 200.4,440.1 '/>
	</g>
	<path stroke='rgb(148,   0, 211)'  d='M200.4,444.0 L200.4,440.2 L202.2,440.2 L202.2,444.0 L200.4,444.0 Z  '/>	<g stroke='none' shape-rendering='crispEdges'>
		<polygon fill = 'rgb(148,   0, 211)' points = '205.6,444.0 207.6,444.0 207.6,438.0 205.6,438.0 '/>
	</g>
	<path stroke='rgb(148,   0, 211)'  d='M205.6,444.0 L205.6,438.1 L207.5,438.1 L207.5,444.0 L205.6,444.0 Z  '/>	<g stroke='none' shape-rendering='crispEdges'>
		<polygon fill = 'rgb(148,   0, 211)' points = '210.9,444.0 212.8,444.0 212.8,435.1 210.9,435.1 '/>
	</g>
	<path stroke='rgb(148,   0, 211)'  d='M210.9,444.0 L210.9,435.2 L212.7,435.2 L212.7,444.0 L210.9,444.0 Z  '/>	<g stroke='none' shape-rendering='crispEdges'>
		<polygon fill = 'rgb(148,   0, 211)' points = '216.2,444.0 218.1,444.0 218.1,430.9 216.2,430.9 '/>
	</g>
	<path stroke='rgb(148,   0, 211)'  d='M216.2,444.0 L216.2,431.0 L218.0,431.0 L218.0,444.0 L216.2,444.0 Z  '/>	<g stroke='none' shape-rendering='crispEdges'>
		<polygon fill = 'rgb(148,   0, 211)' points = '221.4,444.0 223.3,444.0 223.3,425.1 221.4,425.1 '/>
	</g>
	<path stroke='rgb(148,   0, 211)'  d='M221.4,444.0 L221.4,425.2 L223.2,425.2 L223.2,444.0 L221.4,444.0 Z  '/>	<g stroke='none' shape-rendering='crispEdges'>
		<polygon fill = 'rgb(148,   0, 211)' points = '226.7,444.0 228.6,444.0 228.6,417.3 226.7,417.3 '/>
	</g>
	<path stroke='rgb(148,   0, 211)'  d='M226.7,444.0 L226.7,417.4 L228.5,417.4 L228.5,444.0 L226.7,444.0 Z  '/>	<g stroke='none' shape-rendering='crispEdges'>
		<polygon fill = 'rgb(148,   0, 211)' points = '232.0,444.0 233.9,444.0 233.9,407.1 232.0,407.1 '/>
	</g>
	<path stroke='rgb(148,   0, 211)'  d='M232.0,444.0 L232.0,407.2 L233.8,407.2 L233.8,444.0 L232.0,444.0 Z  '/>	<g stroke='none' shape-rendering='crispEdges'>
		<polygon fill = 'rgb(148,   0, 211)' points = '237.2,444.0 239.1,444.0 239.1,393.9 237.2,393.9 '/>
	</g>
	<path stroke='rgb(148,   0, 211)'  d='M237.2,444.0 L237.2,394.0 L239.0,394.0 L239.0,444.0 L237.2,444.0 Z  '/>	<g stroke='none' shape-rendering='crispEdges'>
		<polygon fill = 'rgb(148,   0, 211)' points = '242.5,444.0 244.4,444.0 244.4,377.3 242.5,377.3 '/>
	</g>
	<path stroke='rgb(148,   0, 211)'  d='M242.5,444.0 L242.5,377.4 L244.3,377.4 L244.3,444.0 L242.5,444.0 Z  '/>	<g stroke='none' shape-rendering='crispEdges'>
		<polygon fill = 'rgb(148,   0, 211)' points = '247.7,444.0 249.7,444.0 249.7,357.1 247.7,357.1 '/>
	</g>
	<path stroke='rgb(148,   0, 211)'  d='M247.7,444.0 L247.7,357.2 L249.6,357.2 L249.6,444.0 L247.7,444.0 Z  '/>	<g stroke='none' shape-rendering='crispEdges'>
		<polygon fill = 'rgb(148,   0, 211)' points = '253.0,444.0 254.9,444.0 254.9,333.1 253.0,333.1 '/>
	</g>
	<path stroke='rgb(148,   0, 211)'  d='M253.0,444.0 L253.0,333.2 L254.8,333.2 L254.8,444.0 L253.0,444.0 Z  '/>	<g stroke='none' shape-rendering='crispEdges'>
		<polygon fill = 'rgb(148,   0, 211)' points = '258.3,444.0 260.2,444.0 260.2,305.2 258.3,305.2 '/>
	</g>
	<path stroke='rgb(148,   0, 211)'  d='M258.3,444.0 L258.3,305.3 L260.1,305.3 L260.1,444.0 L258.3,444.0 Z  '/>	<g stroke='none' shape-rendering='crispEdges'>
		<polygon fill = 'rgb(148,   0, 211)' points = '263.5,444.0 265.5,444.0 265.5,273.8 263.5,273.8 '/>
	</g>
	<path stroke='rgb(148,   0, 211)'  d='M263.5,444.0 L263.5,273.9 L265.4,273.9 L265.4,444.0 L263.5,444.0 Z  '/>	<g stroke='none' shape-rendering='crispEdges'>
		<polygon fill = 'rgb(148,   0, 211)' points = '268.8,444.0 270.7,444.0 270.7,239.5 268.8,239.5 '/>
	</g>
	<path stroke='rgb(148,   0, 211)'  d='M268.8,444.0 L268.8,239.6 L270.6,239.6 L270.6,444.0 L268.8,444.0 Z  '/>	<g stroke='none' shape-rendering='crispEdges'>
		<polygon fill = 'rgb(148,   0, 211)' points = '274.1,444.0 276.0,444.0 276.0,203.2 274.1,203.2 '/>
	</g>
	<path stroke='rgb(148,   0, 211)'  d='M274.1,444.0 L274.1,203.3 L275.9,203.3 L275.9,444.0 L274.1,444.0 Z  '/>	<g stroke='none' shape-rendering='crispEdges'>
		<polygon fill = 'rgb(148,   0, 211)' points = '279.3,444.0 281.2,444.0 281.2,166.2 279.3,166.2 '/>
	</g>
	<path stroke='rgb(148,   0, 211)'  d='M279.3,444.0 L279.3,166.3 L281.1,166.3 L281.1,444.0 L279.3,444.0 Z  '/>	<g stroke='none' shape-rendering='crispEdges'>
		<polygon fill = 'rgb(148,   0, 211)' points = '284.6,444.0 286.5,444.0 286.5,130.1 284.6,130.1 '/>
	</g>
	<path stroke='rgb(148,   0, 211)'  d='M284.6,444.0 L284.6,130.2 L286.4,130.2 L286.4,444.0 L284.6,444.0 Z  '/>	<g stroke='none' shape-rendering='crispEdges'>
		<polygon fill = 'rgb(148,   0, 211)' points = '289.9,444.0 291.8,444.0 291.8,96.4 289.9,96.4 '/>
	</g>
	<path stroke='rgb(148,   0, 211)'  d='M289.9,444.0 L289.9,96.5 L291.7,96.5 L291.7,444.0 L289.9,444.0 Z  '/>	<g stroke='none' shape-rendering='crispEdges'>
		<polygon fill = 'rgb(148,   0, 211)' points = '295.1,444.0 297.0,444.0 297.0,66.8 295.1,66.8 '/>
	</g>
	<path stroke='rgb(148,   0, 211)'  d='M295.1,444.0 L295.1,66.9 L296.9,66.9 L296.9,444.0 L295.1,444.0 Z  '/>	<g stroke='none' shape-rendering='crispEdges'>
		<polygon fill = 'rgb(148,   0, 211)' points = '300.4,444.0 302.3,444.0 302.3,43.0 300.4,43.0 '/>
	</g>
	<path stroke='rgb(148,   0, 211)'  d='M300.4,444.0 L300.4,43.1 L302.2,43.1 L302.2,444.0 L300.4,444.0 Z  '/>	<g stroke='none' shape-rendering='crispEdges'>
		<polygon fill = 'rgb(148,   0, 211)' points = '305.6,444.0 307.6,444.0 307.6,26.3 305.6,26.3 '/>
	</g>
	<path stroke='rgb(148,   0, 211)'  d='M305.6,444.0 L305.6,26.4 L307.5,26.4 L307.5,444.0 L305.6,444.0 Z  '/>	<g stroke='none' shape-rendering='crispEdges'>
		<polygon fill = 'rgb(148,   0, 211)' points = '310.9,444.0 312.8,444.0 312.8,17.7 310.9,17.7 '/>
	</g>
	<path stroke='rgb(148,   0, 211)'  d='M310.9,444.0 L310.9,17.8 L312.7,17.8 L312.7,444.0 L310.9,444.0 Z  '/>	<g stroke='none' shape-rendering='crispEdges'>
		<polygon fill = 'rgb(148,   0, 211)' points = '316.2,444.0 318.1,444.0 318.1,17.7 316.2,17.7 '/>
	</g>
	<path stroke='rgb(148,   0, 211)'  d='M316.2,444.0 L316.2,17.8 L318.0,17.8 L318.0,444.0 L316.2,444.0 Z  '/>	<g stroke='none' shape-rendering='crispEdges'>
		<polygon fill = 'rgb(148,   0, 211)' points = '321.4,444.0 323.4,444.0 323.4,26.3 321.4,26.3 '/>
	</g>
	<path stroke='rgb(148,   0, 211)'  d='M321.4,444.0 L321.4,26.4 L323.3,26.4 L323.3,444.0 L321.4,444.0 Z  '/>	<g stroke='none' shape-rendering='crispEdges'>
		<polygon fill = 'rgb(148,   0, 211)' points = '326.7,444.0 328.6,444.0 328.6,43.0 326.7,43.0 '/>
	</g>
	<path stroke='rgb(148,   0, 211)'  d='M326.7,444.0 L326.7,43.1 L328.5,43.1 L328.5,444.0 L326.7,444.0 Z  '/>	<g stroke='none' shape-rendering='crispEdges'>
		<polygon fill = 'rgb(148,   0, 211)' points = '332.0,444.0 333.9,444.0 333.9,66.8 332.0,66.8 '/>
	</g>
	<path stroke='rgb(148,   0, 211)'  d='M332.0,444.0 L332.0,66.9 L333.8,66.9 L333.8,444.0 L332.0,444.0 Z  '/>	<g stroke='none' shape-rendering='crispEdges'>
		<polygon fill = 'rgb(148,   0, 211)' points = '337.2,444.0 339.1,444.0 339.1,96.4 337.2,96.4 '/>
	</g>
	<path stroke='rgb(148,   0, 211)'  d='M337.2,444.0 L337.2,96.5 L339.0,96.5 L339.0,444.0 L337.2,444.0 Z  '/>	<g stroke='none' shape-rendering='crispEdges'>
		<polygon fill = 'rgb(148,   0, 211)' points = '342.5,444.0 344.4,444.0 344.4,130.1 342.5,130.1 '/>
	</g>
	<path stroke='rgb(148,   0, 211)'  d='M342.5,444.0 L342.5,130.2 L344.3,130.2 L344.3,444.0 L342.5,444.0 Z  '/>	<g stroke='none' shape-rendering='crispEdges'>
		<polygon fill = 'rgb(148,   0, 211)' points = '347.8,444.0 349.7,444.0 349.7,166.2 347.8,166.2 '/>
	</g>
	<path stroke='rgb(148,   0, 211)'  d='M347.8,444.0 L347.8,166.3 L349.6,166.3 L349.6,444.0 L347.8,444.0 Z  '/>	<g stroke='none' shape-rendering='crispEdges'>
		<polygon fill = 'rgb(148,   0, 211)' points = '353.0,444.0 354.9,444.0 354.9,203.2 353.0,203.2 '/>
	</g>
	<path stroke='rgb(148,   0, 211)'  d='M353.0,444.0 L353.0,203.3 L354.8,203.3 L354.8,444.0 L353.0,444.0 Z  '/>	<g stroke='none' shape-rendering='crispEdges'>
		<polygon fill = 'rgb(148,   0, 211)' points = '358.3,444.0 360.2,444.0 360.2,239.5 358.3,239.5 '/>
	</g>
	<path stroke='rgb(148,   0, 211)'  d='M358.3,444.0 L358.3,239.6 L360.1,239.6 L360.1,444.0 L358.3,444.0 Z  '/>	<g stroke='none' shape-rendering='crispEdges'>
		<polygon fill = 'rgb(148,   0, 211)' points = '363.5,444.0 365.5,444.0 365.5,273.8 363.5,273.8 '/>
	</g>
	<path stroke='rgb(148,   0, 211)'  d='M363.5,444.0 L363.5,273.9 L365.4,273.9 L365.4,444.0 L363.5,444.0 Z  '/>	<g stroke='none' shape-rendering='crispEdges'>
		<polygon fill = 'rgb(148,   0, 211)' points = '368.8,444.0 370.7,444.0 370.7,305.2 368.8,305.2 '/>
	</g>
	<path stroke='rgb(148,   0, 211)'  d='M368.8,444.0 L368.8,305.3 L370.6,305.3 L370.6,444.0 L368.8,444.0 Z  '/>	<g stroke='none' shape-rendering='crispEdges'>
		<polygon fill = 'rgb(148,   0, 211)' points = '374.1,444.0 376.0,444.0 376.0,333.1 374.1,333.1 '/>
	</g>
	<path stroke='rgb(148,   0, 211)'  d='M374.1,444.0 L374.1,333.2 L375.9,333.2 L375.9,444.0 L374.1,444.0 Z  '/>	<g stroke='none' shape-rendering='crispEdges'>
		<polygon fill = 'rgb(148,   0, 211)' points = '379.3,444.0 381.3,444.0 381.3,357.1 379.3,357.1 '/>
	</g>
	<path stroke='rgb(148,   0, 211)'  d='M379.3,444.0 L379.3,357.2 L381.2,357.2 L381.2,444.0 L379.3,444.0 Z  '/>	<g stroke='none' shape-rendering='crispEdges'>
		<polygon fill = 'rgb(148,   0, 211)' points = '384.6,444.0 386.5,444.0 386.5,377.3 384.6,377.3 '/>
	</g>
	<path stroke='rgb(148,   0, 211)'  d='M384.6,444.0 L384.6,377.4 L386.4,377.4 L386.4,444.0 L384.6,444.0 Z  '/>	<g stroke='none' shape-rendering='crispEdges'>
		<polygon fill = 'rgb(148,   0, 211)' points = '389.9,444.0 391.8,444.0 391.8,393.9 389.9,393.9 '/>
	</g>
	<path stroke='rgb(148,   0, 211)'  d='M389.9,444.0 L389.9,394.0 L391.7,394.0 L391.7,444.0 L389.9,444.0 Z  '/>	<g stroke='none' shape-rendering='crispEdges'>
		<polygon fill = 'rgb(148,   0, 211)' points = '395.1,444.0 397.0,444.0 397.0,407.1 395.1,407.1 '/>
	</g>
	<path stroke='rgb(148,   0, 211)'  d='M395.1,444.0 L395.1,407.2 L396.9,407.2 L396.9,444.0 L395.1,444.0 Z  '/>	<g stroke='none' shape-rendering='crispEdges'>
		<polygon fill = 'rgb(148,   0, 211)' points = '400.4,444.0 402.3,444.0 402.3,417.3 400.4,417.3 '/>
	</g>
	<path stroke='rgb(148,   0, 211)'  d='M400.4,444.0 L400.4,417.4 L402.2,417.4 L402.2,444.0 L400.4,444.0 Z  '/>	<g stroke='none' shape-rendering='crispEdges'>
		<polygon fill = 'rgb(148,   0, 211)' points = '405.7,444.0 407.6,444.0 407.6,425.1 405.7,425.1 '/>
	</g>
	<path stroke='rgb(148,   0, 211)'  d='M405.7,444.0 L405.7,425.2 L407.5,425.2 L407.5,444.0 L405.7,444.0 Z  '/>	<g stroke='none' shape-rendering='crispEdges'>
		<polygon fill = 'rgb(148,   0, 211)' points = '410.9,444.0 412.8,444.0 412.8,430.9 410.9,430.9 '/>
	</g>
	<path stroke='rgb(148,   0, 211)'  d='M410.9,444.0 L410.9,431.0 L412.7,431.0 L412.7,444.0 L410.9,444.0 Z  '/>	<g stroke='none' shape-rendering='crispEdges'>
		<polygon fill = 'rgb(148,   0, 211)' points = '416.2,444.0 418.1,444.0 418.1,435.1 416.2,435.1 '/>
	</g>
	<path stroke='rgb(148,   0, 211)'  d='M416.2,444.0 L416.2,435.2 L418.0,435.2 L418.0,444.0 L416.2,444.0 Z  '/>	<g stroke='none' shape-rendering='crispEdges'>
		<polygon fill = 'rgb(148,   0, 211)' points = '421.4,444.0 423.4,444.0 423.4,438.0 421.4,438.0 '/>
	</g>
	<path stroke='rgb(148,   0, 211)'  d='M421.4,444.0 L421.4,438.1 L423.3,438.1 L423.3,444.0 L421.4,444.0 Z  '/>	<g stroke='none' shape-rendering='crispEdges'>
		<polygon fill = 'rgb(148,   0, 211)' points = '426.7,444.0 428.6,444.0 428.6,440.1 426.7,440.1 '/>
	</g>
	<path stroke='rgb(148,   0, 211)'  d='M426.7,444.0 L426.7,440.2 L428.5,440.2 L428.5,444.0 L426.7,444.0 Z  '/>	<g stroke='none' shape-rendering='crispEdges'>
		<polygon fill = 'rgb(148,   0, 211)' points = '432.0,444.0 433.9,444.0 433.9,441.5 432.0,441.5 '/>
	</g>
	<path stroke='rgb(148,   0, 211)'  d='M432.0,444.0 L432.0,441.6 L433.8,441.6 L433.8,444.0 L432.0,444.0 Z  '/>	<g stroke='none' shape-rendering='crispEdges'>
		<polygon fill = 'rgb(148,   0, 211)' points = '437.2,444.0 439.2,444.0 439.2,442.4 437.2,442.4 '/>
	</g>
	<path stroke='rgb(148,   0, 211)'  d='M437.2,444.0 L437.2,442.5 L439.1,442.5 L439.1,444.0 L437.2,444.0 Z  '/>	<g stroke='none' shape-rendering='crispEdges'>
		<polygon fill = 'rgb(148,   0, 211)' points = '442.5,444.0 444.4,444.0 444.4,443.0 442.5,443.0 '/>
	</g>
	<path stroke='rgb(148,   0, 211)'  d='M442.5,444.0 L442.5,443.1 L444.3,443.1 L444.3,444.0 L442.5,444.0 Z  '/>	<g stroke='none' shape-rendering='crispEdges'>
		<polygon fill = 'rgb(148,   0, 211)' points = '447.8,444.0 449.7,444.0 449.7,443.3 447.8,443.3 '/>
	</g>
	<path stroke='rgb(148,   0, 211)'  d='M447.8,444.0 L447.8,443.4 L449.6,443.4 L449.6,444.0 L447.8,444.0 Z  '/>	<g stroke='none' shape-rendering='crispEdges'>
		<polygon fill = 'rgb(148,   0, 211)' points = '453.0,444.0 454.9,444.0 454.9,443.6 453.0,443.6 '/>
	</g>
	<path stroke='rgb(148,   0, 211)'  d='M453.0,444.0 L453.0,443.7 L454.8,443.7 L454.8,444.0 L453.0,444.0 Z  '/>	<g stroke='none' shape-rendering='crispEdges'>
		<polygon fill = 'rgb(148,   0, 211)' points = '458.3,444.0 460.2,444.0 460.2,443.7 458.3,443.7 '/>
	</g>
	<path stroke='rgb(148,   0, 211)'  d='M458.3,444.0 L458.3,443.8 L460.1,443.8 L460.1,444.0 L458.3,444.0 Z  '/>	<g stroke='none' shape-rendering='crispEdges'>
		<polygon fill = 'rgb(148,   0, 211)' points = '463.6,444.0 465.5,444.0 465.5,443.8 463.6,443.8 '/>
	</g>
	<path stroke='rgb(148,   0, 211)'  d='M463.6,444.0 L463.6,443.9 L465.4,443.9 L465.4,444.0 L463.6,444.0 Z  '/>	<g stroke='none' shape-rendering='crispEdges'>
		<polygon fill = 'rgb(148,   0, 211)' points = '468.8,444.0 470.7,444.0 470.7,443.8 468.8,443.8 '/>
	</g>
	<path stroke='rgb(148,   0, 211)'  d='M468.8,444.0 L468.8,443.9 L470.6,443.9 L470.6,444.0 L468.8,444.0 Z  '/>	<g stroke='none' shape-rendering='crispEdges'>
		<polygon fill = 'rgb(148,   0, 211)' points = '474.1,444.0 476.0,444.0 476.0,443.9 474.1,443.9 '/>
	</g>
	<path stroke='rgb(148,   0, 211)'  d='M474.1,444.0 L475.9,444.0 L474.1,444.0 Z  '/>	<g stroke='none' shape-rendering='crispEdges'>
		<polygon fill = 'rgb(148,   0, 211)' points = '479.3,444.0 481.3,444.0 481.3,443.9 479.3,443.9 '/>
	</g>
	<path stroke='rgb(148,   0, 211)'  d='M479.3,444.0 L481.2,444.0 L479.3,444.0 Z  '/>	<g stroke='none' shape-rendering='crispEdges'>
		<polygon fill = 'rgb(148,   0, 211)' points = '484.6,444.0 486.5,444.0 486.5,443.9 484.6,443.9 '/>
	</g>
	<path stroke='rgb(148,   0, 211)'  d='M484.6,444.0 L486.4,444.0 L484.6,444.0 Z  '/>	<g stroke='none' shape-rendering='crispEdges'>
		<polygon fill = 'rgb(148,   0, 211)' points = '489.9,444.0 491.8,444.0 491.8,443.9 489.9,443.9 '/>
	</g>
	<path stroke='rgb(148,   0, 211)'  d='M489.9,444.0 L491.7,444.0 L489.9,444.0 Z  '/>	<g stroke='none' shape-rendering='crispEdges'>
		<polygon fill = 'rgb(148,   0, 211)' points = '495.1,444.0 497.1,444.0 497.1,443.9 495.1,443.9 '/>
	</g>
	<path stroke='rgb(148,   0, 211)'  d='M495.1,444.0 L497.0,444.0 L495.1,444.0 Z  '/>	<g stroke='none' shape-rendering='crispEdges'>
		<polygon fill = 'rgb(148,   0, 211)' points = '500.4,444.0 502.3,444.0 502.3,443.9 500.4,443.9 '/>
	</g>
	<path stroke='rgb(148,   0, 211)'  d='M500.4,444.0 L502.2,444.0 L500.4,444.0 Z  '/>	<g stroke='none' shape-rendering='crispEdges'>
		<polygon fill = 'rgb(148,   0, 211)' points = '505.7,444.0 507.6,444.0 507.6,443.9 505.7,443.9 '/>
	</g>
	<path stroke='rgb(148,   0, 211)'  d='M505.7,444.0 L507.5,444.0 L505.7,444.0 Z  '/>	<g stroke='none' shape-rendering='crispEdges'>
		<polygon fill = 'rgb(148,   0, 211)' points = '510.9,444.0 512.8,444.0 512.8,443.9 510.9,443.9 '/>
	</g>
	<path stroke='rgb(148,   0, 211)'  d='M510.9,444.0 L512.7,444.0 L510.9,444.0 Z  '/>	<g stroke='none' shape-rendering='crispEdges'>
		<polygon fill = 'rgb(148,   0, 211)' points = '516.2,444.0 518.1,444.0 518.1,443.9 516.2,443.9 '/>
	</g>
	<path stroke='rgb(148,   0, 211)'  d='M516.2,444.0 L518.0,444.0 L516.2,444.0 Z  '/>	<g stroke='none' shape-rendering='crispEdges'>
		<polygon fill = 'rgb(148,   0, 211)' points = '521.5,444.0 523.4,444.0 523.4,443.9 521.5,443.9 '/>
	</g>
	<path stroke='rgb(148,   0, 211)'  d='M521.5,444.0 L523.3,444.0 L521.5,444.0 Z  '/>	<g stroke='none' shape-rendering='crispEdges'>
		<polygon fill = 'rgb(148,   0, 211)' points = '526.7,444.0 528.6,444.0 528.6,443.9 526.7,443.9 '/>
	</g>
	<path stroke='rgb(148,   0, 211)'  d='M526.7,444.0 L528.5,444.0 L526.7,444.0 Z  '/>	<g stroke='none' shape-rendering='crispEdges'>
		<polygon fill = 'rgb(148,   0, 211)' points = '532.0,444.0 533.9,444.0 533.9,443.9 532.0,443.9 '/>
	</g>
	<path stroke='rgb(148,   0, 211)'  d='M532.0,444.0 L533.8,444.0 L532.0,444.0 Z  '/>	<g stroke='none' shape-rendering='crispEdges'>
		<polygon fill = 'rgb(148,   0, 211)' points = '537.2,444.0 539.2,444.0 539.2,443.9 537.2,443.9 '/>
	</g>
	<path stroke='rgb(148,   0, 211)'  d='M537.2,444.0 L539.1,444.0 L537.2,444.0 Z  '/>	<g stroke='none' shape-rendering='crispEdges'>
		<polygon fill = 'rgb(148,   0, 211)' points = '542.5,444.0 544.4,444.0 544.4,443.9 542.5,443.9 '/>
	</g>
	<path stroke='rgb(148,   0, 211)'  d='M542.5,444.0 L544.3,444.0 L542.5,444.0 Z  '/>	<g stroke='none' shape-rendering='crispEdges'>
		<polygon fill = 'rgb(148,   0, 211)' points = '547.8,444.0 549.7,444.0 549.7,443.9 547.8,443.9 '/>
	</g>
	<path stroke='rgb(148,   0, 211)'  d='M547.8,444.0 L549.6,444.0 L547.8,444.0 Z  '/>	<g stroke='none' shape-rendering='crispEdges'>
		<polygon fill = 'rgb(148,   0, 211)' points = '553.0,444.0 555.0,444.0 555.0,443.9 553.0,443.9 '/>
	</g>
	<path stroke='rgb(148,   0, 211)'  d='M553.0,444.0 L554.9,444.0 L553.0,444.0 Z  '/>	<g stroke='none' shape-rendering='crispEdges'>
		<polygon fill = 'rgb(148,   0, 211)' points = '558.3,444.0 560.2,444.0 560.2,443.9 558.3,443.9 '/>
	</g>
	<path stroke='rgb(148,   0, 211)'  d='M558.3,444.0 L560.1,444.0 L558.3,444.0 Z  '/>	<g stroke='none' shape-rendering='crispEdges'>
		<polygon fill = 'rgb(148,   0, 211)' points = '563.6,444.0 565.5,444.0 565.5,443.9 563.6,443.9 '/>
	</g>
	<path stroke='rgb(148,   0, 211)'  d='M563.6,444.0 L565.4,444.0 L563.6,444.0 Z  '/>	<g stroke='none' shape-rendering='crispEdges'>
		<polygon fill = 'rgb(148,   0, 211)' points = '568.8,444.0 570.7,444.0 570.7,443.9 568.8,443.9 '/>
	</g>
	<path stroke='rgb(148,   0, 211)'  d='M568.8,444.0 L570.6,444.0 L568.8,444.0 Z  '/>	<g stroke='none' shape-rendering='crispEdges'>
		<polygon fill = 'rgb(148,   0, 211)' points = '574.1,444.0 575.1,444.0 575.1,443.9 574.1,443.9 '/>
	</g>
	<path stroke='rgb(148,   0, 211)'  d='M574.1,444.0 L575.0,444.0 L574.1,444.0 Z  '/></g>
	</g>
	<g id="gnuplot_plot_2" ><title>exp(-x**2/4)/1.75</title>
<g fill="none" color="black" stroke="currentColor" stroke-width="1.00" stroke-linecap="butt" stroke-linejoin="miter">
	<g transform="translate(507.9,57.2)" stroke="none" fill="black" font-family="Alegreya" font-size="12.00"  text-anchor="end">
		<text>exp(-x**2/4)/1.75</text>
	</g>
</g>
<g fill="none" color="black" stroke="currentColor" stroke-width="1.00" stroke-linecap="butt" stroke-linejoin="miter">
	<g stroke='none' shape-rendering='crispEdges'>
		<polygon fill = 'rgb(  0, 158, 115)' points = '516.2,57.2 558.4,57.2 558.4,48.2 516.2,48.2 '/>
	</g>
	<path stroke='rgb(  0, 158, 115)'  d='M516.2,57.2 L558.4,57.2 L558.4,48.2 L516.2,48.2 L516.2,57.2 Z  '/></g>
<g fill="none" color="black" stroke="currentColor" stroke-width="1.00" stroke-linecap="butt" stroke-linejoin="miter">
	<g stroke='none' shape-rendering='crispEdges'>
		<polygon fill = 'rgb(  0, 158, 115)' points = '53.9,444.0 54.9,444.0 54.9,443.4 53.9,443.4 '/>
	</g>
	<path stroke='rgb(  0, 158, 115)'  d='M53.9,444.0 L53.9,443.5 L54.8,443.5 L54.8,444.0 L53.9,444.0 Z  '/>	<g stroke='none' shape-rendering='crispEdges'>
		<polygon fill = 'rgb(  0, 158, 115)' points = '58.3,444.0 60.2,444.0 60.2,443.3 58.3,443.3 '/>
	</g>
	<path stroke='rgb(  0, 158, 115)'  d='M58.3,444.0 L58.3,443.4 L60.1,443.4 L60.1,444.0 L58.3,444.0 Z  '/>	<g stroke='none' shape-rendering='crispEdges'>
		<polygon fill = 'rgb(  0, 158, 115)' points = '63.5,444.0 65.4,444.0 65.4,443.1 63.5,443.1 '/>
	</g>
	<path stroke='rgb(  0, 158, 115)'  d='M63.5,444.0 L63.5,443.2 L65.3,443.2 L65.3,444.0 L63.5,444.0 Z  '/>	<g stroke='none' shape-rendering='crispEdges'>
		<polygon fill = 'rgb(  0, 158, 115)' points = '68.8,444.0 70.7,444.0 70.7,442.9 68.8,442.9 '/>
	</g>
	<path stroke='rgb(  0, 158, 115)'  d='M68.8,444.0 L68.8,443.0 L70.6,443.0 L70.6,444.0 L68.8,444.0 Z  '/>	<g stroke='none' shape-rendering='crispEdges'>
		<polygon fill = 'rgb(  0, 158, 115)' points = '74.0,444.0 76.0,444.0 76.0,442.7 74.0,442.7 '/>
	</g>
	<path stroke='rgb(  0, 158, 115)'  d='M74.0,444.0 L74.0,442.8 L75.9,442.8 L75.9,444.0 L74.0,444.0 Z  '/>	<g stroke='none' shape-rendering='crispEdges'>
		<polygon fill = 'rgb(  0, 158, 115)' points = '79.3,444.0 81.2,444.0 81.2,442.3 79.3,442.3 '/>
	</g>
	<path stroke='rgb(  0, 158, 115)'  d='M79.3,444.0 L79.3,442.4 L81.1,442.4 L81.1,444.0 L79.3,444.0 Z  '/>	<g stroke='none' shape-rendering='crispEdges'>
		<polygon fill = 'rgb(  0, 158, 115)' points = '84.6,444.0 86.5,444.0 86.5,441.9 84.6,441.9 '/>
	</g>
	<path stroke='rgb(  0, 158, 115)'  d='M84.6,444.0 L84.6,442.0 L86.4,442.0 L86.4,444.0 L84.6,444.0 Z  '/>	<g stroke='none' shape-rendering='crispEdges'>
		<polygon fill = 'rgb(  0, 158, 115)' points = '89.8,444.0 91.8,444.0 91.8,441.5 89.8,441.5 '/>
	</g>
	<path stroke='rgb(  0, 158, 115)'  d='M89.8,444.0 L89.8,441.6 L91.7,441.6 L91.7,444.0 L89.8,444.0 Z  '/>	<g stroke='none' shape-rendering='crispEdges'>
		<polygon fill = 'rgb(  0, 158, 115)' points = '95.1,444.0 97.0,444.0 97.0,440.9 95.1,440.9 '/>
	</g>
	<path stroke='rgb(  0, 158, 115)'  d='M95.1,444.0 L95.1,441.0 L96.9,441.0 L96.9,444.0 L95.1,444.0 Z  '/>	<g stroke='none' shape-rendering='crispEdges'>
		<polygon fill = 'rgb(  0, 158, 115)' points = '100.4,444.0 102.3,444.0 102.3,440.2 100.4,440.2 '/>
	</g>
	<path stroke='rgb(  0, 158, 115)'  d='M100.4,444.0 L100.4,440.3 L102.2,440.3 L102.2,444.0 L100.4,444.0 Z  '/>	<g stroke='none' shape-rendering='crispEdges'>
		<polygon fill = 'rgb(  0, 158, 115)' points = '105.6,444.0 107.5,444.0 107.5,439.3 105.6,439.3 '/>
	</g>
	<path stroke='rgb(  0, 158, 115)'  d='M105.6,444.0 L105.6,439.4 L107.4,439.4 L107.4,444.0 L105.6,444.0 Z  '/>	<g stroke='none' shape-rendering='crispEdges'>
		<polygon fill = 'rgb(  0, 158, 115)' points = '110.9,444.0 112.8,444.0 112.8,438.3 110.9,438.3 '/>
	</g>
	<path stroke='rgb(  0, 158, 115)'  d='M110.9,444.0 L110.9,438.4 L112.7,438.4 L112.7,444.0 L110.9,444.0 Z  '/>	<g stroke='none' shape-rendering='crispEdges'>
		<polygon fill = 'rgb(  0, 158, 115)' points = '116.2,444.0 118.1,444.0 118.1,437.1 116.2,437.1 '/>
	</g>
	<path stroke='rgb(  0, 158, 115)'  d='M116.2,444.0 L116.2,437.2 L118.0,437.2 L118.0,444.0 L116.2,444.0 Z  '/>	<g stroke='none' shape-rendering='crispEdges'>
		<polygon fill = 'rgb(  0, 158, 115)' points = '121.4,444.0 123.3,444.0 123.3,435.7 121.4,435.7 '/>
	</g>
	<path stroke='rgb(  0, 158, 115)'  d='M121.4,444.0 L121.4,435.8 L123.2,435.8 L123.2,444.0 L121.4,444.0 Z  '/>	<g stroke='none' shape-rendering='crispEdges'>
		<polygon fill = 'rgb(  0, 158, 115)' points = '126.7,444.0 128.6,444.0 128.6,434.1 126.7,434.1 '/>
	</g>
	<path stroke='rgb(  0, 158, 115)'  d='M126.7,444.0 L126.7,434.2 L128.5,434.2 L128.5,444.0 L126.7,444.0 Z  '/>	<g stroke='none' shape-rendering='crispEdges'>
		<polygon fill = 'rgb(  0, 158, 115)' points = '131.9,444.0 133.9,444.0 133.9,432.2 131.9,432.2 '/>
	</g>
	<path stroke='rgb(  0, 158, 115)'  d='M131.9,444.0 L131.9,432.3 L133.8,432.3 L133.8,444.0 L131.9,444.0 Z  '/>	<g stroke='none' shape-rendering='crispEdges'>
		<polygon fill = 'rgb(  0, 158, 115)' points = '137.2,444.0 139.1,444.0 139.1,430.0 137.2,430.0 '/>
	</g>
	<path stroke='rgb(  0, 158, 115)'  d='M137.2,444.0 L137.2,430.1 L139.0,430.1 L139.0,444.0 L137.2,444.0 Z  '/>	<g stroke='none' shape-rendering='crispEdges'>
		<polygon fill = 'rgb(  0, 158, 115)' points = '142.5,444.0 144.4,444.0 144.4,427.4 142.5,427.4 '/>
	</g>
	<path stroke='rgb(  0, 158, 115)'  d='M142.5,444.0 L142.5,427.5 L144.3,427.5 L144.3,444.0 L142.5,444.0 Z  '/>	<g stroke='none' shape-rendering='crispEdges'>
		<polygon fill = 'rgb(  0, 158, 115)' points = '147.7,444.0 149.7,444.0 149.7,424.5 147.7,424.5 '/>
	</g>
	<path stroke='rgb(  0, 158, 115)'  d='M147.7,444.0 L147.7,424.6 L149.6,424.6 L149.6,444.0 L147.7,444.0 Z  '/>	<g stroke='none' shape-rendering='crispEdges'>
		<polygon fill = 'rgb(  0, 158, 115)' points = '153.0,444.0 154.9,444.0 154.9,421.1 153.0,421.1 '/>
	</g>
	<path stroke='rgb(  0, 158, 115)'  d='M153.0,444.0 L153.0,421.2 L154.8,421.2 L154.8,444.0 L153.0,444.0 Z  '/>	<g stroke='none' shape-rendering='crispEdges'>
		<polygon fill = 'rgb(  0, 158, 115)' points = '158.3,444.0 160.2,444.0 160.2,417.4 158.3,417.4 '/>
	</g>
	<path stroke='rgb(  0, 158, 115)'  d='M158.3,444.0 L158.3,417.5 L160.1,417.5 L160.1,444.0 L158.3,444.0 Z  '/>	<g stroke='none' shape-rendering='crispEdges'>
		<polygon fill = 'rgb(  0, 158, 115)' points = '163.5,444.0 165.4,444.0 165.4,413.1 163.5,413.1 '/>
	</g>
	<path stroke='rgb(  0, 158, 115)'  d='M163.5,444.0 L163.5,413.2 L165.3,413.2 L165.3,444.0 L163.5,444.0 Z  '/>	<g stroke='none' shape-rendering='crispEdges'>
		<polygon fill = 'rgb(  0, 158, 115)' points = '168.8,444.0 170.7,444.0 170.7,408.4 168.8,408.4 '/>
	</g>
	<path stroke='rgb(  0, 158, 115)'  d='M168.8,444.0 L168.8,408.5 L170.6,408.5 L170.6,444.0 L168.8,444.0 Z  '/>	<g stroke='none' shape-rendering='crispEdges'>
		<polygon fill = 'rgb(  0, 158, 115)' points = '174.1,444.0 176.0,444.0 176.0,403.2 174.1,403.2 '/>
	</g>
	<path stroke='rgb(  0, 158, 115)'  d='M174.1,444.0 L174.1,403.3 L175.9,403.3 L175.9,444.0 L174.1,444.0 Z  '/>	<g stroke='none' shape-rendering='crispEdges'>
		<polygon fill = 'rgb(  0, 158, 115)' points = '179.3,444.0 181.2,444.0 181.2,397.4 179.3,397.4 '/>
	</g>
	<path stroke='rgb(  0, 158, 115)'  d='M179.3,444.0 L179.3,397.5 L181.1,397.5 L181.1,444.0 L179.3,444.0 Z  '/>	<g stroke='none' shape-rendering='crispEdges'>
		<polygon fill = 'rgb(  0, 158, 115)' points = '184.6,444.0 186.5,444.0 186.5,391.1 184.6,391.1 '/>
	</g>
	<path stroke='rgb(  0, 158, 115)'  d='M184.6,444.0 L184.6,391.2 L186.4,391.2 L186.4,444.0 L184.6,444.0 Z  '/>	<g stroke='none' shape-rendering='crispEdges'>
		<polygon fill = 'rgb(  0, 158, 115)' points = '189.8,444.0 191.8,444.0 191.8,384.2 189.8,384.2 '/>
	</g>
	<path stroke='rgb(  0, 158, 115)'  d='M189.8,444.0 L189.8,384.3 L191.7,384.3 L191.7,444.0 L189.8,444.0 Z  '/>	<g stroke='none' shape-rendering='crispEdges'>
		<polygon fill = 'rgb(  0, 158, 115)' points = '195.1,444.0 197.0,444.0 197.0,376.8 195.1,376.8 '/>
	</g>
	<path stroke='rgb(  0, 158, 115)'  d='M195.1,444.0 L195.1,376.9 L196.9,376.9 L196.9,444.0 L195.1,444.0 Z  '/>	<g stroke='none' shape-rendering='crispEdges'>
		<polygon fill = 'rgb(  0, 158, 115)' points = '200.4,444.0 202.3,444.0 202.3,368.8 200.4,368.8 '/>
	</g>
	<path stroke='rgb(  0, 158, 115)'  d='M200.4,444.0 L200.4,368.9 L202.2,368.9 L202.2,444.0 L200.4,444.0 Z  '/>	<g stroke='none' shape-rendering='crispEdges'>
		<polygon fill = 'rgb(  0, 158, 115)' points = '205.6,444.0 207.6,444.0 207.6,360.3 205.6,360.3 '/>
	</g>
	<path stroke='rgb(  0, 158, 115)'  d='M205.6,444.0 L205.6,360.4 L207.5,360.4 L207.5,444.0 L205.6,444.0 Z  '/>	<g stroke='none' shape-rendering='crispEdges'>
		<polygon fill = 'rgb(  0, 158, 115)' points = '210.9,444.0 212.8,444.0 212.8,351.3 210.9,351.3 '/>
	</g>
	<path stroke='rgb(  0, 158, 115)'  d='M210.9,444.0 L210.9,351.4 L212.7,351.4 L212.7,444.0 L210.9,444.0 Z  '/>	<g stroke='none' shape-rendering='crispEdges'>
		<polygon fill = 'rgb(  0, 158, 115)' points = '216.2,444.0 218.1,444.0 218.1,341.9 216.2,341.9 '/>
	</g>
	<path stroke='rgb(  0, 158, 115)'  d='M216.2,444.0 L216.2,342.0 L218.0,342.0 L218.0,444.0 L216.2,444.0 Z  '/>	<g stroke='none' shape-rendering='crispEdges'>
		<polygon fill = 'rgb(  0, 158, 115)' points = '221.4,444.0 223.3,444.0 223.3,332.1 221.4,332.1 '/>
	</g>
	<path stroke='rgb(  0, 158, 115)'  d='M221.4,444.0 L221.4,332.2 L223.2,332.2 L223.2,444.0 L221.4,444.0 Z  '/>	<g stroke='none' shape-rendering='crispEdges'>
		<polygon fill = 'rgb(  0, 158, 115)' points = '226.7,444.0 228.6,444.0 228.6,322.0 226.7,322.0 '/>
	</g>
	<path stroke='rgb(  0, 158, 115)'  d='M226.7,444.0 L226.7,322.1 L228.5,322.1 L228.5,444.0 L226.7,444.0 Z  '/>	<g stroke='none' shape-rendering='crispEdges'>
		<polygon fill = 'rgb(  0, 158, 115)' points = '232.0,444.0 233.9,444.0 233.9,311.6 232.0,311.6 '/>
	</g>
	<path stroke='rgb(  0, 158, 115)'  d='M232.0,444.0 L232.0,311.7 L233.8,311.7 L233.8,444.0 L232.0,444.0 Z  '/>	<g stroke='none' shape-rendering='crispEdges'>
		<polygon fill = 'rgb(  0, 158, 115)' points = '237.2,444.0 239.1,444.0 239.1,301.1 237.2,301.1 '/>
	</g>
	<path stroke='rgb(  0, 158, 115)'  d='M237.2,444.0 L237.2,301.2 L239.0,301.2 L239.0,444.0 L237.2,444.0 Z  '/>	<g stroke='none' shape-rendering='crispEdges'>
		<polygon fill = 'rgb(  0, 158, 115)' points = '242.5,444.0 244.4,444.0 244.4,290.5 242.5,290.5 '/>
	</g>
	<path stroke='rgb(  0, 158, 115)'  d='M242.5,444.0 L242.5,290.6 L244.3,290.6 L244.3,444.0 L242.5,444.0 Z  '/>	<g stroke='none' shape-rendering='crispEdges'>
		<polygon fill = 'rgb(  0, 158, 115)' points = '247.7,444.0 249.7,444.0 249.7,280.0 247.7,280.0 '/>
	</g>
	<path stroke='rgb(  0, 158, 115)'  d='M247.7,444.0 L247.7,280.1 L249.6,280.1 L249.6,444.0 L247.7,444.0 Z  '/>	<g stroke='none' shape-rendering='crispEdges'>
		<polygon fill = 'rgb(  0, 158, 115)' points = '253.0,444.0 254.9,444.0 254.9,269.6 253.0,269.6 '/>
	</g>
	<path stroke='rgb(  0, 158, 115)'  d='M253.0,444.0 L253.0,269.7 L254.8,269.7 L254.8,444.0 L253.0,444.0 Z  '/>	<g stroke='none' shape-rendering='crispEdges'>
		<polygon fill = 'rgb(  0, 158, 115)' points = '258.3,444.0 260.2,444.0 260.2,259.6 258.3,259.6 '/>
	</g>
	<path stroke='rgb(  0, 158, 115)'  d='M258.3,444.0 L258.3,259.7 L260.1,259.7 L260.1,444.0 L258.3,444.0 Z  '/>	<g stroke='none' shape-rendering='crispEdges'>
		<polygon fill = 'rgb(  0, 158, 115)' points = '263.5,444.0 265.5,444.0 265.5,249.9 263.5,249.9 '/>
	</g>
	<path stroke='rgb(  0, 158, 115)'  d='M263.5,444.0 L263.5,250.0 L265.4,250.0 L265.4,444.0 L263.5,444.0 Z  '/>	<g stroke='none' shape-rendering='crispEdges'>
		<polygon fill = 'rgb(  0, 158, 115)' points = '268.8,444.0 270.7,444.0 270.7,240.8 268.8,240.8 '/>
	</g>
	<path stroke='rgb(  0, 158, 115)'  d='M268.8,444.0 L268.8,240.9 L270.6,240.9 L270.6,444.0 L268.8,444.0 Z  '/>	<g stroke='none' shape-rendering='crispEdges'>
		<polygon fill = 'rgb(  0, 158, 115)' points = '274.1,444.0 276.0,444.0 276.0,232.4 274.1,232.4 '/>
	</g>
	<path stroke='rgb(  0, 158, 115)'  d='M274.1,444.0 L274.1,232.5 L275.9,232.5 L275.9,444.0 L274.1,444.0 Z  '/>	<g stroke='none' shape-rendering='crispEdges'>
		<polygon fill = 'rgb(  0, 158, 115)' points = '279.3,444.0 281.2,444.0 281.2,224.7 279.3,224.7 '/>
	</g>
	<path stroke='rgb(  0, 158, 115)'  d='M279.3,444.0 L279.3,224.8 L281.1,224.8 L281.1,444.0 L279.3,444.0 Z  '/>	<g stroke='none' shape-rendering='crispEdges'>
		<polygon fill = 'rgb(  0, 158, 115)' points = '284.6,444.0 286.5,444.0 286.5,217.9 284.6,217.9 '/>
	</g>
	<path stroke='rgb(  0, 158, 115)'  d='M284.6,444.0 L284.6,218.0 L286.4,218.0 L286.4,444.0 L284.6,444.0 Z  '/>	<g stroke='none' shape-rendering='crispEdges'>
		<polygon fill = 'rgb(  0, 158, 115)' points = '289.9,444.0 291.8,444.0 291.8,212.0 289.9,212.0 '/>
	</g>
	<path stroke='rgb(  0, 158, 115)'  d='M289.9,444.0 L289.9,212.1 L291.7,212.1 L291.7,444.0 L289.9,444.0 Z  '/>	<g stroke='none' shape-rendering='crispEdges'>
		<polygon fill = 'rgb(  0, 158, 115)' points = '295.1,444.0 297.0,444.0 297.0,207.2 295.1,207.2 '/>
	</g>
	<path stroke='rgb(  0, 158, 115)'  d='M295.1,444.0 L295.1,207.3 L296.9,207.3 L296.9,444.0 L295.1,444.0 Z  '/>	<g stroke='none' shape-rendering='crispEdges'>
		<polygon fill = 'rgb(  0, 158, 115)' points = '300.4,444.0 302.3,444.0 302.3,203.6 300.4,203.6 '/>
	</g>
	<path stroke='rgb(  0, 158, 115)'  d='M300.4,444.0 L300.4,203.7 L302.2,203.7 L302.2,444.0 L300.4,444.0 Z  '/>	<g stroke='none' shape-rendering='crispEdges'>
		<polygon fill = 'rgb(  0, 158, 115)' points = '305.6,444.0 307.6,444.0 307.6,201.1 305.6,201.1 '/>
	</g>
	<path stroke='rgb(  0, 158, 115)'  d='M305.6,444.0 L305.6,201.2 L307.5,201.2 L307.5,444.0 L305.6,444.0 Z  '/>	<g stroke='none' shape-rendering='crispEdges'>
		<polygon fill = 'rgb(  0, 158, 115)' points = '310.9,444.0 312.8,444.0 312.8,199.9 310.9,199.9 '/>
	</g>
	<path stroke='rgb(  0, 158, 115)'  d='M310.9,444.0 L310.9,200.0 L312.7,200.0 L312.7,444.0 L310.9,444.0 Z  '/>	<g stroke='none' shape-rendering='crispEdges'>
		<polygon fill = 'rgb(  0, 158, 115)' points = '316.2,444.0 318.1,444.0 318.1,199.9 316.2,199.9 '/>
	</g>
	<path stroke='rgb(  0, 158, 115)'  d='M316.2,444.0 L316.2,200.0 L318.0,200.0 L318.0,444.0 L316.2,444.0 Z  '/>	<g stroke='none' shape-rendering='crispEdges'>
		<polygon fill = 'rgb(  0, 158, 115)' points = '321.4,444.0 323.4,444.0 323.4,201.1 321.4,201.1 '/>
	</g>
	<path stroke='rgb(  0, 158, 115)'  d='M321.4,444.0 L321.4,201.2 L323.3,201.2 L323.3,444.0 L321.4,444.0 Z  '/>	<g stroke='none' shape-rendering='crispEdges'>
		<polygon fill = 'rgb(  0, 158, 115)' points = '326.7,444.0 328.6,444.0 328.6,203.6 326.7,203.6 '/>
	</g>
	<path stroke='rgb(  0, 158, 115)'  d='M326.7,444.0 L326.7,203.7 L328.5,203.7 L328.5,444.0 L326.7,444.0 Z  '/>	<g stroke='none' shape-rendering='crispEdges'>
		<polygon fill = 'rgb(  0, 158, 115)' points = '332.0,444.0 333.9,444.0 333.9,207.2 332.0,207.2 '/>
	</g>
	<path stroke='rgb(  0, 158, 115)'  d='M332.0,444.0 L332.0,207.3 L333.8,207.3 L333.8,444.0 L332.0,444.0 Z  '/>	<g stroke='none' shape-rendering='crispEdges'>
		<polygon fill = 'rgb(  0, 158, 115)' points = '337.2,444.0 339.1,444.0 339.1,212.0 337.2,212.0 '/>
	</g>
	<path stroke='rgb(  0, 158, 115)'  d='M337.2,444.0 L337.2,212.1 L339.0,212.1 L339.0,444.0 L337.2,444.0 Z  '/>	<g stroke='none' shape-rendering='crispEdges'>
		<polygon fill = 'rgb(  0, 158, 115)' points = '342.5,444.0 344.4,444.0 344.4,217.9 342.5,217.9 '/>
	</g>
	<path stroke='rgb(  0, 158, 115)'  d='M342.5,444.0 L342.5,218.0 L344.3,218.0 L344.3,444.0 L342.5,444.0 Z  '/>	<g stroke='none' shape-rendering='crispEdges'>
		<polygon fill = 'rgb(  0, 158, 115)' points = '347.8,444.0 349.7,444.0 349.7,224.7 347.8,224.7 '/>
	</g>
	<path stroke='rgb(  0, 158, 115)'  d='M347.8,444.0 L347.8,224.8 L349.6,224.8 L349.6,444.0 L347.8,444.0 Z  '/>	<g stroke='none' shape-rendering='crispEdges'>
		<polygon fill = 'rgb(  0, 158, 115)' points = '353.0,444.0 354.9,444.0 354.9,232.4 353.0,232.4 '/>
	</g>
	<path stroke='rgb(  0, 158, 115)'  d='M353.0,444.0 L353.0,232.5 L354.8,232.5 L354.8,444.0 L353.0,444.0 Z  '/>	<g stroke='none' shape-rendering='crispEdges'>
		<polygon fill = 'rgb(  0, 158, 115)' points = '358.3,444.0 360.2,444.0 360.2,240.8 358.3,240.8 '/>
	</g>
	<path stroke='rgb(  0, 158, 115)'  d='M358.3,444.0 L358.3,240.9 L360.1,240.9 L360.1,444.0 L358.3,444.0 Z  '/>	<g stroke='none' shape-rendering='crispEdges'>
		<polygon fill = 'rgb(  0, 158, 115)' points = '363.5,444.0 365.5,444.0 365.5,249.9 363.5,249.9 '/>
	</g>
	<path stroke='rgb(  0, 158, 115)'  d='M363.5,444.0 L363.5,250.0 L365.4,250.0 L365.4,444.0 L363.5,444.0 Z  '/>	<g stroke='none' shape-rendering='crispEdges'>
		<polygon fill = 'rgb(  0, 158, 115)' points = '368.8,444.0 370.7,444.0 370.7,259.6 368.8,259.6 '/>
	</g>
	<path stroke='rgb(  0, 158, 115)'  d='M368.8,444.0 L368.8,259.7 L370.6,259.7 L370.6,444.0 L368.8,444.0 Z  '/>	<g stroke='none' shape-rendering='crispEdges'>
		<polygon fill = 'rgb(  0, 158, 115)' points = '374.1,444.0 376.0,444.0 376.0,269.6 374.1,269.6 '/>
	</g>
	<path stroke='rgb(  0, 158, 115)'  d='M374.1,444.0 L374.1,269.7 L375.9,269.7 L375.9,444.0 L374.1,444.0 Z  '/>	<g stroke='none' shape-rendering='crispEdges'>
		<polygon fill = 'rgb(  0, 158, 115)' points = '379.3,444.0 381.3,444.0 381.3,280.0 379.3,280.0 '/>
	</g>
	<path stroke='rgb(  0, 158, 115)'  d='M379.3,444.0 L379.3,280.1 L381.2,280.1 L381.2,444.0 L379.3,444.0 Z  '/>	<g stroke='none' shape-rendering='crispEdges'>
		<polygon fill = 'rgb(  0, 158, 115)' points = '384.6,444.0 386.5,444.0 386.5,290.5 384.6,290.5 '/>
	</g>
	<path stroke='rgb(  0, 158, 115)'  d='M384.6,444.0 L384.6,290.6 L386.4,290.6 L386.4,444.0 L384.6,444.0 Z  '/>	<g stroke='none' shape-rendering='crispEdges'>
		<polygon fill = 'rgb(  0, 158, 115)' points = '389.9,444.0 391.8,444.0 391.8,301.1 389.9,301.1 '/>
	</g>
	<path stroke='rgb(  0, 158, 115)'  d='M389.9,444.0 L389.9,301.2 L391.7,301.2 L391.7,444.0 L389.9,444.0 Z  '/>	<g stroke='none' shape-rendering='crispEdges'>
		<polygon fill = 'rgb(  0, 158, 115)' points = '395.1,444.0 397.0,444.0 397.0,311.6 395.1,311.6 '/>
	</g>
	<path stroke='rgb(  0, 158, 115)'  d='M395.1,444.0 L395.1,311.7 L396.9,311.7 L396.9,444.0 L395.1,444.0 Z  '/>	<g stroke='none' shape-rendering='crispEdges'>
		<polygon fill = 'rgb(  0, 158, 115)' points = '400.4,444.0 402.3,444.0 402.3,322.0 400.4,322.0 '/>
	</g>
	<path stroke='rgb(  0, 158, 115)'  d='M400.4,444.0 L400.4,322.1 L402.2,322.1 L402.2,444.0 L400.4,444.0 Z  '/>	<g stroke='none' shape-rendering='crispEdges'>
		<polygon fill = 'rgb(  0, 158, 115)' points = '405.7,444.0 407.6,444.0 407.6,332.1 405.7,332.1 '/>
	</g>
	<path stroke='rgb(  0, 158, 115)'  d='M405.7,444.0 L405.7,332.2 L407.5,332.2 L407.5,444.0 L405.7,444.0 Z  '/>	<g stroke='none' shape-rendering='crispEdges'>
		<polygon fill = 'rgb(  0, 158, 115)' points = '410.9,444.0 412.8,444.0 412.8,341.9 410.9,341.9 '/>
	</g>
	<path stroke='rgb(  0, 158, 115)'  d='M410.9,444.0 L410.9,342.0 L412.7,342.0 L412.7,444.0 L410.9,444.0 Z  '/>	<g stroke='none' shape-rendering='crispEdges'>
		<polygon fill = 'rgb(  0, 158, 115)' points = '416.2,444.0 418.1,444.0 418.1,351.3 416.2,351.3 '/>
	</g>
	<path stroke='rgb(  0, 158, 115)'  d='M416.2,444.0 L416.2,351.4 L418.0,351.4 L418.0,444.0 L416.2,444.0 Z  '/>	<g stroke='none' shape-rendering='crispEdges'>
		<polygon fill = 'rgb(  0, 158, 115)' points = '421.4,444.0 423.4,444.0 423.4,360.3 421.4,360.3 '/>
	</g>
	<path stroke='rgb(  0, 158, 115)'  d='M421.4,444.0 L421.4,360.4 L423.3,360.4 L423.3,444.0 L421.4,444.0 Z  '/>	<g stroke='none' shape-rendering='crispEdges'>
		<polygon fill = 'rgb(  0, 158, 115)' points = '426.7,444.0 428.6,444.0 428.6,368.8 426.7,368.8 '/>
	</g>
	<path stroke='rgb(  0, 158, 115)'  d='M426.7,444.0 L426.7,368.9 L428.5,368.9 L428.5,444.0 L426.7,444.0 Z  '/>	<g stroke='none' shape-rendering='crispEdges'>
		<polygon fill = 'rgb(  0, 158, 115)' points = '432.0,444.0 433.9,444.0 433.9,376.8 432.0,376.8 '/>
	</g>
	<path stroke='rgb(  0, 158, 115)'  d='M432.0,444.0 L432.0,376.9 L433.8,376.9 L433.8,444.0 L432.0,444.0 Z  '/>	<g stroke='none' shape-rendering='crispEdges'>
		<polygon fill = 'rgb(  0, 158, 115)' points = '437.2,444.0 439.2,444.0 439.2,384.2 437.2,384.2 '/>
	</g>
	<path stroke='rgb(  0, 158, 115)'  d='M437.2,444.0 L437.2,384.3 L439.1,384.3 L439.1,444.0 L437.2,444.0 Z  '/>	<g stroke='none' shape-rendering='crispEdges'>
		<polygon fill = 'rgb(  0, 158, 115)' points = '442.5,444.0 444.4,444.0 444.4,391.1 442.5,391.1 '/>
	</g>
	<path stroke='rgb(  0, 158, 115)'  d='M442.5,444.0 L442.5,391.2 L444.3,391.2 L444.3,444.0 L442.5,444.0 Z  '/>	<g stroke='none' shape-rendering='crispEdges'>
		<polygon fill = 'rgb(  0, 158, 115)' points = '447.8,444.0 449.7,444.0 449.7,397.4 447.8,397.4 '/>
	</g>
	<path stroke='rgb(  0, 158, 115)'  d='M447.8,444.0 L447.8,397.5 L449.6,397.5 L449.6,444.0 L447.8,444.0 Z  '/>	<g stroke='none' shape-rendering='crispEdges'>
		<polygon fill = 'rgb(  0, 158, 115)' points = '453.0,444.0 454.9,444.0 454.9,403.2 453.0,403.2 '/>
	</g>
	<path stroke='rgb(  0, 158, 115)'  d='M453.0,444.0 L453.0,403.3 L454.8,403.3 L454.8,444.0 L453.0,444.0 Z  '/>	<g stroke='none' shape-rendering='crispEdges'>
		<polygon fill = 'rgb(  0, 158, 115)' points = '458.3,444.0 460.2,444.0 460.2,408.4 458.3,408.4 '/>
	</g>
	<path stroke='rgb(  0, 158, 115)'  d='M458.3,444.0 L458.3,408.5 L460.1,408.5 L460.1,444.0 L458.3,444.0 Z  '/>	<g stroke='none' shape-rendering='crispEdges'>
		<polygon fill = 'rgb(  0, 158, 115)' points = '463.6,444.0 465.5,444.0 465.5,413.1 463.6,413.1 '/>
	</g>
	<path stroke='rgb(  0, 158, 115)'  d='M463.6,444.0 L463.6,413.2 L465.4,413.2 L465.4,444.0 L463.6,444.0 Z  '/>	<g stroke='none' shape-rendering='crispEdges'>
		<polygon fill = 'rgb(  0, 158, 115)' points = '468.8,444.0 470.7,444.0 470.7,417.4 468.8,417.4 '/>
	</g>
	<path stroke='rgb(  0, 158, 115)'  d='M468.8,444.0 L468.8,417.5 L470.6,417.5 L470.6,444.0 L468.8,444.0 Z  '/>	<g stroke='none' shape-rendering='crispEdges'>
		<polygon fill = 'rgb(  0, 158, 115)' points = '474.1,444.0 476.0,444.0 476.0,421.1 474.1,421.1 '/>
	</g>
	<path stroke='rgb(  0, 158, 115)'  d='M474.1,444.0 L474.1,421.2 L475.9,421.2 L475.9,444.0 L474.1,444.0 Z  '/>	<g stroke='none' shape-rendering='crispEdges'>
		<polygon fill = 'rgb(  0, 158, 115)' points = '479.3,444.0 481.3,444.0 481.3,424.5 479.3,424.5 '/>
	</g>
	<path stroke='rgb(  0, 158, 115)'  d='M479.3,444.0 L479.3,424.6 L481.2,424.6 L481.2,444.0 L479.3,444.0 Z  '/>	<g stroke='none' shape-rendering='crispEdges'>
		<polygon fill = 'rgb(  0, 158, 115)' points = '484.6,444.0 486.5,444.0 486.5,427.4 484.6,427.4 '/>
	</g>
	<path stroke='rgb(  0, 158, 115)'  d='M484.6,444.0 L484.6,427.5 L486.4,427.5 L486.4,444.0 L484.6,444.0 Z  '/>	<g stroke='none' shape-rendering='crispEdges'>
		<polygon fill = 'rgb(  0, 158, 115)' points = '489.9,444.0 491.8,444.0 491.8,430.0 489.9,430.0 '/>
	</g>
	<path stroke='rgb(  0, 158, 115)'  d='M489.9,444.0 L489.9,430.1 L491.7,430.1 L491.7,444.0 L489.9,444.0 Z  '/>	<g stroke='none' shape-rendering='crispEdges'>
		<polygon fill = 'rgb(  0, 158, 115)' points = '495.1,444.0 497.1,444.0 497.1,432.2 495.1,432.2 '/>
	</g>
	<path stroke='rgb(  0, 158, 115)'  d='M495.1,444.0 L495.1,432.3 L497.0,432.3 L497.0,444.0 L495.1,444.0 Z  '/>	<g stroke='none' shape-rendering='crispEdges'>
		<polygon fill = 'rgb(  0, 158, 115)' points = '500.4,444.0 502.3,444.0 502.3,434.1 500.4,434.1 '/>
	</g>
	<path stroke='rgb(  0, 158, 115)'  d='M500.4,444.0 L500.4,434.2 L502.2,434.2 L502.2,444.0 L500.4,444.0 Z  '/>	<g stroke='none' shape-rendering='crispEdges'>
		<polygon fill = 'rgb(  0, 158, 115)' points = '505.7,444.0 507.6,444.0 507.6,435.7 505.7,435.7 '/>
	</g>
	<path stroke='rgb(  0, 158, 115)'  d='M505.7,444.0 L505.7,435.8 L507.5,435.8 L507.5,444.0 L505.7,444.0 Z  '/>	<g stroke='none' shape-rendering='crispEdges'>
		<polygon fill = 'rgb(  0, 158, 115)' points = '510.9,444.0 512.8,444.0 512.8,437.1 510.9,437.1 '/>
	</g>
	<path stroke='rgb(  0, 158, 115)'  d='M510.9,444.0 L510.9,437.2 L512.7,437.2 L512.7,444.0 L510.9,444.0 Z  '/>	<g stroke='none' shape-rendering='crispEdges'>
		<polygon fill = 'rgb(  0, 158, 115)' points = '516.2,444.0 518.1,444.0 518.1,438.3 516.2,438.3 '/>
	</g>
	<path stroke='rgb(  0, 158, 115)'  d='M516.2,444.0 L516.2,438.4 L518.0,438.4 L518.0,444.0 L516.2,444.0 Z  '/>	<g stroke='none' shape-rendering='crispEdges'>
		<polygon fill = 'rgb(  0, 158, 115)' points = '521.5,444.0 523.4,444.0 523.4,439.3 521.5,439.3 '/>
	</g>
	<path stroke='rgb(  0, 158, 115)'  d='M521.5,444.0 L521.5,439.4 L523.3,439.4 L523.3,444.0 L521.5,444.0 Z  '/>	<g stroke='none' shape-rendering='crispEdges'>
		<polygon fill = 'rgb(  0, 158, 115)' points = '526.7,444.0 528.6,444.0 528.6,440.2 526.7,440.2 '/>
	</g>
	<path stroke='rgb(  0, 158, 115)'  d='M526.7,444.0 L526.7,440.3 L528.5,440.3 L528.5,444.0 L526.7,444.0 Z  '/>	<g stroke='none' shape-rendering='crispEdges'>
		<polygon fill = 'rgb(  0, 158, 115)' points = '532.0,444.0 533.9,444.0 533.9,440.9 532.0,440.9 '/>
	</g>
	<path stroke='rgb(  0, 158, 115)'  d='M532.0,444.0 L532.0,441.0 L533.8,441.0 L533.8,444.0 L532.0,444.0 Z  '/>	<g stroke='none' shape-rendering='crispEdges'>
		<polygon fill = 'rgb(  0, 158, 115)' points = '537.2,444.0 539.2,444.0 539.2,441.5 537.2,441.5 '/>
	</g>
	<path stroke='rgb(  0, 158, 115)'  d='M537.2,444.0 L537.2,441.6 L539.1,441.6 L539.1,444.0 L537.2,444.0 Z  '/>	<g stroke='none' shape-rendering='crispEdges'>
		<polygon fill = 'rgb(  0, 158, 115)' points = '542.5,444.0 544.4,444.0 544.4,441.9 542.5,441.9 '/>
	</g>
	<path stroke='rgb(  0, 158, 115)'  d='M542.5,444.0 L542.5,442.0 L544.3,442.0 L544.3,444.0 L542.5,444.0 Z  '/>	<g stroke='none' shape-rendering='crispEdges'>
		<polygon fill = 'rgb(  0, 158, 115)' points = '547.8,444.0 549.7,444.0 549.7,442.3 547.8,442.3 '/>
	</g>
	<path stroke='rgb(  0, 158, 115)'  d='M547.8,444.0 L547.8,442.4 L549.6,442.4 L549.6,444.0 L547.8,444.0 Z  '/>	<g stroke='none' shape-rendering='crispEdges'>
		<polygon fill = 'rgb(  0, 158, 115)' points = '553.0,444.0 555.0,444.0 555.0,442.7 553.0,442.7 '/>
	</g>
	<path stroke='rgb(  0, 158, 115)'  d='M553.0,444.0 L553.0,442.8 L554.9,442.8 L554.9,444.0 L553.0,444.0 Z  '/>	<g stroke='none' shape-rendering='crispEdges'>
		<polygon fill = 'rgb(  0, 158, 115)' points = '558.3,444.0 560.2,444.0 560.2,442.9 558.3,442.9 '/>
	</g>
	<path stroke='rgb(  0, 158, 115)'  d='M558.3,444.0 L558.3,443.0 L560.1,443.0 L560.1,444.0 L558.3,444.0 Z  '/>	<g stroke='none' shape-rendering='crispEdges'>
		<polygon fill = 'rgb(  0, 158, 115)' points = '563.6,444.0 565.5,444.0 565.5,443.1 563.6,443.1 '/>
	</g>
	<path stroke='rgb(  0, 158, 115)'  d='M563.6,444.0 L563.6,443.2 L565.4,443.2 L565.4,444.0 L563.6,444.0 Z  '/>	<g stroke='none' shape-rendering='crispEdges'>
		<polygon fill = 'rgb(  0, 158, 115)' points = '568.8,444.0 570.7,444.0 570.7,443.3 568.8,443.3 '/>
	</g>
	<path stroke='rgb(  0, 158, 115)'  d='M568.8,444.0 L568.8,443.4 L570.6,443.4 L570.6,444.0 L568.8,444.0 Z  '/>	<g stroke='none' shape-rendering='crispEdges'>
		<polygon fill = 'rgb(  0, 158, 115)' points = '574.1,444.0 575.1,444.0 575.1,443.4 574.1,443.4 '/>
	</g>
	<path stroke='rgb(  0, 158, 115)'  d='M574.1,444.0 L574.1,443.5 L575.0,443.5 L575.0,444.0 L574.1,444.0 Z  '/></g>
	</g>
	<g id="gnuplot_plot_3" ><title>exp(-x**2/4)/1.75</title>
<g fill="none" color="white" stroke="rgb(  0, 158, 115)" stroke-width="2.00" stroke-linecap="butt" stroke-linejoin="miter">
</g>
<g fill="none" color="black" stroke="currentColor" stroke-width="2.00" stroke-linecap="butt" stroke-linejoin="miter">
	<g transform="translate(507.9,75.2)" stroke="none" fill="black" font-family="Alegreya" font-size="12.00"  text-anchor="end">
		<text>exp(-x**2/4)/1.75</text>
	</g>
</g>
<g fill="none" color="black" stroke="currentColor" stroke-width="2.00" stroke-linecap="butt" stroke-linejoin="miter">
	<path stroke='rgb(  0, 158, 115)'  d='M516.2,70.7 L558.4,70.7 M53.9,443.5 L59.2,443.4 L64.4,443.2 L69.7,443.0 L75.0,442.8 L80.2,442.4
		L85.5,442.0 L90.7,441.6 L96.0,441.0 L101.3,440.3 L106.5,439.4 L111.8,438.4 L117.1,437.2 L122.3,435.8
		L127.6,434.2 L132.9,432.3 L138.1,430.1 L143.4,427.5 L148.6,424.6 L153.9,421.2 L159.2,417.5 L164.4,413.2
		L169.7,408.5 L175.0,403.3 L180.2,397.5 L185.5,391.2 L190.8,384.3 L196.0,376.9 L201.3,368.9 L206.5,360.4
		L211.8,351.4 L217.1,342.0 L222.3,332.2 L227.6,322.1 L232.9,311.7 L238.1,301.2 L243.4,290.6 L248.7,280.1
		L253.9,269.7 L259.2,259.7 L264.4,250.0 L269.7,240.9 L275.0,232.5 L280.2,224.8 L285.5,218.0 L290.8,212.1
		L296.0,207.3 L301.3,203.7 L306.6,201.2 L311.8,200.0 L317.1,200.0 L322.3,201.2 L327.6,203.7 L332.9,207.3
		L338.1,212.1 L343.4,218.0 L348.7,224.8 L353.9,232.5 L359.2,240.9 L364.5,250.0 L369.7,259.7 L375.0,269.7
		L380.2,280.1 L385.5,290.6 L390.8,301.2 L396.0,311.7 L401.3,322.1 L406.6,332.2 L411.8,342.0 L417.1,351.4
		L422.4,360.4 L427.6,368.9 L432.9,376.9 L438.1,384.3 L443.4,391.2 L448.7,397.5 L453.9,403.3 L459.2,408.5
		L464.5,413.2 L469.7,417.5 L475.0,421.2 L480.3,424.6 L485.5,427.5 L490.8,430.1 L496.0,432.3 L501.3,434.2
		L506.6,435.8 L511.8,437.2 L517.1,438.4 L522.4,439.4 L527.6,440.3 L532.9,441.0 L538.2,441.6 L543.4,442.0
		L548.7,442.4 L553.9,442.8 L559.2,443.0 L564.5,443.2 L569.7,443.4 L575.0,443.5  '/></g>
	</g>
	<g id="gnuplot_plot_4" ><title>exp(-x**2)</title>
<g fill="none" color="black" stroke="currentColor" stroke-width="2.00" stroke-linecap="butt" stroke-linejoin="miter">
	<g transform="translate(507.9,93.2)" stroke="none" fill="black" font-family="Alegreya" font-size="12.00"  text-anchor="end">
		<text>exp(-x**2)</text>
	</g>
</g>
<g fill="none" color="black" stroke="currentColor" stroke-width="2.00" stroke-linecap="butt" stroke-linejoin="miter">
	<path stroke='rgb(148,   0, 211)'  d='M516.2,88.7 L558.4,88.7 M53.9,444.0 L59.2,444.0 L64.4,444.0 L69.7,444.0 L75.0,444.0 L80.2,444.0
		L85.5,444.0 L90.7,444.0 L96.0,444.0 L101.3,444.0 L106.5,444.0 L111.8,444.0 L117.1,444.0 L122.3,444.0
		L127.6,444.0 L132.9,444.0 L138.1,444.0 L143.4,444.0 L148.6,444.0 L153.9,444.0 L159.2,443.9 L164.4,443.9
		L169.7,443.8 L175.0,443.7 L180.2,443.4 L185.5,443.1 L190.8,442.5 L196.0,441.6 L201.3,440.2 L206.5,438.1
		L211.8,435.2 L217.1,431.0 L222.3,425.2 L227.6,417.4 L232.9,407.2 L238.1,394.0 L243.4,377.4 L248.7,357.2
		L253.9,333.2 L259.2,305.3 L264.4,273.9 L269.7,239.6 L275.0,203.3 L280.2,166.3 L285.5,130.2 L290.8,96.5
		L296.0,66.9 L301.3,43.1 L306.6,26.4 L311.8,17.8 L317.1,17.8 L322.3,26.4 L327.6,43.1 L332.9,66.9
		L338.1,96.5 L343.4,130.2 L348.7,166.3 L353.9,203.3 L359.2,239.6 L364.5,273.9 L369.7,305.3 L375.0,333.2
		L380.2,357.2 L385.5,377.4 L390.8,394.0 L396.0,407.2 L401.3,417.4 L406.6,425.2 L411.8,431.0 L417.1,435.2
		L422.4,438.1 L427.6,440.2 L432.9,441.6 L438.1,442.5 L443.4,443.1 L448.7,443.4 L453.9,443.7 L459.2,443.8
		L464.5,443.9 L469.7,443.9 L475.0,444.0 L480.3,444.0 L485.5,444.0 L490.8,444.0 L496.0,444.0 L501.3,444.0
		L506.6,444.0 L511.8,444.0 L517.1,444.0 L522.4,444.0 L527.6,444.0 L532.9,444.0 L538.2,444.0 L543.4,444.0
		L548.7,444.0 L553.9,444.0 L559.2,444.0 L564.5,444.0 L569.7,444.0 L575.0,444.0  '/></g>
	</g>
<g fill="none" color="black" stroke="currentColor" stroke-width="2.00" stroke-linecap="butt" stroke-linejoin="miter">
</g>
<g fill="none" color="black" stroke="black" stroke-width="1.00" stroke-linecap="butt" stroke-linejoin="miter">
</g>
<g fill="none" color="black" stroke="currentColor" stroke-width="1.00" stroke-linecap="butt" stroke-linejoin="miter">
	<path stroke='black'  d='M53.9,16.7 L53.9,444.0 L575.0,444.0 L575.0,16.7 L53.9,16.7 Z  '/></g>
<g fill="none" color="black" stroke="currentColor" stroke-width="1.00" stroke-linecap="butt" stroke-linejoin="miter">
</g>
</g>
</svg>

