<?xml version="1.0" encoding="UTF-8" standalone="no"?>
<!-- Created with Inkscape (http://www.inkscape.org/) -->

<svg
   width="193.77699mm"
   height="66.66011mm"
   viewBox="0 0 193.77699 66.66011"
   version="1.1"
   id="svg66023"
   xml:space="preserve"
   inkscape:version="1.2.2 (b0a8486, 2022-12-01)"
   sodipodi:docname="macro-micro.svg"
   xmlns:inkscape="http://www.inkscape.org/namespaces/inkscape"
   xmlns:sodipodi="http://sodipodi.sourceforge.net/DTD/sodipodi-0.dtd"
   xmlns:xlink="http://www.w3.org/1999/xlink"
   xmlns="http://www.w3.org/2000/svg"
   xmlns:svg="http://www.w3.org/2000/svg"><sodipodi:namedview
     id="namedview66025"
     pagecolor="#ffffff"
     bordercolor="#666666"
     borderopacity="1.0"
     inkscape:showpageshadow="2"
     inkscape:pageopacity="0.0"
     inkscape:pagecheckerboard="0"
     inkscape:deskcolor="#d1d1d1"
     inkscape:document-units="mm"
     showgrid="false"
     inkscape:zoom="1.2945161"
     inkscape:cx="530.31399"
     inkscape:cy="72.614006"
     inkscape:window-width="1440"
     inkscape:window-height="878"
     inkscape:window-x="0"
     inkscape:window-y="0"
     inkscape:window-maximized="0"
     inkscape:current-layer="layer1" /><defs
     id="defs66020"><marker
       style="overflow:visible"
       id="Arrow1L"
       refX="0"
       refY="0"
       orient="auto-start-reverse"
       inkscape:stockid="Arrow1L"
       markerWidth="8.75"
       markerHeight="5"
       viewBox="0 0 8.75 5"
       inkscape:isstock="true"
       inkscape:collect="always"
       preserveAspectRatio="xMidYMid"><path
         style="fill:context-stroke;fill-rule:evenodd;stroke:none"
         d="M 0,0 5,-5 -12.5,0 5,5 Z"
         id="arrow1L"
         transform="scale(-0.5)" /></marker><inkscape:perspective
       sodipodi:type="inkscape:persp3d"
       inkscape:vp_x="0 : -81.839893 : 1"
       inkscape:vp_y="0 : 999.99996 : 0"
       inkscape:vp_z="210 : -81.839893 : 1"
       inkscape:persp3d-origin="105 : -131.33989 : 1"
       id="perspective76792" /><marker
       style="overflow:visible"
       id="marker69062"
       refX="0"
       refY="0"
       orient="auto-start-reverse"
       inkscape:stockid="Arrow1L"
       markerWidth="8.75"
       markerHeight="5"
       viewBox="0 0 8.75 5"
       inkscape:isstock="true"
       inkscape:collect="always"
       preserveAspectRatio="xMidYMid"><path
         style="fill:context-stroke;fill-rule:evenodd;stroke:none"
         d="M 0,0 5,-5 -12.5,0 5,5 Z"
         id="path69060"
         transform="scale(-0.5)" /></marker><g
       id="g70298"><symbol
         overflow="visible"
         id="glyph0-0"><path
           style="stroke:none"
           d="M 2.1875,0 H 16.53125 V -16.96875 H 2.1875 Z m 1.796875,-1.796875 v -13.375 h 10.75 v 13.375 z m 0,0"
           id="path70292" /></symbol><symbol
         overflow="visible"
         id="glyph0-1"><path
           style="stroke:none"
           d="m 3.734375,0.5 c 3.6875,0 6.34375,-3.125 6.34375,-4.15625 0,-0.359375 -0.03125,-0.5 -0.328125,-0.5 -0.21875,0 -2.359375,2.109375 -5.484375,2.109375 -1.390625,0 -2.1875,-0.71875 -2.1875,-1.390625 0,-1.015625 1.796875,-2.296875 3.40625,-2.875 0.859375,0 1.46875,-0.03125 2.15625,-0.03125 0.828125,0 2.46875,-1.296875 2.46875,-2.125 0,-0.359375 -0.390625,-0.890625 -1.109375,-0.890625 -1,0 -3.265625,1.109375 -4.15625,1.796875 -0.5,0 -0.75,-0.5 -0.75,-1.046875 0,-2.078125 2.859375,-4.015625 5.59375,-4.015625 0.421875,0 0.8125,0.07813 1.0625,0.07813 0.578125,0 1.234375,-0.75 1.234375,-1.40625 0,-0.46875 -0.65625,-0.890625 -1.4375,-0.890625 -4.484375,0 -8.21875,3.078125 -8.21875,5.84375 0,0.78125 0.6875,1.609375 1.328125,1.96875 0.28125,0.1875 0.109375,0.390625 -0.28125,0.640625 -1.109375,0.71875 -3.046875,2.515625 -3.046875,4.28125 0,1.53125 1.640625,2.609375 3.40625,2.609375 z m 0,0"
           id="path70295" /></symbol></g><clipPath
       id="clip1"><path
         d="M 0.945312,0 H 13 V 16 H 0.945312 Z m 0,0"
         id="path70300" /></clipPath><g
       id="g84828"><symbol
         overflow="visible"
         id="glyph0-0-7"><path
           style="stroke:none"
           d=""
           id="path84783" /></symbol><symbol
         overflow="visible"
         id="glyph0-1-1"><path
           style="stroke:none"
           d="m 25.890625,-15.484375 c 0,-0.796875 -0.25,-1.125 -0.5,-1.125 -0.140625,0 -0.46875,0.15625 -0.5,0.96875 -0.140625,2.984375 -2.65625,4.671875 -4.984375,4.671875 -2.15625,0 -3.875,-1.265625 -5.734375,-2.6875 -1.90625,-1.515625 -3.8125,-2.984375 -6.21875,-2.984375 -3.5,0 -5.984375,3.15625 -5.984375,6.53125 0,1.078125 0.46875,1.109375 0.5,1.109375 0.40625,0 0.5,-0.71875 0.5,-0.828125 0.1875,-3.515625 3.0625,-4.796875 4.984375,-4.796875 2.15625,0 3.875,1.25 5.75,2.6875 1.890625,1.5 3.796875,2.96875 6.203125,2.96875 3.515625,0 5.984375,-3.15625 5.984375,-6.515625 z m -22.625,12.765625 c -0.578125,0 -1.296875,0 -1.296875,0.703125 0,0.71875 0.65625,0.71875 1.265625,0.71875 h 21.40625 c 0.609375,0 1.25,0 1.25,-0.71875 0,-0.703125 -0.6875,-0.703125 -1.296875,-0.703125 z m 0,0"
           id="path84786" /></symbol><symbol
         overflow="visible"
         id="glyph1-0"><path
           style="stroke:none"
           d="m 1.796875,0 h 14.34375 V -16.96875 H 1.796875 Z m 1.78125,-1.796875 v -13.375 H 14.34375 v 13.375 z m 0,0"
           id="path84789" /></symbol><symbol
         overflow="visible"
         id="glyph1-1"><path
           style="stroke:none"
           d="m 1.828125,0.109375 c 1.9375,0 3.046875,-0.1875 4.984375,-0.1875 1.90625,0 2.796875,0.1875 4.84375,0.1875 0.28125,0 0.5,-0.1875 0.5,-0.390625 0,-0.21875 -0.328125,-0.40625 -0.609375,-0.46875 -2.9375,-0.6875 -3.375,-0.90625 -3.375,-2.734375 V -19.96875 c 0,-1.015625 0.046875,-1.828125 0.140625,-2.546875 0.046875,-0.1875 -0.203125,-0.328125 -0.421875,-0.328125 -0.078125,0 -0.140625,0 -0.1875,0.03125 -1.78125,1.4375 -2.828125,1.984375 -4.984375,2.234375 -0.5,0.0625 -0.890625,0.3125 -0.890625,0.640625 0,0.390625 0.46875,0.578125 0.9375,0.609375 1.53125,0.109375 2.609375,0.359375 2.609375,1.71875 V -3.90625 c 0,2.109375 -0.78125,2.546875 -3.546875,3.125 -0.28125,0.0625 -0.53125,0.28125 -0.53125,0.453125 0,0.21875 0.171875,0.4375 0.53125,0.4375 z m 0,0"
           id="path84792" /></symbol><symbol
         overflow="visible"
         id="glyph1-2"><path
           style="stroke:none"
           d="m 8.890625,0.5 c 5.3125,0 7.53125,-6.453125 7.53125,-11.828125 0,-5.203125 -2.296875,-11.265625 -7.171875,-11.265625 -5.3125,0 -7.53125,6.3125 -7.53125,11.765625 C 1.71875,-5.515625 4.015625,0.5 8.890625,0.5 Z M 9.5,-0.4375 c -3.21875,0 -4.796875,-5.65625 -4.796875,-11.03125 0,-5.390625 1,-10.125 3.875,-10.125 3.21875,0 4.90625,5.53125 4.90625,10.90625 0,5.375 -1.109375,10.25 -3.984375,10.25 z m 0,0"
           id="path84795" /></symbol><symbol
         overflow="visible"
         id="glyph1-3"><path
           style="stroke:none"
           d="m 8.5,7.671875 c 0.46875,0 0.96875,-0.28125 0.96875,-0.78125 0,-0.078125 -0.5,-0.609375 -0.546875,-0.6875 -2.1875,-2.546875 -4.515625,-10.1875 -4.515625,-16.28125 0,-6.09375 2.4375,-11.40625 4.625,-13.953125 0.078125,-0.0625 0.46875,-0.609375 0.46875,-0.671875 0,-0.328125 -0.53125,-0.578125 -0.78125,-0.578125 -0.359375,0 -0.765625,0.1875 -0.96875,0.390625 -2.546875,2.546875 -6.3125,9.140625 -6.3125,15.25 0,6.09375 3.90625,14.515625 6.453125,17.0625 0.171875,0.1875 0.390625,0.25 0.609375,0.25 z m 0,0"
           id="path84798" /></symbol><symbol
         overflow="visible"
         id="glyph1-4"><path
           style="stroke:none"
           d="m 2.796875,7.671875 c 0.21875,0 0.4375,-0.0625 0.609375,-0.25 2.546875,-2.546875 6.453125,-10.96875 6.453125,-17.0625 0,-6.109375 -3.765625,-12.703125 -6.3125,-15.25 -0.21875,-0.203125 -0.609375,-0.390625 -0.96875,-0.390625 -0.25,0 -0.78125,0.25 -0.78125,0.578125 0,0.0625 0.390625,0.609375 0.46875,0.671875 2.1875,2.546875 4.625,7.859375 4.625,13.953125 0,6.09375 -2.34375,13.734375 -4.53125,16.28125 -0.03125,0.078125 -0.53125,0.609375 -0.53125,0.6875 0,0.5 0.5,0.78125 0.96875,0.78125 z m 0,0"
           id="path84801" /></symbol><symbol
         overflow="visible"
         id="glyph2-0"><path
           style="stroke:none"
           d=""
           id="path84804" /></symbol><symbol
         overflow="visible"
         id="glyph2-1"><path
           style="stroke:none"
           d="m 18.6875,-5.671875 c 0.390625,0 1,0 1,-0.609375 0,-0.625 -0.578125,-0.625 -1,-0.625 H 3.71875 c -0.40625,0 -1,0 -1,0.609375 0,0.625 0.578125,0.625 1,0.625 z m 0,0"
           id="path84807" /></symbol><symbol
         overflow="visible"
         id="glyph3-0"><path
           style="stroke:none"
           d="M 1.25,0 H 11.296875 V -11.875 H 1.25 Z m 1.265625,-1.25 v -9.375 h 7.53125 v 9.375 z m 0,0"
           id="path84810" /></symbol><symbol
         overflow="visible"
         id="glyph3-1"><path
           style="stroke:none"
           d="m 1.28125,0.078125 c 1.359375,0 2.140625,-0.125 3.484375,-0.125 1.328125,0 1.96875,0.125 3.390625,0.125 0.203125,0 0.359375,-0.125 0.359375,-0.28125 0,-0.140625 -0.234375,-0.28125 -0.4375,-0.328125 C 6.03125,-1 5.71875,-1.15625 5.71875,-2.4375 v -11.546875 c 0,-0.703125 0.03125,-1.28125 0.109375,-1.78125 C 5.84375,-15.890625 5.671875,-16 5.53125,-16 c -0.0625,0 -0.109375,0 -0.125,0.03125 -1.265625,1 -1.984375,1.375 -3.5,1.5625 -0.34375,0.04687 -0.625,0.21875 -0.625,0.453125 0,0.265625 0.328125,0.390625 0.65625,0.421875 1.078125,0.07813 1.828125,0.25 1.828125,1.203125 v 9.59375 c 0,1.484375 -0.546875,1.78125 -2.484375,2.1875 -0.203125,0.046875 -0.375,0.203125 -0.375,0.328125 0,0.140625 0.125,0.296875 0.375,0.296875 z m 0,0"
           id="path84813" /></symbol><symbol
         overflow="visible"
         id="glyph3-2"><path
           style="stroke:none"
           d="M 6.234375,0.34375 C 9.9375,0.34375 11.5,-4.171875 11.5,-7.9375 c 0,-3.640625 -1.609375,-7.875 -5.015625,-7.875 -3.71875,0 -5.28125,4.40625 -5.28125,8.234375 0,3.71875 1.609375,7.921875 5.03125,7.921875 z M 6.65625,-0.296875 c -2.265625,0 -3.359375,-3.96875 -3.359375,-7.734375 0,-3.765625 0.703125,-7.078125 2.703125,-7.078125 2.265625,0 3.4375,3.859375 3.4375,7.625 0,3.765625 -0.78125,7.1875 -2.78125,7.1875 z m 0,0"
           id="path84816" /></symbol><symbol
         overflow="visible"
         id="glyph4-0"><path
           style="stroke:none"
           d="M 2.1875,0 H 16.53125 V -16.96875 H 2.1875 Z m 1.796875,-1.796875 v -13.375 h 10.75 v 13.375 z m 0,0"
           id="path84819" /></symbol><symbol
         overflow="visible"
         id="glyph4-1"><path
           style="stroke:none"
           d="m -0.28125,0.171875 c 1.78125,0 2.546875,-0.203125 4.296875,-0.203125 3.328125,0 7.75,0.203125 12.65625,0.203125 0.578125,0 0.90625,-0.28125 1.1875,-0.75 C 18.359375,-1.40625 19.25,-3.4375 19.25,-4.09375 19.25,-4.375 19.21875,-4.8125 19,-4.8125 c -0.28125,0 -0.453125,0.359375 -0.640625,0.65625 -0.609375,1 -1.21875,1.75 -1.9375,2.25 -0.75,0.546875 -1.6875,0.96875 -2.859375,0.96875 H 8 c -1.515625,0 -1.90625,-0.53125 -1.21875,-2.96875 l 1.828125,-6.53125 c 0.28125,-1.03125 0.890625,-1.109375 1.71875,-1.109375 l 4.125,0.07813 c 0.828125,0 1.359375,0.53125 1.359375,2 0,0.25 0.07813,0.96875 0.46875,0.96875 0.25,0 0.390625,-0.421875 0.46875,-0.75 0.21875,-1.046875 0.421875,-1.828125 0.71875,-2.625 0.25,-0.671875 0.53125,-1.359375 0.96875,-2.1875 0.25,-0.5 0.203125,-1 -0.15625,-1 -0.421875,0 -0.859375,0.71875 -1.171875,1.109375 -0.578125,0.71875 -1.265625,1.296875 -2.484375,1.328125 l -4.4375,0.109375 c -0.75,0.03125 -0.859375,-0.25 -0.578125,-1.109375 l 2.40625,-7.609375 c 0.25,-0.78125 0.609375,-1.0625 1.75,-1.0625 h 4.375 c 1.90625,0 2.265625,0.703125 2.125,2.890625 -0.04687,0.546875 0.140625,0.90625 0.390625,0.90625 0.21875,0 0.53125,-0.1875 0.609375,-0.6875 0.28125,-2.078125 1.078125,-3.578125 1.078125,-4.015625 0,-0.171875 -0.21875,-0.46875 -0.390625,-0.46875 -0.1875,0 -1.015625,0.359375 -4.921875,0.359375 h -5.765625 c -1.515625,0 -3.8125,-0.109375 -4.34375,-0.109375 -0.578125,0 -1.109375,0.109375 -1.109375,0.40625 0,0.3125 0.21875,0.5 0.921875,0.609375 2.125,0.28125 2.65625,0.671875 2.015625,2.71875 L 3.84375,-3.546875 C 3.328125,-1.9375 2.515625,-1.25 0.140625,-0.859375 c -0.828125,0.140625 -1.28125,0.328125 -1.28125,0.640625 0,0.296875 0.28125,0.390625 0.859375,0.390625 z m 0,0"
           id="path84822" /></symbol><symbol
         overflow="visible"
         id="glyph4-2"><path
           style="stroke:none"
           d="m 10.796875,0.5 c 6.421875,0 9.25,-4.046875 11.25,-9.609375 1.1875,-3.296875 2.1875,-6.375 3.203125,-9.03125 1.359375,-3.65625 1.859375,-3.875 3.046875,-4.15625 0.828125,-0.1875 1.328125,-0.40625 1.359375,-0.71875 0.03125,-0.296875 -0.28125,-0.40625 -0.859375,-0.40625 -0.75,0 -1.65625,0.109375 -2.734375,0.109375 -0.96875,0 -2.640625,-0.03125 -3.65625,-0.03125 -0.5625,0 -1.109375,0.109375 -1.109375,0.390625 0,0.328125 0.5,0.546875 0.9375,0.65625 1.71875,0.453125 2.328125,1.03125 0.9375,5.296875 -0.46875,1.4375 -1.515625,4.671875 -2.296875,7.359375 C 19.546875,-5.125 17,-0.9375 11.765625,-0.9375 8.25,-0.9375 5.453125,-3.234375 7.03125,-8.53125 L 10.1875,-19.1875 c 0.5625,-1.96875 1.609375,-2.859375 2.359375,-3.078125 0.828125,-0.25 1.296875,-0.390625 1.328125,-0.71875 0.03125,-0.28125 -0.25,-0.390625 -0.828125,-0.390625 -0.71875,0 -1.640625,0.0625 -2.6875,0.0625 -1.25,0 -2.1875,-0.109375 -3.1875,-0.109375 -0.578125,0 -1.359375,0.109375 -1.359375,0.40625 0,0.3125 0.390625,0.5625 1.109375,0.78125 0.6875,0.21875 1.25,0.890625 0.71875,2.625 L 4.40625,-9 c -2.046875,6.671875 1.765625,9.5 6.390625,9.5 z m 0,0"
           id="path84825" /></symbol></g><g
       id="g84947"><symbol
         overflow="visible"
         id="glyph0-0-9"><path
           style="stroke:none"
           d="M 2.1875,0 H 16.53125 V -16.96875 H 2.1875 Z m 1.796875,-1.796875 v -13.375 h 10.75 v 13.375 z m 0,0"
           id="path84929" /></symbol><symbol
         overflow="visible"
         id="glyph0-1-3"><path
           style="stroke:none"
           d="m -0.28125,0.171875 c 1.78125,0 2.546875,-0.203125 4.296875,-0.203125 3.328125,0 7.75,0.203125 12.65625,0.203125 0.578125,0 0.90625,-0.28125 1.1875,-0.75 C 18.359375,-1.40625 19.25,-3.4375 19.25,-4.09375 19.25,-4.375 19.21875,-4.8125 19,-4.8125 c -0.28125,0 -0.453125,0.359375 -0.640625,0.65625 -0.609375,1 -1.21875,1.75 -1.9375,2.25 -0.75,0.546875 -1.6875,0.96875 -2.859375,0.96875 H 8 c -1.515625,0 -1.90625,-0.53125 -1.21875,-2.96875 l 1.828125,-6.53125 c 0.28125,-1.03125 0.890625,-1.109375 1.71875,-1.109375 l 4.125,0.07813 c 0.828125,0 1.359375,0.53125 1.359375,2 0,0.25 0.07813,0.96875 0.46875,0.96875 0.25,0 0.390625,-0.421875 0.46875,-0.75 0.21875,-1.046875 0.421875,-1.828125 0.71875,-2.625 0.25,-0.671875 0.53125,-1.359375 0.96875,-2.1875 0.25,-0.5 0.203125,-1 -0.15625,-1 -0.421875,0 -0.859375,0.71875 -1.171875,1.109375 -0.578125,0.71875 -1.265625,1.296875 -2.484375,1.328125 l -4.4375,0.109375 c -0.75,0.03125 -0.859375,-0.25 -0.578125,-1.109375 l 2.40625,-7.609375 c 0.25,-0.78125 0.609375,-1.0625 1.75,-1.0625 h 4.375 c 1.90625,0 2.265625,0.703125 2.125,2.890625 -0.04687,0.546875 0.140625,0.90625 0.390625,0.90625 0.21875,0 0.53125,-0.1875 0.609375,-0.6875 0.28125,-2.078125 1.078125,-3.578125 1.078125,-4.015625 0,-0.171875 -0.21875,-0.46875 -0.390625,-0.46875 -0.1875,0 -1.015625,0.359375 -4.921875,0.359375 h -5.765625 c -1.515625,0 -3.8125,-0.109375 -4.34375,-0.109375 -0.578125,0 -1.109375,0.109375 -1.109375,0.40625 0,0.3125 0.21875,0.5 0.921875,0.609375 2.125,0.28125 2.65625,0.671875 2.015625,2.71875 L 3.84375,-3.546875 C 3.328125,-1.9375 2.515625,-1.25 0.140625,-0.859375 c -0.828125,0.140625 -1.28125,0.328125 -1.28125,0.640625 0,0.296875 0.28125,0.390625 0.859375,0.390625 z m 0,0"
           id="path84932" /></symbol><symbol
         overflow="visible"
         id="glyph0-2"><path
           style="stroke:none"
           d="m 10.796875,0.5 c 6.421875,0 9.25,-4.046875 11.25,-9.609375 1.1875,-3.296875 2.1875,-6.375 3.203125,-9.03125 1.359375,-3.65625 1.859375,-3.875 3.046875,-4.15625 0.828125,-0.1875 1.328125,-0.40625 1.359375,-0.71875 0.03125,-0.296875 -0.28125,-0.40625 -0.859375,-0.40625 -0.75,0 -1.65625,0.109375 -2.734375,0.109375 -0.96875,0 -2.640625,-0.03125 -3.65625,-0.03125 -0.5625,0 -1.109375,0.109375 -1.109375,0.390625 0,0.328125 0.5,0.546875 0.9375,0.65625 1.71875,0.453125 2.328125,1.03125 0.9375,5.296875 -0.46875,1.4375 -1.515625,4.671875 -2.296875,7.359375 C 19.546875,-5.125 17,-0.9375 11.765625,-0.9375 8.25,-0.9375 5.453125,-3.234375 7.03125,-8.53125 L 10.1875,-19.1875 c 0.5625,-1.96875 1.609375,-2.859375 2.359375,-3.078125 0.828125,-0.25 1.296875,-0.390625 1.328125,-0.71875 0.03125,-0.28125 -0.25,-0.390625 -0.828125,-0.390625 -0.71875,0 -1.640625,0.0625 -2.6875,0.0625 -1.25,0 -2.1875,-0.109375 -3.1875,-0.109375 -0.578125,0 -1.359375,0.109375 -1.359375,0.40625 0,0.3125 0.390625,0.5625 1.109375,0.78125 0.6875,0.21875 1.25,0.890625 0.71875,2.625 L 4.40625,-9 c -2.046875,6.671875 1.765625,9.5 6.390625,9.5 z m 0,0"
           id="path84935" /></symbol><symbol
         overflow="visible"
         id="glyph1-0-1"><path
           style="stroke:none"
           d="m 1.796875,0 h 14.34375 V -16.96875 H 1.796875 Z m 1.78125,-1.796875 v -13.375 H 14.34375 v 13.375 z m 0,0"
           id="path84938" /></symbol><symbol
         overflow="visible"
         id="glyph1-1-8"><path
           style="stroke:none"
           d="m 8.5,7.671875 c 0.46875,0 0.96875,-0.28125 0.96875,-0.78125 0,-0.078125 -0.5,-0.609375 -0.546875,-0.6875 -2.1875,-2.546875 -4.515625,-10.1875 -4.515625,-16.28125 0,-6.09375 2.4375,-11.40625 4.625,-13.953125 0.078125,-0.0625 0.46875,-0.609375 0.46875,-0.671875 0,-0.328125 -0.53125,-0.578125 -0.78125,-0.578125 -0.359375,0 -0.765625,0.1875 -0.96875,0.390625 -2.546875,2.546875 -6.3125,9.140625 -6.3125,15.25 0,6.09375 3.90625,14.515625 6.453125,17.0625 0.171875,0.1875 0.390625,0.25 0.609375,0.25 z m 0,0"
           id="path84941" /></symbol><symbol
         overflow="visible"
         id="glyph1-2-6"><path
           style="stroke:none"
           d="m 2.796875,7.671875 c 0.21875,0 0.4375,-0.0625 0.609375,-0.25 2.546875,-2.546875 6.453125,-10.96875 6.453125,-17.0625 0,-6.109375 -3.765625,-12.703125 -6.3125,-15.25 -0.21875,-0.203125 -0.609375,-0.390625 -0.96875,-0.390625 -0.25,0 -0.78125,0.25 -0.78125,0.578125 0,0.0625 0.390625,0.609375 0.46875,0.671875 2.1875,2.546875 4.625,7.859375 4.625,13.953125 0,6.09375 -2.34375,13.734375 -4.53125,16.28125 -0.03125,0.078125 -0.53125,0.609375 -0.53125,0.6875 0,0.5 0.5,0.78125 0.96875,0.78125 z m 0,0"
           id="path84944" /></symbol></g><g
       id="g85018"><symbol
         overflow="visible"
         id="glyph0-0-4"><path
           style="stroke:none"
           d="M 2.1875,0 H 16.53125 V -16.96875 H 2.1875 Z m 1.796875,-1.796875 v -13.375 h 10.75 v 13.375 z m 0,0"
           id="path85000" /></symbol><symbol
         overflow="visible"
         id="glyph0-1-34"><path
           style="stroke:none"
           d="m -0.28125,0.171875 c 1.78125,0 2.546875,-0.203125 4.296875,-0.203125 3.328125,0 7.75,0.203125 12.65625,0.203125 0.578125,0 0.90625,-0.28125 1.1875,-0.75 C 18.359375,-1.40625 19.25,-3.4375 19.25,-4.09375 19.25,-4.375 19.21875,-4.8125 19,-4.8125 c -0.28125,0 -0.453125,0.359375 -0.640625,0.65625 -0.609375,1 -1.21875,1.75 -1.9375,2.25 -0.75,0.546875 -1.6875,0.96875 -2.859375,0.96875 H 8 c -1.515625,0 -1.90625,-0.53125 -1.21875,-2.96875 l 1.828125,-6.53125 c 0.28125,-1.03125 0.890625,-1.109375 1.71875,-1.109375 l 4.125,0.07813 c 0.828125,0 1.359375,0.53125 1.359375,2 0,0.25 0.07813,0.96875 0.46875,0.96875 0.25,0 0.390625,-0.421875 0.46875,-0.75 0.21875,-1.046875 0.421875,-1.828125 0.71875,-2.625 0.25,-0.671875 0.53125,-1.359375 0.96875,-2.1875 0.25,-0.5 0.203125,-1 -0.15625,-1 -0.421875,0 -0.859375,0.71875 -1.171875,1.109375 -0.578125,0.71875 -1.265625,1.296875 -2.484375,1.328125 l -4.4375,0.109375 c -0.75,0.03125 -0.859375,-0.25 -0.578125,-1.109375 l 2.40625,-7.609375 c 0.25,-0.78125 0.609375,-1.0625 1.75,-1.0625 h 4.375 c 1.90625,0 2.265625,0.703125 2.125,2.890625 -0.04687,0.546875 0.140625,0.90625 0.390625,0.90625 0.21875,0 0.53125,-0.1875 0.609375,-0.6875 0.28125,-2.078125 1.078125,-3.578125 1.078125,-4.015625 0,-0.171875 -0.21875,-0.46875 -0.390625,-0.46875 -0.1875,0 -1.015625,0.359375 -4.921875,0.359375 h -5.765625 c -1.515625,0 -3.8125,-0.109375 -4.34375,-0.109375 -0.578125,0 -1.109375,0.109375 -1.109375,0.40625 0,0.3125 0.21875,0.5 0.921875,0.609375 2.125,0.28125 2.65625,0.671875 2.015625,2.71875 L 3.84375,-3.546875 C 3.328125,-1.9375 2.515625,-1.25 0.140625,-0.859375 c -0.828125,0.140625 -1.28125,0.328125 -1.28125,0.640625 0,0.296875 0.28125,0.390625 0.859375,0.390625 z m 0,0"
           id="path85003" /></symbol><symbol
         overflow="visible"
         id="glyph0-2-7"><path
           style="stroke:none"
           d="m 3.734375,0.5 c 3.6875,0 6.34375,-3.125 6.34375,-4.15625 0,-0.359375 -0.03125,-0.5 -0.328125,-0.5 -0.21875,0 -2.359375,2.109375 -5.484375,2.109375 -1.390625,0 -2.1875,-0.71875 -2.1875,-1.390625 0,-1.015625 1.796875,-2.296875 3.40625,-2.875 0.859375,0 1.46875,-0.03125 2.15625,-0.03125 0.828125,0 2.46875,-1.296875 2.46875,-2.125 0,-0.359375 -0.390625,-0.890625 -1.109375,-0.890625 -1,0 -3.265625,1.109375 -4.15625,1.796875 -0.5,0 -0.75,-0.5 -0.75,-1.046875 0,-2.078125 2.859375,-4.015625 5.59375,-4.015625 0.421875,0 0.8125,0.07813 1.0625,0.07813 0.578125,0 1.234375,-0.75 1.234375,-1.40625 0,-0.46875 -0.65625,-0.890625 -1.4375,-0.890625 -4.484375,0 -8.21875,3.078125 -8.21875,5.84375 0,0.78125 0.6875,1.609375 1.328125,1.96875 0.28125,0.1875 0.109375,0.390625 -0.28125,0.640625 -1.109375,0.71875 -3.046875,2.515625 -3.046875,4.28125 0,1.53125 1.640625,2.609375 3.40625,2.609375 z m 0,0"
           id="path85006" /></symbol><symbol
         overflow="visible"
         id="glyph1-0-4"><path
           style="stroke:none"
           d="m 1.796875,0 h 14.34375 V -16.96875 H 1.796875 Z m 1.78125,-1.796875 v -13.375 H 14.34375 v 13.375 z m 0,0"
           id="path85009" /></symbol><symbol
         overflow="visible"
         id="glyph1-1-5"><path
           style="stroke:none"
           d="m 8.5,7.671875 c 0.46875,0 0.96875,-0.28125 0.96875,-0.78125 0,-0.078125 -0.5,-0.609375 -0.546875,-0.6875 -2.1875,-2.546875 -4.515625,-10.1875 -4.515625,-16.28125 0,-6.09375 2.4375,-11.40625 4.625,-13.953125 0.078125,-0.0625 0.46875,-0.609375 0.46875,-0.671875 0,-0.328125 -0.53125,-0.578125 -0.78125,-0.578125 -0.359375,0 -0.765625,0.1875 -0.96875,0.390625 -2.546875,2.546875 -6.3125,9.140625 -6.3125,15.25 0,6.09375 3.90625,14.515625 6.453125,17.0625 0.171875,0.1875 0.390625,0.25 0.609375,0.25 z m 0,0"
           id="path85012" /></symbol><symbol
         overflow="visible"
         id="glyph1-2-3"><path
           style="stroke:none"
           d="m 2.796875,7.671875 c 0.21875,0 0.4375,-0.0625 0.609375,-0.25 2.546875,-2.546875 6.453125,-10.96875 6.453125,-17.0625 0,-6.109375 -3.765625,-12.703125 -6.3125,-15.25 -0.21875,-0.203125 -0.609375,-0.390625 -0.96875,-0.390625 -0.25,0 -0.78125,0.25 -0.78125,0.578125 0,0.0625 0.390625,0.609375 0.46875,0.671875 2.1875,2.546875 4.625,7.859375 4.625,13.953125 0,6.09375 -2.34375,13.734375 -4.53125,16.28125 -0.03125,0.078125 -0.53125,0.609375 -0.53125,0.6875 0,0.5 0.5,0.78125 0.96875,0.78125 z m 0,0"
           id="path85015" /></symbol></g><g
       id="g86640"><symbol
         overflow="visible"
         id="glyph0-0-6"><path
           style="stroke:none"
           d="M 2.1875,0 H 16.53125 V -16.96875 H 2.1875 Z m 1.796875,-1.796875 v -13.375 h 10.75 v 13.375 z m 0,0"
           id="path86622" /></symbol><symbol
         overflow="visible"
         id="glyph0-1-8"><path
           style="stroke:none"
           d="m -0.28125,0.171875 c 1.78125,0 2.546875,-0.203125 4.296875,-0.203125 3.328125,0 7.75,0.203125 12.65625,0.203125 0.578125,0 0.90625,-0.28125 1.1875,-0.75 C 18.359375,-1.40625 19.25,-3.4375 19.25,-4.09375 19.25,-4.375 19.21875,-4.8125 19,-4.8125 c -0.28125,0 -0.453125,0.359375 -0.640625,0.65625 -0.609375,1 -1.21875,1.75 -1.9375,2.25 -0.75,0.546875 -1.6875,0.96875 -2.859375,0.96875 H 8 c -1.515625,0 -1.90625,-0.53125 -1.21875,-2.96875 l 1.828125,-6.53125 c 0.28125,-1.03125 0.890625,-1.109375 1.71875,-1.109375 l 4.125,0.07813 c 0.828125,0 1.359375,0.53125 1.359375,2 0,0.25 0.07813,0.96875 0.46875,0.96875 0.25,0 0.390625,-0.421875 0.46875,-0.75 0.21875,-1.046875 0.421875,-1.828125 0.71875,-2.625 0.25,-0.671875 0.53125,-1.359375 0.96875,-2.1875 0.25,-0.5 0.203125,-1 -0.15625,-1 -0.421875,0 -0.859375,0.71875 -1.171875,1.109375 -0.578125,0.71875 -1.265625,1.296875 -2.484375,1.328125 l -4.4375,0.109375 c -0.75,0.03125 -0.859375,-0.25 -0.578125,-1.109375 l 2.40625,-7.609375 c 0.25,-0.78125 0.609375,-1.0625 1.75,-1.0625 h 4.375 c 1.90625,0 2.265625,0.703125 2.125,2.890625 -0.04687,0.546875 0.140625,0.90625 0.390625,0.90625 0.21875,0 0.53125,-0.1875 0.609375,-0.6875 0.28125,-2.078125 1.078125,-3.578125 1.078125,-4.015625 0,-0.171875 -0.21875,-0.46875 -0.390625,-0.46875 -0.1875,0 -1.015625,0.359375 -4.921875,0.359375 h -5.765625 c -1.515625,0 -3.8125,-0.109375 -4.34375,-0.109375 -0.578125,0 -1.109375,0.109375 -1.109375,0.40625 0,0.3125 0.21875,0.5 0.921875,0.609375 2.125,0.28125 2.65625,0.671875 2.015625,2.71875 L 3.84375,-3.546875 C 3.328125,-1.9375 2.515625,-1.25 0.140625,-0.859375 c -0.828125,0.140625 -1.28125,0.328125 -1.28125,0.640625 0,0.296875 0.28125,0.390625 0.859375,0.390625 z m 0,0"
           id="path86625" /></symbol><symbol
         overflow="visible"
         id="glyph0-2-4"><path
           style="stroke:none"
           d="m 10.796875,0.5 c 6.421875,0 9.25,-4.046875 11.25,-9.609375 1.1875,-3.296875 2.1875,-6.375 3.203125,-9.03125 1.359375,-3.65625 1.859375,-3.875 3.046875,-4.15625 0.828125,-0.1875 1.328125,-0.40625 1.359375,-0.71875 0.03125,-0.296875 -0.28125,-0.40625 -0.859375,-0.40625 -0.75,0 -1.65625,0.109375 -2.734375,0.109375 -0.96875,0 -2.640625,-0.03125 -3.65625,-0.03125 -0.5625,0 -1.109375,0.109375 -1.109375,0.390625 0,0.328125 0.5,0.546875 0.9375,0.65625 1.71875,0.453125 2.328125,1.03125 0.9375,5.296875 -0.46875,1.4375 -1.515625,4.671875 -2.296875,7.359375 C 19.546875,-5.125 17,-0.9375 11.765625,-0.9375 8.25,-0.9375 5.453125,-3.234375 7.03125,-8.53125 L 10.1875,-19.1875 c 0.5625,-1.96875 1.609375,-2.859375 2.359375,-3.078125 0.828125,-0.25 1.296875,-0.390625 1.328125,-0.71875 0.03125,-0.28125 -0.25,-0.390625 -0.828125,-0.390625 -0.71875,0 -1.640625,0.0625 -2.6875,0.0625 -1.25,0 -2.1875,-0.109375 -3.1875,-0.109375 -0.578125,0 -1.359375,0.109375 -1.359375,0.40625 0,0.3125 0.390625,0.5625 1.109375,0.78125 0.6875,0.21875 1.25,0.890625 0.71875,2.625 L 4.40625,-9 c -2.046875,6.671875 1.765625,9.5 6.390625,9.5 z m 0,0"
           id="path86628" /></symbol><symbol
         overflow="visible"
         id="glyph1-0-0"><path
           style="stroke:none"
           d="m 1.796875,0 h 14.34375 V -16.96875 H 1.796875 Z m 1.78125,-1.796875 v -13.375 H 14.34375 v 13.375 z m 0,0"
           id="path86631" /></symbol><symbol
         overflow="visible"
         id="glyph1-1-53"><path
           style="stroke:none"
           d="m 8.5,7.671875 c 0.46875,0 0.96875,-0.28125 0.96875,-0.78125 0,-0.078125 -0.5,-0.609375 -0.546875,-0.6875 -2.1875,-2.546875 -4.515625,-10.1875 -4.515625,-16.28125 0,-6.09375 2.4375,-11.40625 4.625,-13.953125 0.078125,-0.0625 0.46875,-0.609375 0.46875,-0.671875 0,-0.328125 -0.53125,-0.578125 -0.78125,-0.578125 -0.359375,0 -0.765625,0.1875 -0.96875,0.390625 -2.546875,2.546875 -6.3125,9.140625 -6.3125,15.25 0,6.09375 3.90625,14.515625 6.453125,17.0625 0.171875,0.1875 0.390625,0.25 0.609375,0.25 z m 0,0"
           id="path86634" /></symbol><symbol
         overflow="visible"
         id="glyph1-2-5"><path
           style="stroke:none"
           d="m 2.796875,7.671875 c 0.21875,0 0.4375,-0.0625 0.609375,-0.25 2.546875,-2.546875 6.453125,-10.96875 6.453125,-17.0625 0,-6.109375 -3.765625,-12.703125 -6.3125,-15.25 -0.21875,-0.203125 -0.609375,-0.390625 -0.96875,-0.390625 -0.25,0 -0.78125,0.25 -0.78125,0.578125 0,0.0625 0.390625,0.609375 0.46875,0.671875 2.1875,2.546875 4.625,7.859375 4.625,13.953125 0,6.09375 -2.34375,13.734375 -4.53125,16.28125 -0.03125,0.078125 -0.53125,0.609375 -0.53125,0.6875 0,0.5 0.5,0.78125 0.96875,0.78125 z m 0,0"
           id="path86637" /></symbol></g></defs><g
     inkscape:label="Layer 1"
     inkscape:groupmode="layer"
     id="layer1"
     transform="translate(-28.061805,-34.291799)"><rect
       style="fill:#de87aa;fill-opacity:1;stroke:#333333;stroke-width:0.484723;stroke-linecap:round;stroke-linejoin:round;stroke-miterlimit:4;stroke-dasharray:none;stroke-dashoffset:0;stroke-opacity:1;paint-order:stroke markers fill;stop-color:#000000"
       id="rect78365"
       width="76.20636"
       height="19.17906"
       x="138.63644"
       y="80.267937" /><path
       id="path69120"
       style="fill:#de87aa;stroke:#333333;stroke-width:0.264583px;stroke-linecap:butt;stroke-linejoin:miter;stroke-opacity:1"
       d="M 41.589708,98.291223 V 56.612089 l 1.84515,-0.03966 -0.0438,35.241385 1.40265,-0.04383 0.0438,-6.574885 1.09581,0.04383 -0.13149,-16.700209 1.57797,0.04383 v -3.681933 l 0.96432,-0.04383 V 48.463399 l 1.44647,-0.04383 0.1315,9.248672 1.05198,0.04383 -0.0438,11.045807 1.05198,-0.04383 0.0877,-3.243609 h 1.18348 l -0.0877,10.037659 h 0.92049 l -0.1315,13.588095 1.00815,0.04383 -0.0438,-2.980616 1.22731,-0.04383 V 71.913824 h 1.05198 l -0.0438,-3.287442 1.31498,-0.04383 0.0877,5.785901 1.09581,0.04383 -0.0438,-16.261884 1.27115,-0.04383 0.0438,30.682801 h 0.92048 l -0.0438,4.251758 h 1.05198 l -0.13149,-30.02531 1.84097,-0.04383 v 23.18743 h 1.57797 l -0.0877,-35.109888 1.4903,-0.04383 0.0877,16.963205 h 0.78899 v 12.492281 h 1.09581 V 55.65194 l 1.8848,-0.08766 0.0438,37.433014 h 1.35881 l -0.13149,-34.759228 1.40264,-0.04383 0.0877,16.524877 h 1.22731 l -0.0877,-28.447338 1.49031,0.04383 0.0438,31.208789 h 1.35881 l -0.1315,-29.060994 1.35881,0.04383 0.0877,46.506357 h 1.402641 v -7.889862 l 0.65749,0.04383 -0.0877,-2.71762 h 0.65749 l -0.0438,-22.617605 0.87665,-0.04383 -0.1315,-10.212988 h 1.22732 l -0.0877,41.027286 h 0.87665 l 0.0877,-55.053708 h 1.22731 l -0.0438,47.163844 1.18348,-0.04383 0.0876,-34.978391 h 1.7533 l 0.0438,37.959006 1.09581,-0.04383 0.0438,5.435239 1.13965,0.04383 -0.1315,-26.869365 1.27115,0.04383 0.0877,-12.316952 h 1.22731 l -0.0877,33.312753 h 1.22731 l 0.0438,-28.14051 h 1.40265 v 18.365847 l 1.40264,-0.04383 -0.21917,-28.841832 h 1.577977 l -0.0877,22.83677 h 1.227304 l 0.13149,22.091615 h 1.18348 l 0.1315,-35.022224 h 1.27115 l 0.17533,29.762316 h 0.87665 l -0.0438,-41.027286 h 1.44648 l -0.0438,19.154833 h 1.05198 l 2e-5,16.130383 h 1.13958 l -0.0438,-21.653288 0.96432,-0.04383 -0.0877,-9.161008 1.27115,-0.04383 0.0438,37.783675 1.49031,-0.04383 V 65.514271 l 1.31497,-0.04383 0.0625,32.820782 z"
       sodipodi:nodetypes="ccccccccccccccccccccccccccccccccccccccccccccccccccccccccccccccccccccccccccccccccccccccccccccccccccccccccccccccccccccccc" /><path
       style="fill:none;stroke:#4d4d4d;stroke-width:0.5;stroke-linecap:round;stroke-linejoin:round;stroke-dasharray:none;stroke-opacity:1;marker-end:url(#marker69062)"
       d="M 41.724418,98.61518 V 40.046609"
       id="path69058"
       sodipodi:nodetypes="cc" /><path
       style="fill:none;stroke:#4d4d4d;stroke-width:0.5;stroke-linecap:round;stroke-linejoin:round;stroke-dasharray:none;stroke-opacity:1;marker-end:url(#marker69062)"
       d="M 41.724418,98.61518 H 120.59306"
       id="path69112"
       sodipodi:nodetypes="cc" /><path
       style="fill:none;stroke:#ffcc00;stroke-width:0.5;stroke-linecap:round;stroke-linejoin:round;stroke-dasharray:none;stroke-dashoffset:0;stroke-opacity:1"
       d="M 41.724418,70.569344 H 113.5779"
       id="path69123"
       sodipodi:nodetypes="cc" /><text
       xml:space="preserve"
       style="font-size:5.29167px;line-height:0.65;font-family:'EB Garamond';-inkscape-font-specification:'EB Garamond, Normal';text-align:end;letter-spacing:0.396875px;word-spacing:0px;text-anchor:end;stroke-width:0.264583"
       x="26.680044"
       y="43.0201"
       id="text71473"><tspan
         sodipodi:role="line"
         id="tspan71471"
         style="stroke-width:0.264583"
         x="26.680044"
         y="43.0201" /></text><text
       xml:space="preserve"
       style="font-size:5.29167px;line-height:0.65;font-family:'EB Garamond';-inkscape-font-specification:'EB Garamond, Normal';text-align:end;letter-spacing:0.396875px;word-spacing:0px;text-anchor:end;stroke-width:0.264583"
       x="39.083981"
       y="40.008923"
       id="text71485"><tspan
         sodipodi:role="line"
         id="tspan71483"
         style="stroke-width:0.264583"
         x="39.480854"
         y="40.008923"><tspan
           style="font-size:4.23333px"
           id="tspan71481">𝜀</tspan></tspan></text><text
       xml:space="preserve"
       style="font-size:5.29167px;line-height:0.65;font-family:'EB Garamond';-inkscape-font-specification:'EB Garamond, Normal';text-align:end;letter-spacing:0.396875px;word-spacing:0px;text-anchor:end;stroke-width:0.264583"
       x="39.052826"
       y="96.483444"
       id="text72259"><tspan
         sodipodi:role="line"
         id="tspan72257"
         style="stroke-width:0.264583"
         x="39.449699"
         y="96.483444">0</tspan></text><text
       xml:space="preserve"
       style="font-size:5.29167px;line-height:0.65;font-family:'EB Garamond';-inkscape-font-specification:'EB Garamond, Normal';text-align:end;letter-spacing:0.396875px;word-spacing:0px;text-anchor:end;stroke-width:0.264583"
       x="120.0153"
       y="96.483444"
       id="text72263"><tspan
         sodipodi:role="line"
         id="tspan72261"
         style="font-style:italic;stroke-width:0.264583"
         x="120.41217"
         y="96.483444">t</tspan></text><ellipse
       style="opacity:1;fill:#ff6600;fill-opacity:1;stroke:#4d4d4d;stroke-width:0.402949;stroke-linecap:round;stroke-linejoin:round;stroke-miterlimit:4;stroke-dasharray:none;stroke-dashoffset:0;stroke-opacity:1;paint-order:stroke markers fill;stop-color:#000000;stop-opacity:1"
       id="path74514"
       cx="41.724419"
       cy="70.569344"
       rx="0.79852527"
       ry="0.79852551" /><path
       style="fill:none;stroke:#000000;stroke-width:0.264583px;stroke-linecap:butt;stroke-linejoin:miter;stroke-opacity:1"
       d="m 224.48272,104.22491 v 0"
       id="path80344" /><g
       id="surface1-1"
       transform="matrix(0.11736547,0,0,0.11736547,31.27344,68.272078)"><g
         style="fill:#000000;fill-opacity:1"
         id="g85024"><use
           xlink:href="#glyph0-1-34"
           x="1.3924"
           y="26.248199"
           id="use85022" /></g><g
         style="fill:#000000;fill-opacity:1"
         id="g85028"><use
           xlink:href="#glyph1-1-5"
           x="23.733999"
           y="26.248199"
           id="use85026" /></g><g
         style="fill:#000000;fill-opacity:1"
         id="g85032"><use
           xlink:href="#glyph0-2-7"
           x="35.034401"
           y="26.248199"
           id="use85030" /></g><g
         style="fill:#000000;fill-opacity:1"
         id="g85036"><use
           xlink:href="#glyph1-2-3"
           x="47.299599"
           y="26.248199"
           id="use85034" /></g></g><g
       aria-label="~"
       id="text85073"
       style="font-size:5.29167px;line-height:0.65;font-family:'EB Garamond';-inkscape-font-specification:'EB Garamond, Normal';text-align:end;letter-spacing:0.396875px;word-spacing:0px;text-anchor:end;stroke-width:0.264583" /><path
       style="fill:none;stroke:#4d4d4d;stroke-width:0.5;stroke-linecap:round;stroke-linejoin:round;stroke-dasharray:none;stroke-opacity:1;marker-end:url(#marker69062)"
       d="m 138.39365,99.701911 -0.035,-62.285112"
       id="path73039"
       sodipodi:nodetypes="cc" /><path
       style="fill:none;stroke:#4d4d4d;stroke-width:0.5;stroke-linecap:round;stroke-linejoin:round;stroke-dasharray:none;stroke-opacity:1;marker-end:url(#marker69062)"
       d="M 138.39365,99.701911 H 218.7138"
       id="path73041"
       sodipodi:nodetypes="cc" /><path
       style="fill:#de87aa;fill-opacity:1;stroke:#4d4d4d;stroke-width:0.264583px;stroke-linecap:round;stroke-linejoin:round;stroke-opacity:1"
       d="m 213.80644,54.410723 -0.65088,-3.03744 -0.5269,1.36375 -0.46492,-1.39474 -0.5269,1.17778 -0.83685,-2.32457 -0.68187,3.71931 -0.61989,-3.75031 -0.46491,1.6737 -0.49591,-1.02282 -0.34094,1.23978 -0.80585,-1.23978 -0.49591,1.76668 -0.61989,-1.1158 -0.68187,1.61171 -1.02281,-1.58071 -1.0848,2.44855 -0.86785,-3.75031 -0.77485,3.8123 -0.65089,-2.85148 -0.52691,1.6117 -0.61988,-1.92164 -0.89884,2.1386 -0.68187,-3.00644 -0.58889,6.88073 -0.65094,-7.0357 -0.86785,2.10761 -0.58889,-1.36375 -0.5579,1.30176 -0.61988,-5.54798 -1.20878,7.56261 -0.61989,-3.47136 -0.61988,2.75849 -0.77486,-2.04562 -0.46492,1.48772 -0.65088,-2.63451 -0.4959,3.96727 -1.36374,-2.63452 -0.30995,1.0848 -0.5269,-1.6117 -0.77486,2.32457 -0.96082,-3.13042 -0.86784,2.78948 -0.71287,-1.92164 -0.77486,1.95264 -0.61989,-1.73568 -0.61988,2.32457 -0.99182,-3.59534 -0.68187,2.23159 -0.80586,-1.30176 -0.27894,1.51872 -0.71287,-1.92165 -0.5579,1.85966 -0.61989,-2.1386 -0.58889,2.01463 -0.61989,-1.82867 -0.37193,8.64741 -0.80255,-8.89536 -0.84015,2.26258 -0.71286,-1.67369 -0.61989,1.6117 -0.77486,-1.54971 -0.65088,1.6117 -0.83685,-1.54971 -0.58889,1.51872 -0.61988,-3.90529 -1.05381,3.47137 -0.65088,-1.14679 -0.5269,1.98363 -0.74387,-1.98363 -0.40292,3.56434 -0.77486,-3.56434 -0.46491,1.30176 -0.5889,-1.54972 -0.74386,1.70469 -0.68187,-1.70469 -1.27077,2.41756 -0.49591,-3.16142 -1.20878,2.88247 -0.5269,-1.36797 -0.74387,1.49195 -0.89883,-2.1696 -0.27895,3.31639 -0.96082,-1.63874 -0.92983,5.97794 -0.61989,-6.97794 -0.61988,1 -0.77486,-1.21274 -0.80585,2.51054 -0.37194,-3.78131 -0.83684,2.32458 -0.89884,-1.98364 -0.65088,4.09125 -0.61988,-4.18423 -0.49591,2.23555 -0.77486,-1.58467 -0.37193,1.58467 -0.77486,-1.39871 -0.34094,1.98364 -1.02281,-2.69651 -0.71287,3.75031 -0.77486,-4.21522 -0.80585,2.23159 -0.74386,-1.42574 -1.02281,3.2544 -0.77486,-2.88247 -0.5579,2.23159 -0.18597,-2.29358 -1.45291,0.66218 -0.0961,26.68439 h 75.50219 z"
       id="path75256"
       sodipodi:nodetypes="cccccccccccccccccccccccccccccccccccccccccccccccccccccccccccccccccccccccccccccccccccccccccccccccccccccccccccccccc" /><g
       id="surface1"
       transform="matrix(0.10395369,0,0,0.10395369,180.12251,57.759513)"><g
         style="fill:#000000;fill-opacity:1"
         id="g84834"><use
           xlink:href="#glyph0-1-1"
           x="-1.0188"
           y="30.8482"
           id="use84832" /></g><g
         style="fill:#000000;fill-opacity:1"
         id="g84840"><use
           xlink:href="#glyph1-1"
           x="36.838799"
           y="30.8482"
           id="use84836" /><use
           xlink:href="#glyph1-2"
           x="50.539368"
           y="30.8482"
           id="use84838" /></g><g
         style="fill:#000000;fill-opacity:1"
         id="g84844"><use
           xlink:href="#glyph2-1"
           x="68.688004"
           y="16.041401"
           id="use84842" /></g><g
         style="fill:#000000;fill-opacity:1"
         id="g84850"><use
           xlink:href="#glyph3-1"
           x="91.105202"
           y="16.041401"
           id="use84846" /><use
           xlink:href="#glyph3-2"
           x="100.69557"
           y="16.041401"
           id="use84848" /></g><g
         style="fill:#000000;fill-opacity:1"
         id="g84854"><use
           xlink:href="#glyph4-1"
           x="121.1688"
           y="30.8482"
           id="use84852" /></g><g
         style="fill:#000000;fill-opacity:1"
         id="g84858"><use
           xlink:href="#glyph1-3"
           x="143.51401"
           y="30.8482"
           id="use84856" /></g><g
         style="fill:#000000;fill-opacity:1"
         id="g84862"><use
           xlink:href="#glyph4-2"
           x="154.81081"
           y="30.8482"
           id="use84860" /></g><g
         style="fill:#000000;fill-opacity:1"
         id="g84866"><use
           xlink:href="#glyph1-4"
           x="184.5072"
           y="30.8482"
           id="use84864" /></g></g><g
       id="g87215"
       transform="translate(5.3308615,0.55680844)"><path
         style="fill:#ffffff;stroke:none;stroke-width:0.264583px;stroke-linecap:butt;stroke-linejoin:miter;stroke-opacity:1"
         d="m 132.12469,77.884015 -0.0318,1.53461 0.53573,-0.33825 0.95895,0.27047 0.51636,-0.23768 0.008,-1.65564 -0.42621,0.33605 -0.74585,-0.2295 -0.48358,-0.0574 z"
         id="path85138" /><g
         aria-label="~"
         id="text85077"
         style="font-size:5.29167px;line-height:0.65;font-family:'EB Garamond';-inkscape-font-specification:'EB Garamond, Normal';text-align:end;letter-spacing:0.396875px;word-spacing:0px;text-anchor:end;fill:#4d4d4d;fill-opacity:1;stroke-width:0.264583"
         transform="translate(-1.368824,-48.509828)"><path
           id="path85079"
           d="m 134.89253,128.02892 q -0.13758,0 -0.25929,-0.0529 -0.12171,-0.0529 -0.23812,-0.11112 -0.10584,-0.0582 -0.21696,-0.10583 -0.10583,-0.0476 -0.22225,-0.0476 -0.13229,0 -0.23813,0.0741 -0.10054,0.0688 -0.16404,0.14288 -0.0635,0.0741 -0.0794,0.0741 -0.0317,0 -0.0688,-0.0212 -0.0318,-0.0265 -0.0318,-0.0529 0,-0.0529 0.0476,-0.14288 0.0476,-0.09 0.13229,-0.17991 0.09,-0.09 0.20638,-0.15346 0.11641,-0.0635 0.254,-0.0635 0.13758,0 0.24871,0.0529 0.11641,0.0529 0.21695,0.11112 0.10584,0.0635 0.20638,0.11642 0.10054,0.0476 0.20637,0.0476 0.09,0 0.17463,-0.0476 0.0847,-0.0529 0.14817,-0.11642 0.0688,-0.0688 0.11112,-0.11642 0.0476,-0.0529 0.0582,-0.0529 0.0212,0 0.0635,0.0265 0.0423,0.0264 0.0423,0.0794 0,0.0794 -0.0582,0.17463 -0.0529,0.0953 -0.14287,0.17991 -0.09,0.0794 -0.19579,0.13229 -0.10584,0.0529 -0.20109,0.0529 z m 0,-1.58749 q -0.13758,0 -0.25929,-0.0529 -0.12171,-0.0529 -0.23812,-0.11113 -0.10584,-0.0582 -0.21696,-0.10583 -0.10583,-0.0476 -0.22225,-0.0476 -0.13229,0 -0.23813,0.0741 -0.10054,0.0688 -0.16404,0.14287 -0.0635,0.0741 -0.0794,0.0741 -0.0317,0 -0.0688,-0.0212 -0.0318,-0.0265 -0.0318,-0.0529 0,-0.0529 0.0476,-0.14287 0.0476,-0.09 0.13229,-0.17992 0.09,-0.09 0.20638,-0.15346 0.11641,-0.0635 0.254,-0.0635 0.13758,0 0.24871,0.0529 0.11641,0.0529 0.21695,0.11112 0.10584,0.0635 0.20638,0.11642 0.10054,0.0476 0.20637,0.0476 0.09,0 0.17463,-0.0476 0.0847,-0.0529 0.14817,-0.11642 0.0688,-0.0688 0.11112,-0.11641 0.0476,-0.0529 0.0582,-0.0529 0.0212,0 0.0635,0.0265 0.0423,0.0265 0.0423,0.0794 0,0.0794 -0.0582,0.17463 -0.0529,0.0952 -0.14287,0.17992 -0.09,0.0794 -0.19579,0.13229 -0.10584,0.0529 -0.20109,0.0529 z"
           style="fill:#4d4d4d;fill-opacity:1" /></g></g><text
       xml:space="preserve"
       style="font-size:5.29167px;line-height:0.65;font-family:'EB Garamond';-inkscape-font-specification:'EB Garamond, Normal';text-align:end;letter-spacing:0.396875px;word-spacing:0px;text-anchor:end;stroke-width:0.264583"
       x="217.2137"
       y="98.04805"
       id="text85357"><tspan
         sodipodi:role="line"
         id="tspan85355"
         style="font-style:italic;stroke-width:0.264583"
         x="217.61058"
         y="98.04805">t</tspan></text><path
       style="fill:none;stroke:#ffcc00;stroke-width:0.5;stroke-linecap:round;stroke-linejoin:round;stroke-dasharray:none;stroke-dashoffset:0;stroke-opacity:1"
       d="M 138.92281,50.967312 H 213.9513"
       id="path85411"
       sodipodi:nodetypes="cc" /><g
       id="g86209"
       style="fill:#000000;stroke:#000000"
       transform="translate(97.198394,-64.900382)"><path
         style="fill:#000000;stroke:#000000;stroke-width:0.264583px;stroke-linecap:butt;stroke-linejoin:miter;stroke-opacity:1"
         d="M 84.694268,113.27149 H 109.12954"
         id="path86203"
         sodipodi:nodetypes="cc" /><path
         style="fill:#000000;stroke:#000000;stroke-width:0.264583px;stroke-linecap:butt;stroke-linejoin:miter;stroke-opacity:1"
         d="M 84.694268,118.03399 H 109.12954"
         id="path86205"
         sodipodi:nodetypes="cc" /></g><path
       style="fill:#000000;stroke:#000000;stroke-width:0.264583px;stroke-linecap:butt;stroke-linejoin:miter;stroke-opacity:1;marker-end:url(#Arrow1L)"
       d="m 201.70472,40.181571 v 6.51093"
       id="path86211"
       sodipodi:nodetypes="cc" /><path
       style="fill:#000000;stroke:#000000;stroke-width:0.264583px;stroke-linecap:butt;stroke-linejoin:miter;stroke-opacity:1;marker-end:url(#Arrow1L)"
       d="m 201.70472,61.365345 v -6.51093"
       id="path86245"
       sodipodi:nodetypes="cc" /><ellipse
       style="fill:#ff6600;fill-opacity:1;stroke:#4d4d4d;stroke-width:0.402949;stroke-linecap:round;stroke-linejoin:round;stroke-miterlimit:4;stroke-dasharray:none;stroke-dashoffset:0;stroke-opacity:1;paint-order:stroke markers fill;stop-color:#000000"
       id="ellipse74516"
       cx="138.39365"
       cy="50.936287"
       rx="0.79852527"
       ry="0.79852551" /><g
       id="surface1-6"
       transform="matrix(0.11669866,0,0,0.11669866,126.64193,48.900652)"><g
         style="fill:#000000;fill-opacity:1"
         id="g86646"><use
           xlink:href="#glyph0-1-8"
           x="1.4768"
           y="26.248199"
           id="use86644" /></g><g
         style="fill:#000000;fill-opacity:1"
         id="g86650"><use
           xlink:href="#glyph1-1-53"
           x="23.822001"
           y="26.248199"
           id="use86648" /></g><g
         style="fill:#000000;fill-opacity:1"
         id="g86654"><use
           xlink:href="#glyph0-2-4"
           x="35.118801"
           y="26.248199"
           id="use86652" /></g><g
         style="fill:#000000;fill-opacity:1"
         id="g86658"><use
           xlink:href="#glyph1-2-5"
           x="64.815201"
           y="26.248199"
           id="use86656" /></g></g><text
       xml:space="preserve"
       style="font-style:normal;font-variant:normal;font-weight:normal;font-stretch:normal;font-size:4.58611px;line-height:0.65;font-family:'EB Garamond';-inkscape-font-specification:'EB Garamond';text-align:end;letter-spacing:0.396875px;word-spacing:0px;text-anchor:end;stroke-width:0.264583"
       x="33.391197"
       y="99.136986"
       id="text87292"><tspan
         sodipodi:role="line"
         id="tspan87290"
         style="font-style:normal;font-variant:normal;font-weight:normal;font-stretch:normal;font-size:4.58611px;font-family:'EB Garamond';-inkscape-font-specification:'EB Garamond';stroke-width:0.264583"
         x="33.788071"
         y="99.136986">(a)</tspan></text><text
       xml:space="preserve"
       style="font-style:normal;font-variant:normal;font-weight:normal;font-stretch:normal;font-size:4.58611px;line-height:0.65;font-family:'EB Garamond';-inkscape-font-specification:'EB Garamond';text-align:end;letter-spacing:0.396875px;word-spacing:0px;text-anchor:end;stroke-width:0.264583"
       x="133.9026"
       y="99.136986"
       id="text87296"><tspan
         sodipodi:role="line"
         id="tspan87294"
         style="font-style:normal;font-variant:normal;font-weight:normal;font-stretch:normal;font-size:4.58611px;font-family:'EB Garamond';-inkscape-font-specification:'EB Garamond';stroke-width:0.264583"
         x="134.29948"
         y="99.136986">(b)</tspan></text></g></svg>
