<?xml version="1.0" encoding="UTF-8" standalone="no"?>
<!-- Created with Inkscape (http://www.inkscape.org/) -->

<svg
   width="80.000015mm"
   height="47.396923mm"
   viewBox="0 0 80.000017 47.396925"
   version="1.1"
   id="svg8004"
   xml:space="preserve"
   inkscape:version="1.2.2 (b0a8486, 2022-12-01)"
   sodipodi:docname="monte-carlo1.svg"
   xmlns:inkscape="http://www.inkscape.org/namespaces/inkscape"
   xmlns:sodipodi="http://sodipodi.sourceforge.net/DTD/sodipodi-0.dtd"
   xmlns="http://www.w3.org/2000/svg"
   xmlns:svg="http://www.w3.org/2000/svg"><sodipodi:namedview
     id="namedview8006"
     pagecolor="#ffffff"
     bordercolor="#666666"
     borderopacity="1.0"
     inkscape:showpageshadow="2"
     inkscape:pageopacity="0.0"
     inkscape:pagecheckerboard="0"
     inkscape:deskcolor="#d1d1d1"
     inkscape:document-units="mm"
     showgrid="false"
     inkscape:zoom="2.2721089"
     inkscape:cx="151.18114"
     inkscape:cy="89.56437"
     inkscape:window-width="1440"
     inkscape:window-height="813"
     inkscape:window-x="0"
     inkscape:window-y="0"
     inkscape:window-maximized="0"
     inkscape:current-layer="layer1" /><defs
     id="defs8001"><marker
       style="overflow:visible"
       id="Arrow1L"
       refX="0"
       refY="0"
       orient="auto-start-reverse"
       inkscape:stockid="Arrow1L"
       markerWidth="8.75"
       markerHeight="5"
       viewBox="0 0 8.75 5"
       inkscape:isstock="true"
       inkscape:collect="always"
       preserveAspectRatio="xMidYMid"><path
         style="fill:context-stroke;fill-rule:evenodd;stroke:none"
         d="M 0,0 5,-5 -12.5,0 5,5 Z"
         id="arrow1L"
         transform="scale(-0.5)" /></marker></defs><g
     inkscape:label="Layer 1"
     inkscape:groupmode="layer"
     id="layer1"
     transform="translate(-202.41167,-92.178786)"><rect
       style="fill:#de87aa;fill-opacity:0.963964;stroke:#333333;stroke-width:0.463029;stroke-linecap:butt;stroke-linejoin:miter;stroke-dasharray:none;paint-order:stroke markers fill;stop-color:#000000"
       id="rect3188"
       width="34.74287"
       height="34.971478"
       x="202.64319"
       y="96.919182" /><path
       id="path3296"
       style="fill:#fff6d5;fill-opacity:0.963964;stroke:#333333;stroke-width:0.463029;stroke-linecap:round;stroke-linejoin:round;stroke-dasharray:none;paint-order:stroke markers fill;stop-color:#000000"
       d="m 202.64319,97.108441 c 19.12458,0 34.6281,15.657639 34.6281,34.782209 h -34.6281 z"
       sodipodi:nodetypes="cccc" /><rect
       style="fill:#de87aa;fill-opacity:0.963964;stroke:#333333;stroke-width:0.463029;stroke-linecap:butt;stroke-linejoin:miter;stroke-dasharray:none;paint-order:stroke markers fill;stop-color:#000000"
       id="rect9547"
       width="34.74287"
       height="34.971478"
       x="244.29654"
       y="96.919182" /><path
       id="path9549"
       style="fill:#fff6d5;fill-opacity:0.963964;stroke:#333333;stroke-width:0.463029;stroke-linecap:round;stroke-linejoin:round;stroke-dasharray:none;paint-order:stroke markers fill;stop-color:#000000"
       d="m 244.29654,97.108441 c 19.12457,0 34.6281,15.657639 34.6281,34.782209 h -34.6281 z"
       sodipodi:nodetypes="cccc" /><path
       style="fill:#ac9393;stroke:#ff0000;stroke-width:0.555635;stroke-linecap:butt;stroke-linejoin:miter;stroke-dasharray:none;stroke-opacity:1;marker-end:url(#Arrow1L)"
       d="m 202.64319,131.89064 24.65558,-19.47532"
       id="path10279"
       sodipodi:nodetypes="cc" /><text
       xml:space="preserve"
       style="font-style:normal;font-variant:normal;font-weight:normal;font-stretch:normal;font-size:2.82222222px;line-height:0.65;font-family:'EB Garamond';-inkscape-font-specification:'EB Garamond';text-align:end;letter-spacing:0.183765px;word-spacing:0px;text-anchor:end;stroke-width:0.12251"
       x="221.46411"
       y="138.87659"
       id="text10315"><tspan
         sodipodi:role="line"
         id="tspan10313"
         style="font-style:normal;font-variant:normal;font-weight:normal;font-stretch:normal;font-size:2.82222222px;font-family:'EB Garamond';-inkscape-font-specification:'EB Garamond';stroke-width:0.12251"
         x="221.64787"
         y="138.87659">(a)</tspan></text><text
       xml:space="preserve"
       style="font-style:normal;font-variant:normal;font-weight:normal;font-stretch:normal;font-size:2.82222222px;line-height:0.65;font-family:'EB Garamond';-inkscape-font-specification:'EB Garamond';text-align:end;letter-spacing:0.183765px;word-spacing:0px;text-anchor:end;stroke-width:0.12251"
       x="263.11743"
       y="138.87659"
       id="text10319"><tspan
         sodipodi:role="line"
         id="tspan10317"
         style="font-style:normal;font-variant:normal;font-weight:normal;font-stretch:normal;font-size:2.82222222px;font-family:'EB Garamond';-inkscape-font-specification:'EB Garamond';stroke-width:0.12251"
         x="263.30121"
         y="138.87659">(b)</tspan></text><circle
       style="fill:#000080;fill-opacity:1;stroke:none;stroke-width:0.555635;stroke-linecap:round;stroke-linejoin:round;stroke-miterlimit:4;stroke-dasharray:none;stroke-dashoffset:0;stroke-opacity:1;paint-order:stroke markers fill;stop-color:#000000"
       id="path10377"
       cx="243.94812"
       cy="93.056458"
       r="0.42984936" /><circle
       style="fill:#000080;fill-opacity:1;stroke:none;stroke-width:0.555635;stroke-linecap:round;stroke-linejoin:round;stroke-miterlimit:4;stroke-dasharray:none;stroke-dashoffset:0;stroke-opacity:1;paint-order:stroke markers fill;stop-color:#000000"
       id="circle12593"
       cx="240.74417"
       cy="97.821327"
       r="0.42984936" /><circle
       style="fill:#000080;fill-opacity:1;stroke:none;stroke-width:0.555635;stroke-linecap:round;stroke-linejoin:round;stroke-miterlimit:4;stroke-dasharray:none;stroke-dashoffset:0;stroke-opacity:1;paint-order:stroke markers fill;stop-color:#000000"
       id="circle12595"
       cx="243.33189"
       cy="98.355324"
       r="0.42984936" /><circle
       style="fill:#000080;fill-opacity:1;stroke:none;stroke-width:0.555635;stroke-linecap:round;stroke-linejoin:round;stroke-miterlimit:4;stroke-dasharray:none;stroke-dashoffset:0;stroke-opacity:1;paint-order:stroke markers fill;stop-color:#000000"
       id="circle12597"
       cx="246.03703"
       cy="95.972885"
       r="0.42984936" /><circle
       style="fill:#000080;fill-opacity:1;stroke:none;stroke-width:0.555635;stroke-linecap:round;stroke-linejoin:round;stroke-miterlimit:4;stroke-dasharray:none;stroke-dashoffset:0;stroke-opacity:1;paint-order:stroke markers fill;stop-color:#000000"
       id="circle12599"
       cx="243.59743"
       cy="101.68251"
       r="0.42984936" /><circle
       style="fill:#000080;fill-opacity:1;stroke:none;stroke-width:0.555635;stroke-linecap:round;stroke-linejoin:round;stroke-miterlimit:4;stroke-dasharray:none;stroke-dashoffset:0;stroke-opacity:1;paint-order:stroke markers fill;stop-color:#000000"
       id="circle12601"
       cx="245.64827"
       cy="101.25267"
       r="0.42984936" /><circle
       style="fill:#000080;fill-opacity:1;stroke:none;stroke-width:0.555635;stroke-linecap:round;stroke-linejoin:round;stroke-miterlimit:4;stroke-dasharray:none;stroke-dashoffset:0;stroke-opacity:1;paint-order:stroke markers fill;stop-color:#000000"
       id="circle12603"
       cx="242.47218"
       cy="104.25125"
       r="0.42984936" /><circle
       style="fill:#000080;fill-opacity:1;stroke:none;stroke-width:0.555635;stroke-linecap:round;stroke-linejoin:round;stroke-miterlimit:4;stroke-dasharray:none;stroke-dashoffset:0;stroke-opacity:1;paint-order:stroke markers fill;stop-color:#000000"
       id="circle12605"
       cx="241.0097"
       cy="105.11386"
       r="0.42984936" /><circle
       style="fill:#000080;fill-opacity:1;stroke:none;stroke-width:0.555635;stroke-linecap:round;stroke-linejoin:round;stroke-miterlimit:4;stroke-dasharray:none;stroke-dashoffset:0;stroke-opacity:1;paint-order:stroke markers fill;stop-color:#000000"
       id="circle12607"
       cx="242.39003"
       cy="107.37306"
       r="0.42984936" /><circle
       style="fill:#000080;fill-opacity:1;stroke:none;stroke-width:0.555635;stroke-linecap:round;stroke-linejoin:round;stroke-miterlimit:4;stroke-dasharray:none;stroke-dashoffset:0;stroke-opacity:1;paint-order:stroke markers fill;stop-color:#000000"
       id="circle12609"
       cx="243.59743"
       cy="106.14077"
       r="0.42984936" /><circle
       style="fill:#000080;fill-opacity:1;stroke:none;stroke-width:0.555635;stroke-linecap:round;stroke-linejoin:round;stroke-miterlimit:4;stroke-dasharray:none;stroke-dashoffset:0;stroke-opacity:1;paint-order:stroke markers fill;stop-color:#000000"
       id="circle12611"
       cx="242.90204"
       cy="112.58978"
       r="0.42984936" /><circle
       style="fill:#000080;fill-opacity:1;stroke:none;stroke-width:0.555635;stroke-linecap:round;stroke-linejoin:round;stroke-miterlimit:4;stroke-dasharray:none;stroke-dashoffset:0;stroke-opacity:1;paint-order:stroke markers fill;stop-color:#000000"
       id="circle12613"
       cx="243.72066"
       cy="118.6691"
       r="0.42984936" /><circle
       style="fill:#000080;fill-opacity:1;stroke:none;stroke-width:0.555635;stroke-linecap:round;stroke-linejoin:round;stroke-miterlimit:4;stroke-dasharray:none;stroke-dashoffset:0;stroke-opacity:1;paint-order:stroke markers fill;stop-color:#000000"
       id="circle12615"
       cx="243.45512"
       cy="122.65352"
       r="0.42984936" /><circle
       style="fill:#000080;fill-opacity:1;stroke:none;stroke-width:0.555635;stroke-linecap:round;stroke-linejoin:round;stroke-miterlimit:4;stroke-dasharray:none;stroke-dashoffset:0;stroke-opacity:1;paint-order:stroke markers fill;stop-color:#000000"
       id="circle12617"
       cx="240.59454"
       cy="120.27109"
       r="0.42984936" /><circle
       style="fill:#000080;fill-opacity:1;stroke:none;stroke-width:0.555635;stroke-linecap:round;stroke-linejoin:round;stroke-miterlimit:4;stroke-dasharray:none;stroke-dashoffset:0;stroke-opacity:1;paint-order:stroke markers fill;stop-color:#000000"
       id="circle12619"
       cx="243.67958"
       cy="124.21442"
       r="0.42984936" /><circle
       style="fill:#000080;fill-opacity:1;stroke:none;stroke-width:0.555635;stroke-linecap:round;stroke-linejoin:round;stroke-miterlimit:4;stroke-dasharray:none;stroke-dashoffset:0;stroke-opacity:1;paint-order:stroke markers fill;stop-color:#000000"
       id="circle12621"
       cx="242.51326"
       cy="129.47221"
       r="0.42984936" /><circle
       style="fill:#000080;fill-opacity:1;stroke:none;stroke-width:0.555635;stroke-linecap:round;stroke-linejoin:round;stroke-miterlimit:4;stroke-dasharray:none;stroke-dashoffset:0;stroke-opacity:1;paint-order:stroke markers fill;stop-color:#000000"
       id="circle12623"
       cx="243.67958"
       cy="133.37448"
       r="0.42984936" /><circle
       style="fill:#000080;fill-opacity:1;stroke:none;stroke-width:0.555635;stroke-linecap:round;stroke-linejoin:round;stroke-miterlimit:4;stroke-dasharray:none;stroke-dashoffset:0;stroke-opacity:1;paint-order:stroke markers fill;stop-color:#000000"
       id="circle12625"
       cx="244.53929"
       cy="134.52463"
       r="0.42984936" /><circle
       style="fill:#000080;fill-opacity:1;stroke:none;stroke-width:0.555635;stroke-linecap:round;stroke-linejoin:round;stroke-miterlimit:4;stroke-dasharray:none;stroke-dashoffset:0;stroke-opacity:1;paint-order:stroke markers fill;stop-color:#000000"
       id="circle12627"
       cx="245.0513"
       cy="131.89572"
       r="0.42984936" /><circle
       style="fill:#000080;fill-opacity:1;stroke:none;stroke-width:0.555635;stroke-linecap:round;stroke-linejoin:round;stroke-miterlimit:4;stroke-dasharray:none;stroke-dashoffset:0;stroke-opacity:1;paint-order:stroke markers fill;stop-color:#000000"
       id="circle12629"
       cx="244.96913"
       cy="123.7215"
       r="0.42984936" /><circle
       style="fill:#000080;fill-opacity:1;stroke:none;stroke-width:0.555635;stroke-linecap:round;stroke-linejoin:round;stroke-miterlimit:4;stroke-dasharray:none;stroke-dashoffset:0;stroke-opacity:1;paint-order:stroke markers fill;stop-color:#000000"
       id="circle12631"
       cx="245.64827"
       cy="111.11101"
       r="0.42984936" /><circle
       style="fill:#000080;fill-opacity:1;stroke:none;stroke-width:0.555635;stroke-linecap:round;stroke-linejoin:round;stroke-miterlimit:4;stroke-dasharray:none;stroke-dashoffset:0;stroke-opacity:1;paint-order:stroke markers fill;stop-color:#000000"
       id="circle12633"
       cx="245.9549"
       cy="117.8094"
       r="0.42984936" /><circle
       style="fill:#000080;fill-opacity:1;stroke:none;stroke-width:0.555635;stroke-linecap:round;stroke-linejoin:round;stroke-miterlimit:4;stroke-dasharray:none;stroke-dashoffset:0;stroke-opacity:1;paint-order:stroke markers fill;stop-color:#000000"
       id="circle12635"
       cx="246.11919"
       cy="128.44821"
       r="0.42984936" /><circle
       style="fill:#000080;fill-opacity:1;stroke:none;stroke-width:0.555635;stroke-linecap:round;stroke-linejoin:round;stroke-miterlimit:4;stroke-dasharray:none;stroke-dashoffset:0;stroke-opacity:1;paint-order:stroke markers fill;stop-color:#000000"
       id="circle12637"
       cx="247.18718"
       cy="134.30017"
       r="0.42984936" /><circle
       style="fill:#000080;fill-opacity:1;stroke:none;stroke-width:0.555635;stroke-linecap:round;stroke-linejoin:round;stroke-miterlimit:4;stroke-dasharray:none;stroke-dashoffset:0;stroke-opacity:1;paint-order:stroke markers fill;stop-color:#000000"
       id="circle12639"
       cx="249.56961"
       cy="138.16136"
       r="0.42984936" /><circle
       style="fill:#000080;fill-opacity:1;stroke:none;stroke-width:0.555635;stroke-linecap:round;stroke-linejoin:round;stroke-miterlimit:4;stroke-dasharray:none;stroke-dashoffset:0;stroke-opacity:1;paint-order:stroke markers fill;stop-color:#000000"
       id="circle12641"
       cx="252.4039"
       cy="136.88799"
       r="0.42984936" /><circle
       style="fill:#000080;fill-opacity:1;stroke:none;stroke-width:0.555635;stroke-linecap:round;stroke-linejoin:round;stroke-miterlimit:4;stroke-dasharray:none;stroke-dashoffset:0;stroke-opacity:1;paint-order:stroke markers fill;stop-color:#000000"
       id="circle12643"
       cx="250.76083"
       cy="132.04103"
       r="0.42984936" /><circle
       style="fill:#000080;fill-opacity:1;stroke:none;stroke-width:0.555635;stroke-linecap:round;stroke-linejoin:round;stroke-miterlimit:4;stroke-dasharray:none;stroke-dashoffset:0;stroke-opacity:1;paint-order:stroke markers fill;stop-color:#000000"
       id="circle12645"
       cx="257.12769"
       cy="137.31783"
       r="0.42984936" /><circle
       style="fill:#000080;fill-opacity:1;stroke:none;stroke-width:0.555635;stroke-linecap:round;stroke-linejoin:round;stroke-miterlimit:4;stroke-dasharray:none;stroke-dashoffset:0;stroke-opacity:1;paint-order:stroke markers fill;stop-color:#000000"
       id="circle12647"
       cx="256.51147"
       cy="132.08211"
       r="0.42984936" /><circle
       style="fill:#000080;fill-opacity:1;stroke:none;stroke-width:0.555635;stroke-linecap:round;stroke-linejoin:round;stroke-miterlimit:4;stroke-dasharray:none;stroke-dashoffset:0;stroke-opacity:1;paint-order:stroke markers fill;stop-color:#000000"
       id="circle12649"
       cx="260.66019"
       cy="132.24641"
       r="0.42984936" /><circle
       style="fill:#000080;fill-opacity:1;stroke:none;stroke-width:0.555635;stroke-linecap:round;stroke-linejoin:round;stroke-miterlimit:4;stroke-dasharray:none;stroke-dashoffset:0;stroke-opacity:1;paint-order:stroke markers fill;stop-color:#000000"
       id="circle12651"
       cx="261.93356"
       cy="134.52463"
       r="0.42984936" /><circle
       style="fill:#000080;fill-opacity:1;stroke:none;stroke-width:0.555635;stroke-linecap:round;stroke-linejoin:round;stroke-miterlimit:4;stroke-dasharray:none;stroke-dashoffset:0;stroke-opacity:1;paint-order:stroke markers fill;stop-color:#000000"
       id="circle12653"
       cx="263.45337"
       cy="135.38432"
       r="0.42984936" /><circle
       style="fill:#000080;fill-opacity:1;stroke:none;stroke-width:0.555635;stroke-linecap:round;stroke-linejoin:round;stroke-miterlimit:4;stroke-dasharray:none;stroke-dashoffset:0;stroke-opacity:1;paint-order:stroke markers fill;stop-color:#000000"
       id="circle12655"
       cx="263.32727"
       cy="133.54169"
       r="0.42984936" /><circle
       style="fill:#000080;fill-opacity:1;stroke:none;stroke-width:0.555635;stroke-linecap:round;stroke-linejoin:round;stroke-miterlimit:4;stroke-dasharray:none;stroke-dashoffset:0;stroke-opacity:1;paint-order:stroke markers fill;stop-color:#000000"
       id="circle12657"
       cx="265.25787"
       cy="131.65225"
       r="0.42984936" /><circle
       style="fill:#000080;fill-opacity:1;stroke:none;stroke-width:0.555635;stroke-linecap:round;stroke-linejoin:round;stroke-miterlimit:4;stroke-dasharray:none;stroke-dashoffset:0;stroke-opacity:1;paint-order:stroke markers fill;stop-color:#000000"
       id="circle12659"
       cx="270.47458"
       cy="131.2224"
       r="0.42984936" /><circle
       style="fill:#000080;fill-opacity:1;stroke:none;stroke-width:0.555635;stroke-linecap:round;stroke-linejoin:round;stroke-miterlimit:4;stroke-dasharray:none;stroke-dashoffset:0;stroke-opacity:1;paint-order:stroke markers fill;stop-color:#000000"
       id="circle12661"
       cx="270.39243"
       cy="133.54169"
       r="0.42984936" /><circle
       style="fill:#000080;fill-opacity:1;stroke:none;stroke-width:0.555635;stroke-linecap:round;stroke-linejoin:round;stroke-miterlimit:4;stroke-dasharray:none;stroke-dashoffset:0;stroke-opacity:1;paint-order:stroke markers fill;stop-color:#000000"
       id="circle12663"
       cx="268.54401"
       cy="133.11183"
       r="0.42984936" /><circle
       style="fill:#000080;fill-opacity:1;stroke:none;stroke-width:0.555635;stroke-linecap:round;stroke-linejoin:round;stroke-miterlimit:4;stroke-dasharray:none;stroke-dashoffset:0;stroke-opacity:1;paint-order:stroke markers fill;stop-color:#000000"
       id="circle12665"
       cx="266.57233"
       cy="134.62885"
       r="0.42984936" /><circle
       style="fill:#000080;fill-opacity:1;stroke:none;stroke-width:0.555635;stroke-linecap:round;stroke-linejoin:round;stroke-miterlimit:4;stroke-dasharray:none;stroke-dashoffset:0;stroke-opacity:1;paint-order:stroke markers fill;stop-color:#000000"
       id="circle12667"
       cx="274.04825"
       cy="134.07576"
       r="0.42984936" /><circle
       style="fill:#000080;fill-opacity:1;stroke:none;stroke-width:0.555635;stroke-linecap:round;stroke-linejoin:round;stroke-miterlimit:4;stroke-dasharray:none;stroke-dashoffset:0;stroke-opacity:1;paint-order:stroke markers fill;stop-color:#000000"
       id="circle12669"
       cx="277.04681"
       cy="132.9886"
       r="0.42984936" /><circle
       style="fill:#000080;fill-opacity:1;stroke:none;stroke-width:0.555635;stroke-linecap:round;stroke-linejoin:round;stroke-miterlimit:4;stroke-dasharray:none;stroke-dashoffset:0;stroke-opacity:1;paint-order:stroke markers fill;stop-color:#000000"
       id="circle12671"
       cx="278.77206"
       cy="135.69093"
       r="0.42984936" /><circle
       style="fill:#000080;fill-opacity:1;stroke:none;stroke-width:0.555635;stroke-linecap:round;stroke-linejoin:round;stroke-miterlimit:4;stroke-dasharray:none;stroke-dashoffset:0;stroke-opacity:1;paint-order:stroke markers fill;stop-color:#000000"
       id="circle12673"
       cx="276.96466"
       cy="137.17253"
       r="0.42984936" /><circle
       style="fill:#000080;fill-opacity:1;stroke:none;stroke-width:0.555635;stroke-linecap:round;stroke-linejoin:round;stroke-miterlimit:4;stroke-dasharray:none;stroke-dashoffset:0;stroke-opacity:1;paint-order:stroke markers fill;stop-color:#000000"
       id="circle12675"
       cx="281.97601"
       cy="131.26347"
       r="0.42984936" /><circle
       style="fill:#000080;fill-opacity:1;stroke:none;stroke-width:0.555635;stroke-linecap:round;stroke-linejoin:round;stroke-miterlimit:4;stroke-dasharray:none;stroke-dashoffset:0;stroke-opacity:1;paint-order:stroke markers fill;stop-color:#000000"
       id="circle12677"
       cx="280.08649"
       cy="130.91579"
       r="0.42984936" /><circle
       style="fill:#000080;fill-opacity:1;stroke:none;stroke-width:0.555635;stroke-linecap:round;stroke-linejoin:round;stroke-miterlimit:4;stroke-dasharray:none;stroke-dashoffset:0;stroke-opacity:1;paint-order:stroke markers fill;stop-color:#000000"
       id="circle12679"
       cx="279.8811"
       cy="129.22575"
       r="0.42984936" /><circle
       style="fill:#000080;fill-opacity:1;stroke:none;stroke-width:0.555635;stroke-linecap:round;stroke-linejoin:round;stroke-miterlimit:4;stroke-dasharray:none;stroke-dashoffset:0;stroke-opacity:1;paint-order:stroke markers fill;stop-color:#000000"
       id="circle12681"
       cx="277.70404"
       cy="128.65936"
       r="0.42984936" /><circle
       style="fill:#000080;fill-opacity:1;stroke:none;stroke-width:0.555635;stroke-linecap:round;stroke-linejoin:round;stroke-miterlimit:4;stroke-dasharray:none;stroke-dashoffset:0;stroke-opacity:1;paint-order:stroke markers fill;stop-color:#000000"
       id="circle12683"
       cx="277.74512"
       cy="118.83743"
       r="0.42984936" /><circle
       style="fill:#000080;fill-opacity:1;stroke:none;stroke-width:0.555635;stroke-linecap:round;stroke-linejoin:round;stroke-miterlimit:4;stroke-dasharray:none;stroke-dashoffset:0;stroke-opacity:1;paint-order:stroke markers fill;stop-color:#000000"
       id="circle14242"
       cx="278.52267"
       cy="121.87708"
       r="0.42984936" /><circle
       style="fill:#000080;fill-opacity:1;stroke:none;stroke-width:0.555635;stroke-linecap:round;stroke-linejoin:round;stroke-miterlimit:4;stroke-dasharray:none;stroke-dashoffset:0;stroke-opacity:1;paint-order:stroke markers fill;stop-color:#000000"
       id="circle14244"
       cx="279.63763"
       cy="123.31476"
       r="0.42984936" /><circle
       style="fill:#000080;fill-opacity:1;stroke:none;stroke-width:0.555635;stroke-linecap:round;stroke-linejoin:round;stroke-miterlimit:4;stroke-dasharray:none;stroke-dashoffset:0;stroke-opacity:1;paint-order:stroke markers fill;stop-color:#000000"
       id="circle14246"
       cx="281.19846"
       cy="121.87708"
       r="0.42984936" /><circle
       style="fill:#000080;fill-opacity:1;stroke:none;stroke-width:0.555635;stroke-linecap:round;stroke-linejoin:round;stroke-miterlimit:4;stroke-dasharray:none;stroke-dashoffset:0;stroke-opacity:1;paint-order:stroke markers fill;stop-color:#000000"
       id="circle14248"
       cx="280.42093"
       cy="119.26727"
       r="0.42984936" /><circle
       style="fill:#000080;fill-opacity:1;stroke:none;stroke-width:0.555635;stroke-linecap:round;stroke-linejoin:round;stroke-miterlimit:4;stroke-dasharray:none;stroke-dashoffset:0;stroke-opacity:1;paint-order:stroke markers fill;stop-color:#000000"
       id="circle14250"
       cx="279.38235"
       cy="115.48824"
       r="0.42984936" /><circle
       style="fill:#000080;fill-opacity:1;stroke:none;stroke-width:0.555635;stroke-linecap:round;stroke-linejoin:round;stroke-miterlimit:4;stroke-dasharray:none;stroke-dashoffset:0;stroke-opacity:1;paint-order:stroke markers fill;stop-color:#000000"
       id="circle14252"
       cx="278.52267"
       cy="113.68087"
       r="0.42984936" /><circle
       style="fill:#000080;fill-opacity:1;stroke:none;stroke-width:0.555635;stroke-linecap:round;stroke-linejoin:round;stroke-miterlimit:4;stroke-dasharray:none;stroke-dashoffset:0;stroke-opacity:1;paint-order:stroke markers fill;stop-color:#000000"
       id="circle14254"
       cx="280.42093"
       cy="113.76303"
       r="0.42984936" /><circle
       style="fill:#000080;fill-opacity:1;stroke:none;stroke-width:0.555635;stroke-linecap:round;stroke-linejoin:round;stroke-miterlimit:4;stroke-dasharray:none;stroke-dashoffset:0;stroke-opacity:1;paint-order:stroke markers fill;stop-color:#000000"
       id="circle14256"
       cx="279.34128"
       cy="110.68228"
       r="0.42984936" /><circle
       style="fill:#000080;fill-opacity:1;stroke:none;stroke-width:0.555635;stroke-linecap:round;stroke-linejoin:round;stroke-miterlimit:4;stroke-dasharray:none;stroke-dashoffset:0;stroke-opacity:1;paint-order:stroke markers fill;stop-color:#000000"
       id="circle14258"
       cx="278.60483"
       cy="109.40892"
       r="0.42984936" /><circle
       style="fill:#000080;fill-opacity:1;stroke:none;stroke-width:0.555635;stroke-linecap:round;stroke-linejoin:round;stroke-miterlimit:4;stroke-dasharray:none;stroke-dashoffset:0;stroke-opacity:1;paint-order:stroke markers fill;stop-color:#000000"
       id="circle14260"
       cx="281.98184"
       cy="109.49108"
       r="0.42984936" /><circle
       style="fill:#000080;fill-opacity:1;stroke:none;stroke-width:0.555635;stroke-linecap:round;stroke-linejoin:round;stroke-miterlimit:4;stroke-dasharray:none;stroke-dashoffset:0;stroke-opacity:1;paint-order:stroke markers fill;stop-color:#000000"
       id="circle14262"
       cx="280.85077"
       cy="105.91742"
       r="0.42984936" /><circle
       style="fill:#000080;fill-opacity:1;stroke:none;stroke-width:0.555635;stroke-linecap:round;stroke-linejoin:round;stroke-miterlimit:4;stroke-dasharray:none;stroke-dashoffset:0;stroke-opacity:1;paint-order:stroke markers fill;stop-color:#000000"
       id="circle14264"
       cx="280.42093"
       cy="97.537811"
       r="0.42984936" /><circle
       style="fill:#000080;fill-opacity:1;stroke:none;stroke-width:0.555635;stroke-linecap:round;stroke-linejoin:round;stroke-miterlimit:4;stroke-dasharray:none;stroke-dashoffset:0;stroke-opacity:1;paint-order:stroke markers fill;stop-color:#000000"
       id="circle14266"
       cx="278.33627"
       cy="93.92308"
       r="0.42984936" /><circle
       style="fill:#000080;fill-opacity:1;stroke:none;stroke-width:0.555635;stroke-linecap:round;stroke-linejoin:round;stroke-miterlimit:4;stroke-dasharray:none;stroke-dashoffset:0;stroke-opacity:1;paint-order:stroke markers fill;stop-color:#000000"
       id="circle14268"
       cx="277.59982"
       cy="102.42591"
       r="0.42984936" /><circle
       style="fill:#000080;fill-opacity:1;stroke:none;stroke-width:0.555635;stroke-linecap:round;stroke-linejoin:round;stroke-miterlimit:4;stroke-dasharray:none;stroke-dashoffset:0;stroke-opacity:1;paint-order:stroke markers fill;stop-color:#000000"
       id="circle14270"
       cx="277.74512"
       cy="97.250275"
       r="0.42984936" /><circle
       style="fill:#000080;fill-opacity:1;stroke:none;stroke-width:0.555635;stroke-linecap:round;stroke-linejoin:round;stroke-miterlimit:4;stroke-dasharray:none;stroke-dashoffset:0;stroke-opacity:1;paint-order:stroke markers fill;stop-color:#000000"
       id="circle14272"
       cx="276.14313"
       cy="95.899109"
       r="0.42984936" /><circle
       style="fill:#000080;fill-opacity:1;stroke:none;stroke-width:0.555635;stroke-linecap:round;stroke-linejoin:round;stroke-miterlimit:4;stroke-dasharray:none;stroke-dashoffset:0;stroke-opacity:1;paint-order:stroke markers fill;stop-color:#000000"
       id="circle14274"
       cx="274.50009"
       cy="94.005234"
       r="0.42984936" /><circle
       style="fill:#000080;fill-opacity:1;stroke:none;stroke-width:0.555635;stroke-linecap:round;stroke-linejoin:round;stroke-miterlimit:4;stroke-dasharray:none;stroke-dashoffset:0;stroke-opacity:1;paint-order:stroke markers fill;stop-color:#000000"
       id="circle14276"
       cx="269.48874"
       cy="92.608635"
       r="0.42984936" /><circle
       style="fill:#000080;fill-opacity:1;stroke:none;stroke-width:0.555635;stroke-linecap:round;stroke-linejoin:round;stroke-miterlimit:4;stroke-dasharray:none;stroke-dashoffset:0;stroke-opacity:1;paint-order:stroke markers fill;stop-color:#000000"
       id="circle14278"
       cx="276.14313"
       cy="101.99606"
       r="0.42984936" /><circle
       style="fill:#000080;fill-opacity:1;stroke:none;stroke-width:0.555635;stroke-linecap:round;stroke-linejoin:round;stroke-miterlimit:4;stroke-dasharray:none;stroke-dashoffset:0;stroke-opacity:1;paint-order:stroke markers fill;stop-color:#000000"
       id="circle14280"
       cx="276.49081"
       cy="105.56973"
       r="0.42984936" /><circle
       style="fill:#000080;fill-opacity:1;stroke:none;stroke-width:0.555635;stroke-linecap:round;stroke-linejoin:round;stroke-miterlimit:4;stroke-dasharray:none;stroke-dashoffset:0;stroke-opacity:1;paint-order:stroke markers fill;stop-color:#000000"
       id="circle14282"
       cx="274.50009"
       cy="111.1943"
       r="0.42984936" /><circle
       style="fill:#000080;fill-opacity:1;stroke:none;stroke-width:0.555635;stroke-linecap:round;stroke-linejoin:round;stroke-miterlimit:4;stroke-dasharray:none;stroke-dashoffset:0;stroke-opacity:1;paint-order:stroke markers fill;stop-color:#000000"
       id="circle14284"
       cx="274.41791"
       cy="115.18163"
       r="0.42984936" /><circle
       style="fill:#000080;fill-opacity:1;stroke:none;stroke-width:0.555635;stroke-linecap:round;stroke-linejoin:round;stroke-miterlimit:4;stroke-dasharray:none;stroke-dashoffset:0;stroke-opacity:1;paint-order:stroke markers fill;stop-color:#000000"
       id="circle14286"
       cx="275.67221"
       cy="119.22619"
       r="0.42984936" /><circle
       style="fill:#000080;fill-opacity:1;stroke:none;stroke-width:0.555635;stroke-linecap:round;stroke-linejoin:round;stroke-miterlimit:4;stroke-dasharray:none;stroke-dashoffset:0;stroke-opacity:1;paint-order:stroke markers fill;stop-color:#000000"
       id="circle14288"
       cx="276.26337"
       cy="122.30694"
       r="0.42984936" /><circle
       style="fill:#000080;fill-opacity:1;stroke:none;stroke-width:0.555635;stroke-linecap:round;stroke-linejoin:round;stroke-miterlimit:4;stroke-dasharray:none;stroke-dashoffset:0;stroke-opacity:1;paint-order:stroke markers fill;stop-color:#000000"
       id="circle14290"
       cx="265.2168"
       cy="94.087379"
       r="0.42984936" /><circle
       style="fill:#000080;fill-opacity:1;stroke:none;stroke-width:0.555635;stroke-linecap:round;stroke-linejoin:round;stroke-miterlimit:4;stroke-dasharray:none;stroke-dashoffset:0;stroke-opacity:1;paint-order:stroke markers fill;stop-color:#000000"
       id="circle14292"
       cx="259.71252"
       cy="93.202782"
       r="0.42984936" /><circle
       style="fill:#000080;fill-opacity:1;stroke:none;stroke-width:0.555635;stroke-linecap:round;stroke-linejoin:round;stroke-miterlimit:4;stroke-dasharray:none;stroke-dashoffset:0;stroke-opacity:1;paint-order:stroke markers fill;stop-color:#000000"
       id="circle14294"
       cx="260.82159"
       cy="95.162636"
       r="0.42984936" /><circle
       style="fill:#000080;fill-opacity:1;stroke:none;stroke-width:0.555635;stroke-linecap:round;stroke-linejoin:round;stroke-miterlimit:4;stroke-dasharray:none;stroke-dashoffset:0;stroke-opacity:1;paint-order:stroke markers fill;stop-color:#000000"
       id="circle14296"
       cx="258.72672"
       cy="94.947083"
       r="0.42984936" /><circle
       style="fill:#000080;fill-opacity:1;stroke:none;stroke-width:0.555635;stroke-linecap:round;stroke-linejoin:round;stroke-miterlimit:4;stroke-dasharray:none;stroke-dashoffset:0;stroke-opacity:1;paint-order:stroke markers fill;stop-color:#000000"
       id="circle14298"
       cx="254.82443"
       cy="93.835022"
       r="0.42984936" /><circle
       style="fill:#000080;fill-opacity:1;stroke:none;stroke-width:0.555635;stroke-linecap:round;stroke-linejoin:round;stroke-miterlimit:4;stroke-dasharray:none;stroke-dashoffset:0;stroke-opacity:1;paint-order:stroke markers fill;stop-color:#000000"
       id="circle14300"
       cx="254.74229"
       cy="96.820427"
       r="0.42984936" /><circle
       style="fill:#000080;fill-opacity:1;stroke:none;stroke-width:0.555635;stroke-linecap:round;stroke-linejoin:round;stroke-miterlimit:4;stroke-dasharray:none;stroke-dashoffset:0;stroke-opacity:1;paint-order:stroke markers fill;stop-color:#000000"
       id="circle14302"
       cx="252.68846"
       cy="97.802246"
       r="0.42984936" /><circle
       style="fill:#000080;fill-opacity:1;stroke:none;stroke-width:0.555635;stroke-linecap:round;stroke-linejoin:round;stroke-miterlimit:4;stroke-dasharray:none;stroke-dashoffset:0;stroke-opacity:1;paint-order:stroke markers fill;stop-color:#000000"
       id="circle14400"
       cx="268.17429"
       cy="111.07106"
       r="0.42984936" /><circle
       style="fill:#000080;fill-opacity:1;stroke:none;stroke-width:0.555635;stroke-linecap:round;stroke-linejoin:round;stroke-miterlimit:4;stroke-dasharray:none;stroke-dashoffset:0;stroke-opacity:1;paint-order:stroke markers fill;stop-color:#000000"
       id="circle14402"
       cx="268.79044"
       cy="115.48824"
       r="0.42984936" /><circle
       style="fill:#000080;fill-opacity:1;stroke:none;stroke-width:0.555635;stroke-linecap:round;stroke-linejoin:round;stroke-miterlimit:4;stroke-dasharray:none;stroke-dashoffset:0;stroke-opacity:1;paint-order:stroke markers fill;stop-color:#000000"
       id="circle14404"
       cx="267.74445"
       cy="117.44269"
       r="0.42984936" /><circle
       style="fill:#000080;fill-opacity:1;stroke:none;stroke-width:0.555635;stroke-linecap:round;stroke-linejoin:round;stroke-miterlimit:4;stroke-dasharray:none;stroke-dashoffset:0;stroke-opacity:1;paint-order:stroke markers fill;stop-color:#000000"
       id="circle14406"
       cx="269.46967"
       cy="118.79634"
       r="0.42984936" /><circle
       style="fill:#000080;fill-opacity:1;stroke:none;stroke-width:0.555635;stroke-linecap:round;stroke-linejoin:round;stroke-miterlimit:4;stroke-dasharray:none;stroke-dashoffset:0;stroke-opacity:1;paint-order:stroke markers fill;stop-color:#000000"
       id="circle14408"
       cx="273.78268"
       cy="121.44724"
       r="0.42984936" /><circle
       style="fill:#000080;fill-opacity:1;stroke:none;stroke-width:0.555635;stroke-linecap:round;stroke-linejoin:round;stroke-miterlimit:4;stroke-dasharray:none;stroke-dashoffset:0;stroke-opacity:1;paint-order:stroke markers fill;stop-color:#000000"
       id="circle14410"
       cx="274.41791"
       cy="126.66394"
       r="0.42984936" /><circle
       style="fill:#000080;fill-opacity:1;stroke:none;stroke-width:0.555635;stroke-linecap:round;stroke-linejoin:round;stroke-miterlimit:4;stroke-dasharray:none;stroke-dashoffset:0;stroke-opacity:1;paint-order:stroke markers fill;stop-color:#000000"
       id="circle14412"
       cx="275.52698"
       cy="128.88683"
       r="0.42984936" /><circle
       style="fill:#000080;fill-opacity:1;stroke:none;stroke-width:0.555635;stroke-linecap:round;stroke-linejoin:round;stroke-miterlimit:4;stroke-dasharray:none;stroke-dashoffset:0;stroke-opacity:1;paint-order:stroke markers fill;stop-color:#000000"
       id="circle14414"
       cx="271.91223"
       cy="128.15036"
       r="0.42984936" /><circle
       style="fill:#000080;fill-opacity:1;stroke:none;stroke-width:0.555635;stroke-linecap:round;stroke-linejoin:round;stroke-miterlimit:4;stroke-dasharray:none;stroke-dashoffset:0;stroke-opacity:1;paint-order:stroke markers fill;stop-color:#000000"
       id="circle14416"
       cx="272.54749"
       cy="123.82677"
       r="0.42984936" /><circle
       style="fill:#000080;fill-opacity:1;stroke:none;stroke-width:0.555635;stroke-linecap:round;stroke-linejoin:round;stroke-miterlimit:4;stroke-dasharray:none;stroke-dashoffset:0;stroke-opacity:1;paint-order:stroke markers fill;stop-color:#000000"
       id="circle14418"
       cx="271.21393"
       cy="121.24184"
       r="0.42984936" /><circle
       style="fill:#000080;fill-opacity:1;stroke:none;stroke-width:0.555635;stroke-linecap:round;stroke-linejoin:round;stroke-miterlimit:4;stroke-dasharray:none;stroke-dashoffset:0;stroke-opacity:1;paint-order:stroke markers fill;stop-color:#000000"
       id="circle14420"
       cx="269.75421"
       cy="121.71277"
       r="0.42984936" /><circle
       style="fill:#000080;fill-opacity:1;stroke:none;stroke-width:0.555635;stroke-linecap:round;stroke-linejoin:round;stroke-miterlimit:4;stroke-dasharray:none;stroke-dashoffset:0;stroke-opacity:1;paint-order:stroke markers fill;stop-color:#000000"
       id="circle14422"
       cx="269.40369"
       cy="128.15036"
       r="0.42984936" /><circle
       style="fill:#000080;fill-opacity:1;stroke:none;stroke-width:0.555635;stroke-linecap:round;stroke-linejoin:round;stroke-miterlimit:4;stroke-dasharray:none;stroke-dashoffset:0;stroke-opacity:1;paint-order:stroke markers fill;stop-color:#000000"
       id="circle14424"
       cx="268.50293"
       cy="129.53236"
       r="0.42984936" /><circle
       style="fill:#000080;fill-opacity:1;stroke:none;stroke-width:0.555635;stroke-linecap:round;stroke-linejoin:round;stroke-miterlimit:4;stroke-dasharray:none;stroke-dashoffset:0;stroke-opacity:1;paint-order:stroke markers fill;stop-color:#000000"
       id="circle14426"
       cx="266.32587"
       cy="120.77091"
       r="0.42984936" /><circle
       style="fill:#000080;fill-opacity:1;stroke:none;stroke-width:0.555635;stroke-linecap:round;stroke-linejoin:round;stroke-miterlimit:4;stroke-dasharray:none;stroke-dashoffset:0;stroke-opacity:1;paint-order:stroke markers fill;stop-color:#000000"
       id="circle14428"
       cx="264.92926"
       cy="126.41747"
       r="0.42984936" /><circle
       style="fill:#000080;fill-opacity:1;stroke:none;stroke-width:0.555635;stroke-linecap:round;stroke-linejoin:round;stroke-miterlimit:4;stroke-dasharray:none;stroke-dashoffset:0;stroke-opacity:1;paint-order:stroke markers fill;stop-color:#000000"
       id="circle14430"
       cx="264.7048"
       cy="129.03487"
       r="0.42984936" /><circle
       style="fill:#000080;fill-opacity:1;stroke:none;stroke-width:0.555635;stroke-linecap:round;stroke-linejoin:round;stroke-miterlimit:4;stroke-dasharray:none;stroke-dashoffset:0;stroke-opacity:1;paint-order:stroke markers fill;stop-color:#000000"
       id="circle14432"
       cx="258.70764"
       cy="128.76933"
       r="0.42984936" /><circle
       style="fill:#000080;fill-opacity:1;stroke:none;stroke-width:0.555635;stroke-linecap:round;stroke-linejoin:round;stroke-miterlimit:4;stroke-dasharray:none;stroke-dashoffset:0;stroke-opacity:1;paint-order:stroke markers fill;stop-color:#000000"
       id="circle14434"
       cx="252.34074"
       cy="130.48595"
       r="0.42984936" /><circle
       style="fill:#000080;fill-opacity:1;stroke:none;stroke-width:0.555635;stroke-linecap:round;stroke-linejoin:round;stroke-miterlimit:4;stroke-dasharray:none;stroke-dashoffset:0;stroke-opacity:1;paint-order:stroke markers fill;stop-color:#000000"
       id="circle14436"
       cx="248.8903"
       cy="129.75977"
       r="0.42984936" /><circle
       style="fill:#000080;fill-opacity:1;stroke:none;stroke-width:0.555635;stroke-linecap:round;stroke-linejoin:round;stroke-miterlimit:4;stroke-dasharray:none;stroke-dashoffset:0;stroke-opacity:1;paint-order:stroke markers fill;stop-color:#000000"
       id="circle14438"
       cx="252.34074"
       cy="128.15036"
       r="0.42984936" /><circle
       style="fill:#000080;fill-opacity:1;stroke:none;stroke-width:0.555635;stroke-linecap:round;stroke-linejoin:round;stroke-miterlimit:4;stroke-dasharray:none;stroke-dashoffset:0;stroke-opacity:1;paint-order:stroke markers fill;stop-color:#000000"
       id="circle14440"
       cx="253.4498"
       cy="127.27718"
       r="0.42984936" /><circle
       style="fill:#000080;fill-opacity:1;stroke:none;stroke-width:0.555635;stroke-linecap:round;stroke-linejoin:round;stroke-miterlimit:4;stroke-dasharray:none;stroke-dashoffset:0;stroke-opacity:1;paint-order:stroke markers fill;stop-color:#000000"
       id="circle14442"
       cx="251.47812"
       cy="126.8884"
       r="0.42984936" /><circle
       style="fill:#000080;fill-opacity:1;stroke:none;stroke-width:0.555635;stroke-linecap:round;stroke-linejoin:round;stroke-miterlimit:4;stroke-dasharray:none;stroke-dashoffset:0;stroke-opacity:1;paint-order:stroke markers fill;stop-color:#000000"
       id="circle14444"
       cx="249.13977"
       cy="124.37881"
       r="0.42984936" /><circle
       style="fill:#000080;fill-opacity:1;stroke:none;stroke-width:0.555635;stroke-linecap:round;stroke-linejoin:round;stroke-miterlimit:4;stroke-dasharray:none;stroke-dashoffset:0;stroke-opacity:1;paint-order:stroke markers fill;stop-color:#000000"
       id="circle14446"
       cx="248.64687"
       cy="121.63062"
       r="0.42984936" /><circle
       style="fill:#000080;fill-opacity:1;stroke:none;stroke-width:0.555635;stroke-linecap:round;stroke-linejoin:round;stroke-miterlimit:4;stroke-dasharray:none;stroke-dashoffset:0;stroke-opacity:1;paint-order:stroke markers fill;stop-color:#000000"
       id="circle14448"
       cx="253.53786"
       cy="124.37881"
       r="0.42984936" /><circle
       style="fill:#000080;fill-opacity:1;stroke:none;stroke-width:0.555635;stroke-linecap:round;stroke-linejoin:round;stroke-miterlimit:4;stroke-dasharray:none;stroke-dashoffset:0;stroke-opacity:1;paint-order:stroke markers fill;stop-color:#000000"
       id="circle14450"
       cx="262.1066"
       cy="124.37881"
       r="0.42984936" /><circle
       style="fill:#000080;fill-opacity:1;stroke:none;stroke-width:0.555635;stroke-linecap:round;stroke-linejoin:round;stroke-miterlimit:4;stroke-dasharray:none;stroke-dashoffset:0;stroke-opacity:1;paint-order:stroke markers fill;stop-color:#000000"
       id="circle14452"
       cx="261.67676"
       cy="126.25315"
       r="0.42984936" /><circle
       style="fill:#000080;fill-opacity:1;stroke:none;stroke-width:0.555635;stroke-linecap:round;stroke-linejoin:round;stroke-miterlimit:4;stroke-dasharray:none;stroke-dashoffset:0;stroke-opacity:1;paint-order:stroke markers fill;stop-color:#000000"
       id="circle14454"
       cx="259.20053"
       cy="122.24683"
       r="0.42984936" /><circle
       style="fill:#000080;fill-opacity:1;stroke:none;stroke-width:0.555635;stroke-linecap:round;stroke-linejoin:round;stroke-miterlimit:4;stroke-dasharray:none;stroke-dashoffset:0;stroke-opacity:1;paint-order:stroke markers fill;stop-color:#000000"
       id="circle14456"
       cx="255.83226"
       cy="122.24683"
       r="0.42984936" /><circle
       style="fill:#000080;fill-opacity:1;stroke:none;stroke-width:0.555635;stroke-linecap:round;stroke-linejoin:round;stroke-miterlimit:4;stroke-dasharray:none;stroke-dashoffset:0;stroke-opacity:1;paint-order:stroke markers fill;stop-color:#000000"
       id="circle14458"
       cx="253.24155"
       cy="121.67169"
       r="0.42984936" /><circle
       style="fill:#000080;fill-opacity:1;stroke:none;stroke-width:0.555635;stroke-linecap:round;stroke-linejoin:round;stroke-miterlimit:4;stroke-dasharray:none;stroke-dashoffset:0;stroke-opacity:1;paint-order:stroke markers fill;stop-color:#000000"
       id="circle14460"
       cx="251.06448"
       cy="121.42822"
       r="0.42984936" /><circle
       style="fill:#000080;fill-opacity:1;stroke:none;stroke-width:0.555635;stroke-linecap:round;stroke-linejoin:round;stroke-miterlimit:4;stroke-dasharray:none;stroke-dashoffset:0;stroke-opacity:1;paint-order:stroke markers fill;stop-color:#000000"
       id="circle14462"
       cx="249.50655"
       cy="120.08589"
       r="0.42984936" /><circle
       style="fill:#000080;fill-opacity:1;stroke:none;stroke-width:0.555635;stroke-linecap:round;stroke-linejoin:round;stroke-miterlimit:4;stroke-dasharray:none;stroke-dashoffset:0;stroke-opacity:1;paint-order:stroke markers fill;stop-color:#000000"
       id="circle14464"
       cx="250.55249"
       cy="117.604"
       r="0.42984936" /><circle
       style="fill:#000080;fill-opacity:1;stroke:none;stroke-width:0.555635;stroke-linecap:round;stroke-linejoin:round;stroke-miterlimit:4;stroke-dasharray:none;stroke-dashoffset:0;stroke-opacity:1;paint-order:stroke markers fill;stop-color:#000000"
       id="circle14466"
       cx="249.38333"
       cy="112.07777"
       r="0.42984936" /><circle
       style="fill:#000080;fill-opacity:1;stroke:none;stroke-width:0.555635;stroke-linecap:round;stroke-linejoin:round;stroke-miterlimit:4;stroke-dasharray:none;stroke-dashoffset:0;stroke-opacity:1;paint-order:stroke markers fill;stop-color:#000000"
       id="circle14468"
       cx="246.93782"
       cy="105.0288"
       r="0.42984936" /><circle
       style="fill:#000080;fill-opacity:1;stroke:none;stroke-width:0.555635;stroke-linecap:round;stroke-linejoin:round;stroke-miterlimit:4;stroke-dasharray:none;stroke-dashoffset:0;stroke-opacity:1;paint-order:stroke markers fill;stop-color:#000000"
       id="circle15208"
       cx="266.16153"
       cy="99.490395"
       r="0.42984936" /><circle
       style="fill:#000080;fill-opacity:1;stroke:none;stroke-width:0.555635;stroke-linecap:round;stroke-linejoin:round;stroke-miterlimit:4;stroke-dasharray:none;stroke-dashoffset:0;stroke-opacity:1;paint-order:stroke markers fill;stop-color:#000000"
       id="circle15948"
       cx="270.61978"
       cy="103.96372"
       r="0.42984936" /><circle
       style="fill:#000080;fill-opacity:1;stroke:none;stroke-width:0.555635;stroke-linecap:round;stroke-linejoin:round;stroke-miterlimit:4;stroke-dasharray:none;stroke-dashoffset:0;stroke-opacity:1;paint-order:stroke markers fill;stop-color:#000000"
       id="circle15950"
       cx="272.54749"
       cy="106.73492"
       r="0.42984936" /><circle
       style="fill:#000080;fill-opacity:1;stroke:none;stroke-width:0.555635;stroke-linecap:round;stroke-linejoin:round;stroke-miterlimit:4;stroke-dasharray:none;stroke-dashoffset:0;stroke-opacity:1;paint-order:stroke markers fill;stop-color:#000000"
       id="circle15952"
       cx="269.75421"
       cy="108.13152"
       r="0.42984936" /><circle
       style="fill:#000080;fill-opacity:1;stroke:none;stroke-width:0.555635;stroke-linecap:round;stroke-linejoin:round;stroke-miterlimit:4;stroke-dasharray:none;stroke-dashoffset:0;stroke-opacity:1;paint-order:stroke markers fill;stop-color:#000000"
       id="circle15954"
       cx="263.79813"
       cy="114.81191"
       r="0.42984936" /><circle
       style="fill:#000080;fill-opacity:1;stroke:none;stroke-width:0.555635;stroke-linecap:round;stroke-linejoin:round;stroke-miterlimit:4;stroke-dasharray:none;stroke-dashoffset:0;stroke-opacity:1;paint-order:stroke markers fill;stop-color:#000000"
       id="circle15956"
       cx="259.50714"
       cy="118.26527"
       r="0.42984936" /><circle
       style="fill:#000080;fill-opacity:1;stroke:none;stroke-width:0.555635;stroke-linecap:round;stroke-linejoin:round;stroke-miterlimit:4;stroke-dasharray:none;stroke-dashoffset:0;stroke-opacity:1;paint-order:stroke markers fill;stop-color:#000000"
       id="circle15958"
       cx="254.57797"
       cy="118.03385"
       r="0.42984936" /><circle
       style="fill:#000080;fill-opacity:1;stroke:none;stroke-width:0.555635;stroke-linecap:round;stroke-linejoin:round;stroke-miterlimit:4;stroke-dasharray:none;stroke-dashoffset:0;stroke-opacity:1;paint-order:stroke markers fill;stop-color:#000000"
       id="circle15960"
       cx="256.79608"
       cy="116.83018"
       r="0.42984936" /><circle
       style="fill:#000080;fill-opacity:1;stroke:none;stroke-width:0.555635;stroke-linecap:round;stroke-linejoin:round;stroke-miterlimit:4;stroke-dasharray:none;stroke-dashoffset:0;stroke-opacity:1;paint-order:stroke markers fill;stop-color:#000000"
       id="circle15962"
       cx="252.0723"
       cy="114.85299"
       r="0.42984936" /><circle
       style="fill:#000080;fill-opacity:1;stroke:none;stroke-width:0.555635;stroke-linecap:round;stroke-linejoin:round;stroke-miterlimit:4;stroke-dasharray:none;stroke-dashoffset:0;stroke-opacity:1;paint-order:stroke markers fill;stop-color:#000000"
       id="circle15964"
       cx="250.40733"
       cy="113.4715"
       r="0.42984936" /><circle
       style="fill:#000080;fill-opacity:1;stroke:none;stroke-width:0.555635;stroke-linecap:round;stroke-linejoin:round;stroke-miterlimit:4;stroke-dasharray:none;stroke-dashoffset:0;stroke-opacity:1;paint-order:stroke markers fill;stop-color:#000000"
       id="circle15966"
       cx="250.40733"
       cy="109.40892"
       r="0.42984936" /><circle
       style="fill:#000080;fill-opacity:1;stroke:none;stroke-width:0.555635;stroke-linecap:round;stroke-linejoin:round;stroke-miterlimit:4;stroke-dasharray:none;stroke-dashoffset:0;stroke-opacity:1;paint-order:stroke markers fill;stop-color:#000000"
       id="circle15968"
       cx="250.69487"
       cy="104.76728"
       r="0.42984936" /><circle
       style="fill:#000080;fill-opacity:1;stroke:none;stroke-width:0.555635;stroke-linecap:round;stroke-linejoin:round;stroke-miterlimit:4;stroke-dasharray:none;stroke-dashoffset:0;stroke-opacity:1;paint-order:stroke markers fill;stop-color:#000000"
       id="circle15970"
       cx="252.89384"
       cy="102.93791"
       r="0.42984936" /><circle
       style="fill:#000080;fill-opacity:1;stroke:none;stroke-width:0.555635;stroke-linecap:round;stroke-linejoin:round;stroke-miterlimit:4;stroke-dasharray:none;stroke-dashoffset:0;stroke-opacity:1;paint-order:stroke markers fill;stop-color:#000000"
       id="circle15972"
       cx="255.40242"
       cy="104.33743"
       r="0.42984936" /><circle
       style="fill:#000080;fill-opacity:1;stroke:none;stroke-width:0.555635;stroke-linecap:round;stroke-linejoin:round;stroke-miterlimit:4;stroke-dasharray:none;stroke-dashoffset:0;stroke-opacity:1;paint-order:stroke markers fill;stop-color:#000000"
       id="circle15974"
       cx="255.40242"
       cy="109.14339"
       r="0.42984936" /><circle
       style="fill:#000080;fill-opacity:1;stroke:none;stroke-width:0.555635;stroke-linecap:round;stroke-linejoin:round;stroke-miterlimit:4;stroke-dasharray:none;stroke-dashoffset:0;stroke-opacity:1;paint-order:stroke markers fill;stop-color:#000000"
       id="circle15976"
       cx="256.26212"
       cy="114.33119"
       r="0.42984936" /><circle
       style="fill:#000080;fill-opacity:1;stroke:none;stroke-width:0.555635;stroke-linecap:round;stroke-linejoin:round;stroke-miterlimit:4;stroke-dasharray:none;stroke-dashoffset:0;stroke-opacity:1;paint-order:stroke markers fill;stop-color:#000000"
       id="circle15978"
       cx="259.0773"
       cy="115.67162"
       r="0.42984936" /><circle
       style="fill:#000080;fill-opacity:1;stroke:none;stroke-width:0.555635;stroke-linecap:round;stroke-linejoin:round;stroke-miterlimit:4;stroke-dasharray:none;stroke-dashoffset:0;stroke-opacity:1;paint-order:stroke markers fill;stop-color:#000000"
       id="circle15980"
       cx="256.69196"
       cy="100.82281"
       r="0.42984936" /><circle
       style="fill:#000080;fill-opacity:1;stroke:none;stroke-width:0.555635;stroke-linecap:round;stroke-linejoin:round;stroke-miterlimit:4;stroke-dasharray:none;stroke-dashoffset:0;stroke-opacity:1;paint-order:stroke markers fill;stop-color:#000000"
       id="circle15982"
       cx="258.00641"
       cy="101.68251"
       r="0.42984936" /><circle
       style="fill:#000080;fill-opacity:1;stroke:none;stroke-width:0.555635;stroke-linecap:round;stroke-linejoin:round;stroke-miterlimit:4;stroke-dasharray:none;stroke-dashoffset:0;stroke-opacity:1;paint-order:stroke markers fill;stop-color:#000000"
       id="circle15984"
       cx="261.21039"
       cy="101.25267"
       r="0.42984936" /><circle
       style="fill:#000080;fill-opacity:1;stroke:none;stroke-width:0.555635;stroke-linecap:round;stroke-linejoin:round;stroke-miterlimit:4;stroke-dasharray:none;stroke-dashoffset:0;stroke-opacity:1;paint-order:stroke markers fill;stop-color:#000000"
       id="circle16724"
       cx="262.97665"
       cy="103.26353"
       r="0.42984936" /><circle
       style="fill:#000080;fill-opacity:1;stroke:none;stroke-width:0.555635;stroke-linecap:round;stroke-linejoin:round;stroke-miterlimit:4;stroke-dasharray:none;stroke-dashoffset:0;stroke-opacity:1;paint-order:stroke markers fill;stop-color:#000000"
       id="circle16726"
       cx="266.36694"
       cy="103.46891"
       r="0.42984936" /><circle
       style="fill:#000080;fill-opacity:1;stroke:none;stroke-width:0.555635;stroke-linecap:round;stroke-linejoin:round;stroke-miterlimit:4;stroke-dasharray:none;stroke-dashoffset:0;stroke-opacity:1;paint-order:stroke markers fill;stop-color:#000000"
       id="circle16728"
       cx="268.66125"
       cy="104.61727"
       r="0.42984936" /><circle
       style="fill:#000080;fill-opacity:1;stroke:none;stroke-width:0.555635;stroke-linecap:round;stroke-linejoin:round;stroke-miterlimit:4;stroke-dasharray:none;stroke-dashoffset:0;stroke-opacity:1;paint-order:stroke markers fill;stop-color:#000000"
       id="circle16730"
       cx="268.66125"
       cy="106.65388"
       r="0.42984936" /><circle
       style="fill:#000080;fill-opacity:1;stroke:none;stroke-width:0.555635;stroke-linecap:round;stroke-linejoin:round;stroke-miterlimit:4;stroke-dasharray:none;stroke-dashoffset:0;stroke-opacity:1;paint-order:stroke markers fill;stop-color:#000000"
       id="circle16732"
       cx="266.49017"
       cy="105.47697"
       r="0.42984936" /><circle
       style="fill:#000080;fill-opacity:1;stroke:none;stroke-width:0.555635;stroke-linecap:round;stroke-linejoin:round;stroke-miterlimit:4;stroke-dasharray:none;stroke-dashoffset:0;stroke-opacity:1;paint-order:stroke markers fill;stop-color:#000000"
       id="circle16734"
       cx="263.71313"
       cy="105.79418"
       r="0.42984936" /><circle
       style="fill:#000080;fill-opacity:1;stroke:none;stroke-width:0.555635;stroke-linecap:round;stroke-linejoin:round;stroke-miterlimit:4;stroke-dasharray:none;stroke-dashoffset:0;stroke-opacity:1;paint-order:stroke markers fill;stop-color:#000000"
       id="circle16736"
       cx="261.21039"
       cy="105.98897"
       r="0.42984936" /><circle
       style="fill:#000080;fill-opacity:1;stroke:none;stroke-width:0.555635;stroke-linecap:round;stroke-linejoin:round;stroke-miterlimit:4;stroke-dasharray:none;stroke-dashoffset:0;stroke-opacity:1;paint-order:stroke markers fill;stop-color:#000000"
       id="circle16738"
       cx="265.11264"
       cy="108.56136"
       r="0.42984936" /><circle
       style="fill:#000080;fill-opacity:1;stroke:none;stroke-width:0.555635;stroke-linecap:round;stroke-linejoin:round;stroke-miterlimit:4;stroke-dasharray:none;stroke-dashoffset:0;stroke-opacity:1;paint-order:stroke markers fill;stop-color:#000000"
       id="circle16740"
       cx="261.99365"
       cy="113.77811"
       r="0.42984936" /><circle
       style="fill:#000080;fill-opacity:1;stroke:none;stroke-width:0.555635;stroke-linecap:round;stroke-linejoin:round;stroke-miterlimit:4;stroke-dasharray:none;stroke-dashoffset:0;stroke-opacity:1;paint-order:stroke markers fill;stop-color:#000000"
       id="circle16742"
       cx="260.43274"
       cy="112.50761"
       r="0.42984936" /></g></svg>
