<?xml version="1.0" encoding="UTF-8" standalone="no"?>
<!-- Created with Inkscape (http://www.inkscape.org/) -->

<svg
   width="79.995216mm"
   height="38.982513mm"
   viewBox="0 0 283.44762 138.12701"
   id="svg2"
   version="1.1"
   inkscape:version="1.2.2 (b0a8486, 2022-12-01)"
   sodipodi:docname="needle.svg"
   xmlns:inkscape="http://www.inkscape.org/namespaces/inkscape"
   xmlns:sodipodi="http://sodipodi.sourceforge.net/DTD/sodipodi-0.dtd"
   xmlns:xlink="http://www.w3.org/1999/xlink"
   xmlns="http://www.w3.org/2000/svg"
   xmlns:svg="http://www.w3.org/2000/svg"
   xmlns:rdf="http://www.w3.org/1999/02/22-rdf-syntax-ns#"
   xmlns:cc="http://creativecommons.org/ns#"
   xmlns:dc="http://purl.org/dc/elements/1.1/">
  <defs
     id="defs4">
    <marker
       style="overflow:visible"
       id="marker6036"
       refX="0"
       refY="0"
       orient="auto-start-reverse"
       inkscape:stockid="Arrow1L"
       markerWidth="8.75"
       markerHeight="5"
       viewBox="0 0 8.75 5"
       inkscape:isstock="true"
       inkscape:collect="always"
       preserveAspectRatio="xMidYMid">
      <path
         style="fill:context-stroke;fill-rule:evenodd;stroke:none"
         d="M 0,0 5,-5 -12.5,0 5,5 Z"
         id="path6034"
         transform="scale(-0.5)" />
    </marker>
    <marker
       style="overflow:visible"
       id="Arrow1L"
       refX="0"
       refY="0"
       orient="auto-start-reverse"
       inkscape:stockid="Arrow1L"
       markerWidth="8.75"
       markerHeight="5"
       viewBox="0 0 8.75 5"
       inkscape:isstock="true"
       inkscape:collect="always"
       preserveAspectRatio="xMidYMid">
      <path
         style="fill:context-stroke;fill-rule:evenodd;stroke:none"
         d="M 0,0 5,-5 -12.5,0 5,5 Z"
         id="arrow1L"
         transform="scale(-0.5)" />
    </marker>
    <marker
       inkscape:isstock="true"
       style="overflow:visible"
       id="marker6230"
       refX="0"
       refY="0"
       orient="auto"
       inkscape:stockid="Arrow1Mend">
      <path
         transform="matrix(-0.4,0,0,-0.4,-4,0)"
         style="fill:#696969;fill-opacity:1;fill-rule:evenodd;stroke:#696969;stroke-width:1pt;stroke-opacity:1"
         d="M 0,0 5,-5 -12.5,0 5,5 Z"
         id="path6232"
         inkscape:connector-curvature="0" />
    </marker>
    <marker
       inkscape:stockid="Arrow1Mstart"
       orient="auto"
       refY="0"
       refX="0"
       id="Arrow1Mstart"
       style="overflow:visible"
       inkscape:isstock="true">
      <path
         id="path4580"
         d="M 0,0 5,-5 -12.5,0 5,5 Z"
         style="fill:#ff4500;fill-opacity:1;fill-rule:evenodd;stroke:#ff4500;stroke-width:1pt;stroke-opacity:1"
         transform="matrix(0.4,0,0,0.4,4,0)"
         inkscape:connector-curvature="0" />
    </marker>
    <marker
       inkscape:isstock="true"
       style="overflow:visible"
       id="marker5264"
       refX="0"
       refY="0"
       orient="auto"
       inkscape:stockid="Arrow1Mend"
       viewBox="0 0 8.886927 5.078244"
       markerWidth="8.8869267"
       markerHeight="5.0782442"
       preserveAspectRatio="xMidYMid">
      <path
         transform="matrix(-0.4,0,0,-0.4,-4,0)"
         style="fill:#ff4500;fill-opacity:1;fill-rule:evenodd;stroke:#ff4500;stroke-width:1pt;stroke-opacity:1"
         d="M 0,0 5,-5 -12.5,0 5,5 Z"
         id="path5266"
         inkscape:connector-curvature="0" />
    </marker>
    <marker
       inkscape:stockid="Arrow1Mend"
       orient="auto"
       refY="0"
       refX="0"
       id="Arrow1Mend"
       style="overflow:visible"
       inkscape:isstock="true"
       inkscape:collect="always">
      <path
         id="path4583"
         d="M 0,0 5,-5 -12.5,0 5,5 Z"
         style="fill:#000000;fill-opacity:1;fill-rule:evenodd;stroke:#000000;stroke-width:1pt;stroke-opacity:1"
         transform="matrix(-0.4,0,0,-0.4,-4,0)"
         inkscape:connector-curvature="0" />
    </marker>
    <marker
       inkscape:stockid="Arrow2Lend"
       orient="auto"
       refY="0"
       refX="0"
       id="marker5150"
       style="overflow:visible"
       inkscape:isstock="true">
      <path
         id="path5152"
         style="fill:#000000;fill-opacity:1;fill-rule:evenodd;stroke:#000000;stroke-width:0.625;stroke-linejoin:round;stroke-opacity:1"
         d="M 8.7185878,4.0337352 -2.2072895,0.01601326 8.7185884,-4.0017078 c -1.7454984,2.3720609 -1.7354408,5.6174519 -6e-7,8.035443 z"
         transform="matrix(-1.1,0,0,-1.1,-1.1,0)"
         inkscape:connector-curvature="0" />
    </marker>
    <marker
       inkscape:stockid="Arrow2Lend"
       orient="auto"
       refY="0"
       refX="0"
       id="Arrow2Lend"
       style="overflow:visible"
       inkscape:isstock="true">
      <path
         id="path4595"
         style="fill:#000000;fill-opacity:1;fill-rule:evenodd;stroke:#000000;stroke-width:0.625;stroke-linejoin:round;stroke-opacity:1"
         d="M 8.7185878,4.0337352 -2.2072895,0.01601326 8.7185884,-4.0017078 c -1.7454984,2.3720609 -1.7354408,5.6174519 -6e-7,8.035443 z"
         transform="matrix(-1.1,0,0,-1.1,-1.1,0)"
         inkscape:connector-curvature="0" />
    </marker>
    <marker
       inkscape:stockid="Arrow1Lend"
       orient="auto"
       refY="0"
       refX="0"
       id="Arrow1Lend"
       style="overflow:visible"
       inkscape:isstock="true">
      <path
         id="path4577"
         d="M 0,0 5,-5 -12.5,0 5,5 Z"
         style="fill:#000000;fill-opacity:1;fill-rule:evenodd;stroke:#000000;stroke-width:1pt;stroke-opacity:1"
         transform="matrix(-0.8,0,0,-0.8,-10,0)"
         inkscape:connector-curvature="0" />
    </marker>
    <linearGradient
       inkscape:collect="always"
       id="linearGradient4512">
      <stop
         style="stop-color:#4169e1;stop-opacity:1;"
         offset="0"
         id="stop4514" />
      <stop
         style="stop-color:#4169e1;stop-opacity:0;"
         offset="1"
         id="stop4516" />
    </linearGradient>
    <linearGradient
       inkscape:collect="always"
       id="linearGradient4430">
      <stop
         style="stop-color:#c71585;stop-opacity:1"
         offset="0"
         id="stop4432" />
      <stop
         style="stop-color:#8b008b;stop-opacity:1"
         offset="1"
         id="stop4434" />
    </linearGradient>
    <radialGradient
       inkscape:collect="always"
       xlink:href="#linearGradient4430"
       id="radialGradient4436"
       cx="506.87045"
       cy="715.19287"
       fx="506.87045"
       fy="715.19287"
       r="228.98969"
       gradientTransform="matrix(0.30707174,-0.00398746,0.001453,0.11141967,18.53905,161.02977)"
       gradientUnits="userSpaceOnUse" />
    <radialGradient
       inkscape:collect="always"
       xlink:href="#linearGradient4430"
       id="radialGradient4436-3"
       cx="506.87045"
       cy="715.19287"
       fx="506.87045"
       fy="715.19287"
       r="228.98969"
       gradientTransform="matrix(0.95052287,-0.01236925,0.00449768,0.34562749,-256.01899,-161.76887)"
       gradientUnits="userSpaceOnUse" />
    <radialGradient
       inkscape:collect="always"
       xlink:href="#linearGradient4512"
       id="radialGradient4518"
       cx="506.51694"
       cy="717.66754"
       fx="506.51694"
       fy="717.66754"
       r="114.6843"
       gradientTransform="matrix(0.32305561,0,0,0.10622762,11.476479,163.25684)"
       gradientUnits="userSpaceOnUse" />
    <radialGradient
       inkscape:collect="always"
       xlink:href="#linearGradient4430"
       id="radialGradient4554"
       gradientUnits="userSpaceOnUse"
       gradientTransform="matrix(0.30707174,-0.00398746,0.001453,0.11141967,18.53905,161.02977)"
       cx="506.87045"
       cy="715.19287"
       fx="506.87045"
       fy="715.19287"
       r="228.98969" />
    <radialGradient
       inkscape:collect="always"
       xlink:href="#linearGradient4430"
       id="radialGradient4556"
       gradientUnits="userSpaceOnUse"
       gradientTransform="matrix(0.30707174,-0.00398746,0.001453,0.11141967,18.53905,161.02977)"
       cx="506.87045"
       cy="715.19287"
       fx="506.87045"
       fy="715.19287"
       r="228.98969" />
    <radialGradient
       inkscape:collect="always"
       xlink:href="#linearGradient4430"
       id="radialGradient4558"
       gradientUnits="userSpaceOnUse"
       gradientTransform="matrix(0.30707174,-0.00398746,0.001453,0.11141967,18.53905,161.02977)"
       cx="506.87045"
       cy="715.19287"
       fx="506.87045"
       fy="715.19287"
       r="228.98969" />
    <radialGradient
       inkscape:collect="always"
       xlink:href="#linearGradient4430"
       id="radialGradient4560"
       gradientUnits="userSpaceOnUse"
       gradientTransform="matrix(0.30707174,-0.00398746,0.001453,0.11141967,18.53905,161.02977)"
       cx="506.87045"
       cy="715.19287"
       fx="506.87045"
       fy="715.19287"
       r="228.98969" />
    <radialGradient
       inkscape:collect="always"
       xlink:href="#linearGradient4430"
       id="radialGradient4562"
       gradientUnits="userSpaceOnUse"
       gradientTransform="matrix(0.30707174,-0.00398746,0.001453,0.11141967,18.53905,161.02977)"
       cx="506.87045"
       cy="715.19287"
       fx="506.87045"
       fy="715.19287"
       r="228.98969" />
  </defs>
  <sodipodi:namedview
     id="base"
     pagecolor="#ffffff"
     bordercolor="#666666"
     borderopacity="1.0"
     inkscape:pageopacity="0.0"
     inkscape:pageshadow="2"
     inkscape:zoom="1.3519019"
     inkscape:cx="4.8080412"
     inkscape:cy="74.709563"
     inkscape:document-units="px"
     inkscape:current-layer="layer1"
     showgrid="false"
     inkscape:window-width="1309"
     inkscape:window-height="396"
     inkscape:window-x="0"
     inkscape:window-y="0"
     inkscape:window-maximized="0"
     inkscape:snap-grids="true"
     fit-margin-top="0"
     fit-margin-left="0"
     fit-margin-right="0"
     fit-margin-bottom="0"
     inkscape:showpageshadow="2"
     inkscape:pagecheckerboard="0"
     inkscape:deskcolor="#d1d1d1">
    <inkscape:grid
       type="xygrid"
       id="grid4566"
       originx="-24.925796"
       originy="-604.25876" />
  </sodipodi:namedview>
  <metadata
     id="metadata7">
    <rdf:RDF>
      <cc:Work
         rdf:about="">
        <dc:format>image/svg+xml</dc:format>
        <dc:type
           rdf:resource="http://purl.org/dc/dcmitype/StillImage" />
      </cc:Work>
    </rdf:RDF>
  </metadata>
  <g
     inkscape:label="Layer 1"
     inkscape:groupmode="layer"
     id="layer1"
     transform="translate(-24.925797,-141.68629)">
    <rect
       style="color:#000000;clip-rule:nonzero;display:inline;overflow:visible;visibility:visible;opacity:1;isolation:auto;mix-blend-mode:normal;color-interpolation:sRGB;color-interpolation-filters:linearRGB;solid-color:#000000;solid-opacity:1;fill:#f0e68c;fill-opacity:1;fill-rule:nonzero;stroke:none;stroke-width:0.901272;stroke-linecap:round;stroke-linejoin:round;stroke-miterlimit:4;stroke-dasharray:none;stroke-dashoffset:0;stroke-opacity:1;color-rendering:auto;image-rendering:auto;shape-rendering:auto;text-rendering:auto;enable-background:accumulate"
       id="rect4856"
       width="225.31789"
       height="13.519073"
       x="49.734886"
       y="162.51706" />
    <g
       id="g4978"
       transform="matrix(0.45063578,0,0,0.33797684,13.684024,89.616961)"
       style="stroke:#696969;stroke-width:2;stroke-linecap:round;stroke-linejoin:round;stroke-miterlimit:4;stroke-dasharray:none">
      <path
         style="fill:none;fill-rule:evenodd;stroke:#333333;stroke-width:2.3094;stroke-linecap:round;stroke-linejoin:round;stroke-miterlimit:4;stroke-dasharray:none;stroke-opacity:1"
         d="m 100,226.3622 v 20"
         id="path4862"
         inkscape:connector-curvature="0" />
      <path
         style="fill:none;fill-rule:evenodd;stroke:#333333;stroke-width:2.3094;stroke-linecap:round;stroke-linejoin:round;stroke-miterlimit:4;stroke-dasharray:none;stroke-opacity:1"
         d="m 120,226.3622 v 20"
         id="path4864"
         inkscape:connector-curvature="0" />
      <path
         inkscape:connector-curvature="0"
         id="path4866"
         d="m 140,226.3622 v 20"
         style="fill:none;fill-rule:evenodd;stroke:#333333;stroke-width:2.3094;stroke-linecap:round;stroke-linejoin:round;stroke-miterlimit:4;stroke-dasharray:none;stroke-opacity:1" />
      <path
         style="fill:none;fill-rule:evenodd;stroke:#333333;stroke-width:2.3094;stroke-linecap:round;stroke-linejoin:round;stroke-miterlimit:4;stroke-dasharray:none;stroke-opacity:1"
         d="m 160,226.3622 v 20"
         id="path4868"
         inkscape:connector-curvature="0" />
      <path
         inkscape:connector-curvature="0"
         id="path4870"
         d="m 180,226.3622 v 20"
         style="fill:none;fill-rule:evenodd;stroke:#333333;stroke-width:2.3094;stroke-linecap:round;stroke-linejoin:round;stroke-miterlimit:4;stroke-dasharray:none;stroke-opacity:1" />
      <path
         inkscape:connector-curvature="0"
         id="path4872"
         d="m 200,226.3622 v 20"
         style="fill:none;fill-rule:evenodd;stroke:#333333;stroke-width:2.3094;stroke-linecap:round;stroke-linejoin:round;stroke-miterlimit:4;stroke-dasharray:none;stroke-opacity:1" />
      <path
         style="fill:none;fill-rule:evenodd;stroke:#333333;stroke-width:2.3094;stroke-linecap:round;stroke-linejoin:round;stroke-miterlimit:4;stroke-dasharray:none;stroke-opacity:1"
         d="m 220,226.3622 v 20"
         id="path4874"
         inkscape:connector-curvature="0" />
      <path
         style="fill:none;fill-rule:evenodd;stroke:#333333;stroke-width:2.3094;stroke-linecap:round;stroke-linejoin:round;stroke-miterlimit:4;stroke-dasharray:none;stroke-opacity:1"
         d="m 240,226.3622 v 20"
         id="path4876"
         inkscape:connector-curvature="0" />
      <path
         inkscape:connector-curvature="0"
         id="path4878"
         d="m 260,226.3622 v 20"
         style="fill:none;fill-rule:evenodd;stroke:#333333;stroke-width:2.3094;stroke-linecap:round;stroke-linejoin:round;stroke-miterlimit:4;stroke-dasharray:none;stroke-opacity:1" />
      <path
         inkscape:connector-curvature="0"
         id="path4880"
         d="m 280,226.3622 v 20"
         style="fill:none;fill-rule:evenodd;stroke:#333333;stroke-width:2.3094;stroke-linecap:round;stroke-linejoin:round;stroke-miterlimit:4;stroke-dasharray:none;stroke-opacity:1" />
      <path
         style="fill:none;fill-rule:evenodd;stroke:#333333;stroke-width:2.3094;stroke-linecap:round;stroke-linejoin:round;stroke-miterlimit:4;stroke-dasharray:none;stroke-opacity:1"
         d="m 300,226.3622 v 20"
         id="path4882"
         inkscape:connector-curvature="0" />
      <path
         inkscape:connector-curvature="0"
         id="path4884"
         d="m 320,226.3622 v 20"
         style="fill:none;fill-rule:evenodd;stroke:#333333;stroke-width:2.3094;stroke-linecap:round;stroke-linejoin:round;stroke-miterlimit:4;stroke-dasharray:none;stroke-opacity:1" />
      <path
         style="fill:none;fill-rule:evenodd;stroke:#333333;stroke-width:2.3094;stroke-linecap:round;stroke-linejoin:round;stroke-miterlimit:4;stroke-dasharray:none;stroke-opacity:1"
         d="m 340,226.3622 v 20"
         id="path4886"
         inkscape:connector-curvature="0" />
      <path
         style="fill:none;fill-rule:evenodd;stroke:#333333;stroke-width:2.3094;stroke-linecap:round;stroke-linejoin:round;stroke-miterlimit:4;stroke-dasharray:none;stroke-opacity:1"
         d="m 360,226.3622 v 20"
         id="path4888"
         inkscape:connector-curvature="0" />
      <path
         inkscape:connector-curvature="0"
         id="path4890"
         d="m 380,226.3622 v 20"
         style="fill:none;fill-rule:evenodd;stroke:#333333;stroke-width:2.3094;stroke-linecap:round;stroke-linejoin:round;stroke-miterlimit:4;stroke-dasharray:none;stroke-opacity:1" />
      <path
         style="fill:none;fill-rule:evenodd;stroke:#333333;stroke-width:2.3094;stroke-linecap:round;stroke-linejoin:round;stroke-miterlimit:4;stroke-dasharray:none;stroke-opacity:1"
         d="m 400,226.3622 v 20"
         id="path4892"
         inkscape:connector-curvature="0" />
      <path
         inkscape:connector-curvature="0"
         id="path4894"
         d="m 420,226.3622 v 20"
         style="fill:none;fill-rule:evenodd;stroke:#333333;stroke-width:2.3094;stroke-linecap:round;stroke-linejoin:round;stroke-miterlimit:4;stroke-dasharray:none;stroke-opacity:1" />
      <path
         inkscape:connector-curvature="0"
         id="path4896"
         d="m 440,226.3622 v 20"
         style="fill:none;fill-rule:evenodd;stroke:#333333;stroke-width:2.3094;stroke-linecap:round;stroke-linejoin:round;stroke-miterlimit:4;stroke-dasharray:none;stroke-opacity:1" />
      <path
         style="fill:none;fill-rule:evenodd;stroke:#333333;stroke-width:2.3094;stroke-linecap:round;stroke-linejoin:round;stroke-miterlimit:4;stroke-dasharray:none;stroke-opacity:1"
         d="m 460,226.3622 v 20"
         id="path4898"
         inkscape:connector-curvature="0" />
      <path
         inkscape:connector-curvature="0"
         id="path4900"
         d="m 480,226.3622 v 20"
         style="fill:none;fill-rule:evenodd;stroke:#333333;stroke-width:2.3094;stroke-linecap:round;stroke-linejoin:round;stroke-miterlimit:4;stroke-dasharray:none;stroke-opacity:1" />
      <path
         style="fill:none;fill-rule:evenodd;stroke:#333333;stroke-width:2.3094;stroke-linecap:round;stroke-linejoin:round;stroke-miterlimit:4;stroke-dasharray:none;stroke-opacity:1"
         d="m 500,226.3622 v 20"
         id="path4902"
         inkscape:connector-curvature="0" />
      <path
         style="fill:none;fill-rule:evenodd;stroke:#333333;stroke-width:2.3094;stroke-linecap:round;stroke-linejoin:round;stroke-miterlimit:4;stroke-dasharray:none;stroke-opacity:1"
         d="m 520,226.3622 v 20"
         id="path4904"
         inkscape:connector-curvature="0" />
      <path
         inkscape:connector-curvature="0"
         id="path4906"
         d="m 540,226.3622 v 20"
         style="fill:none;fill-rule:evenodd;stroke:#333333;stroke-width:2.3094;stroke-linecap:round;stroke-linejoin:round;stroke-miterlimit:4;stroke-dasharray:none;stroke-opacity:1" />
      <path
         inkscape:connector-curvature="0"
         id="path4908"
         d="m 560,226.3622 v 20"
         style="fill:none;fill-rule:evenodd;stroke:#333333;stroke-width:2.3094;stroke-linecap:round;stroke-linejoin:round;stroke-miterlimit:4;stroke-dasharray:none;stroke-opacity:1" />
    </g>
    <path
       style="fill:none;fill-rule:evenodd;stroke:#ff6347;stroke-width:0.901272;stroke-linecap:round;stroke-linejoin:round;stroke-miterlimit:4;stroke-dasharray:none;stroke-opacity:1"
       d="M 49.734887,169.27659 H 275.05278"
       id="path5054"
       inkscape:connector-curvature="0" />
    <path
       style="fill:none;fill-rule:evenodd;stroke:#333333;stroke-width:0.901272;stroke-linecap:round;stroke-linejoin:round;stroke-miterlimit:4;stroke-dasharray:5.40763, 0.901272;stroke-dashoffset:0;stroke-opacity:1"
       d="m 126.34297,142.13693 v 31.64602"
       id="path4850"
       inkscape:connector-curvature="0"
       sodipodi:nodetypes="cc" />
    <path
       style="fill:none;fill-rule:evenodd;stroke:#333333;stroke-width:0.901272;stroke-linecap:round;stroke-linejoin:round;stroke-miterlimit:4;stroke-dasharray:none;stroke-opacity:1"
       d="m 49.734887,188.20329 v 35.1496"
       id="path4852"
       inkscape:connector-curvature="0"
       sodipodi:nodetypes="cc" />
    <path
       style="fill:none;fill-rule:evenodd;stroke:#333333;stroke-width:0.901272;stroke-linecap:round;stroke-linejoin:round;stroke-miterlimit:4;stroke-dasharray:none;stroke-opacity:1;marker-start:url(#marker6036);marker-end:url(#Arrow1L)"
       d="M 55.639689,214.34017 H 120.47941"
       id="path4854"
       inkscape:connector-curvature="0"
       sodipodi:nodetypes="cc" />
    <g
       id="g5228"
       style="stroke:#696969;stroke-linecap:round;stroke-linejoin:round"
       transform="matrix(0.45063578,0,0,0.45063578,13.684024,78.084943)">
      <path
         inkscape:connector-curvature="0"
         id="path4568"
         d="M 80,262.3622 H 650"
         style="fill:none;fill-rule:evenodd;stroke:#333333;stroke-width:2;stroke-linecap:round;stroke-linejoin:round;stroke-miterlimit:4;stroke-dasharray:none;stroke-opacity:1;marker-end:url(#Arrow1Mend)" />
      <g
         id="g5056"
         transform="matrix(1,0,0,0.75,0,77.59055)"
         style="stroke:#696969;stroke-width:2;stroke-linecap:round;stroke-linejoin:round;stroke-miterlimit:4;stroke-dasharray:none">
        <path
           style="fill:none;fill-rule:evenodd;stroke:#333333;stroke-width:2.3094;stroke-linecap:round;stroke-linejoin:round;stroke-miterlimit:4;stroke-dasharray:none;stroke-opacity:1"
           d="m 100,226.3622 v 20"
           id="path5058"
           inkscape:connector-curvature="0" />
        <path
           style="fill:none;fill-rule:evenodd;stroke:#333333;stroke-width:2.3094;stroke-linecap:round;stroke-linejoin:round;stroke-miterlimit:4;stroke-dasharray:none;stroke-opacity:1"
           d="m 120,226.3622 v 20"
           id="path5060"
           inkscape:connector-curvature="0" />
        <path
           inkscape:connector-curvature="0"
           id="path5062"
           d="m 140,226.3622 v 20"
           style="fill:none;fill-rule:evenodd;stroke:#333333;stroke-width:2.3094;stroke-linecap:round;stroke-linejoin:round;stroke-miterlimit:4;stroke-dasharray:none;stroke-opacity:1" />
        <path
           style="fill:none;fill-rule:evenodd;stroke:#333333;stroke-width:2.3094;stroke-linecap:round;stroke-linejoin:round;stroke-miterlimit:4;stroke-dasharray:none;stroke-opacity:1"
           d="m 160,226.3622 v 20"
           id="path5064"
           inkscape:connector-curvature="0" />
        <path
           inkscape:connector-curvature="0"
           id="path5066"
           d="m 180,226.3622 v 20"
           style="fill:none;fill-rule:evenodd;stroke:#333333;stroke-width:2.3094;stroke-linecap:round;stroke-linejoin:round;stroke-miterlimit:4;stroke-dasharray:none;stroke-opacity:1" />
        <path
           inkscape:connector-curvature="0"
           id="path5068"
           d="m 200,226.3622 v 20"
           style="fill:none;fill-rule:evenodd;stroke:#333333;stroke-width:2.3094;stroke-linecap:round;stroke-linejoin:round;stroke-miterlimit:4;stroke-dasharray:none;stroke-opacity:1" />
        <path
           style="fill:none;fill-rule:evenodd;stroke:#333333;stroke-width:2.3094;stroke-linecap:round;stroke-linejoin:round;stroke-miterlimit:4;stroke-dasharray:none;stroke-opacity:1"
           d="m 220,226.3622 v 20"
           id="path5070"
           inkscape:connector-curvature="0" />
        <path
           style="fill:none;fill-rule:evenodd;stroke:#333333;stroke-width:2.3094;stroke-linecap:round;stroke-linejoin:round;stroke-miterlimit:4;stroke-dasharray:none;stroke-opacity:1"
           d="m 240,226.3622 v 20"
           id="path5072"
           inkscape:connector-curvature="0" />
        <path
           inkscape:connector-curvature="0"
           id="path5074"
           d="m 260,226.3622 v 20"
           style="fill:none;fill-rule:evenodd;stroke:#333333;stroke-width:2.3094;stroke-linecap:round;stroke-linejoin:round;stroke-miterlimit:4;stroke-dasharray:none;stroke-opacity:1" />
        <path
           inkscape:connector-curvature="0"
           id="path5076"
           d="m 280,226.3622 v 20"
           style="fill:none;fill-rule:evenodd;stroke:#333333;stroke-width:2.3094;stroke-linecap:round;stroke-linejoin:round;stroke-miterlimit:4;stroke-dasharray:none;stroke-opacity:1" />
        <path
           style="fill:none;fill-rule:evenodd;stroke:#333333;stroke-width:2.3094;stroke-linecap:round;stroke-linejoin:round;stroke-miterlimit:4;stroke-dasharray:none;stroke-opacity:1"
           d="m 300,226.3622 v 20"
           id="path5078"
           inkscape:connector-curvature="0" />
        <path
           inkscape:connector-curvature="0"
           id="path5080"
           d="m 320,226.3622 v 20"
           style="fill:none;fill-rule:evenodd;stroke:#333333;stroke-width:2.3094;stroke-linecap:round;stroke-linejoin:round;stroke-miterlimit:4;stroke-dasharray:none;stroke-opacity:1" />
        <path
           style="fill:none;fill-rule:evenodd;stroke:#333333;stroke-width:2.3094;stroke-linecap:round;stroke-linejoin:round;stroke-miterlimit:4;stroke-dasharray:none;stroke-opacity:1"
           d="m 340,226.3622 v 20"
           id="path5082"
           inkscape:connector-curvature="0" />
        <path
           style="fill:none;fill-rule:evenodd;stroke:#333333;stroke-width:2.3094;stroke-linecap:round;stroke-linejoin:round;stroke-miterlimit:4;stroke-dasharray:none;stroke-opacity:1"
           d="m 360,226.3622 v 20"
           id="path5084"
           inkscape:connector-curvature="0" />
        <path
           inkscape:connector-curvature="0"
           id="path5086"
           d="m 380,226.3622 v 20"
           style="fill:none;fill-rule:evenodd;stroke:#333333;stroke-width:2.3094;stroke-linecap:round;stroke-linejoin:round;stroke-miterlimit:4;stroke-dasharray:none;stroke-opacity:1" />
        <path
           style="fill:none;fill-rule:evenodd;stroke:#333333;stroke-width:2.3094;stroke-linecap:round;stroke-linejoin:round;stroke-miterlimit:4;stroke-dasharray:none;stroke-opacity:1"
           d="m 400,226.3622 v 20"
           id="path5088"
           inkscape:connector-curvature="0" />
        <path
           inkscape:connector-curvature="0"
           id="path5090"
           d="m 420,226.3622 v 20"
           style="fill:none;fill-rule:evenodd;stroke:#333333;stroke-width:2.3094;stroke-linecap:round;stroke-linejoin:round;stroke-miterlimit:4;stroke-dasharray:none;stroke-opacity:1" />
        <path
           inkscape:connector-curvature="0"
           id="path5092"
           d="m 440,226.3622 v 20"
           style="fill:none;fill-rule:evenodd;stroke:#333333;stroke-width:2.3094;stroke-linecap:round;stroke-linejoin:round;stroke-miterlimit:4;stroke-dasharray:none;stroke-opacity:1" />
        <path
           style="fill:none;fill-rule:evenodd;stroke:#333333;stroke-width:2.3094;stroke-linecap:round;stroke-linejoin:round;stroke-miterlimit:4;stroke-dasharray:none;stroke-opacity:1"
           d="m 460,226.3622 v 20"
           id="path5094"
           inkscape:connector-curvature="0" />
        <path
           inkscape:connector-curvature="0"
           id="path5096"
           d="m 480,226.3622 v 20"
           style="fill:none;fill-rule:evenodd;stroke:#333333;stroke-width:2.3094;stroke-linecap:round;stroke-linejoin:round;stroke-miterlimit:4;stroke-dasharray:none;stroke-opacity:1" />
        <path
           style="fill:none;fill-rule:evenodd;stroke:#333333;stroke-width:2.3094;stroke-linecap:round;stroke-linejoin:round;stroke-miterlimit:4;stroke-dasharray:none;stroke-opacity:1"
           d="m 500,226.3622 v 20"
           id="path5098"
           inkscape:connector-curvature="0" />
        <path
           style="fill:none;fill-rule:evenodd;stroke:#333333;stroke-width:2.3094;stroke-linecap:round;stroke-linejoin:round;stroke-miterlimit:4;stroke-dasharray:none;stroke-opacity:1"
           d="m 520,226.3622 v 20"
           id="path5100"
           inkscape:connector-curvature="0" />
        <path
           inkscape:connector-curvature="0"
           id="path5102"
           d="m 540,226.3622 v 20"
           style="fill:none;fill-rule:evenodd;stroke:#333333;stroke-width:2.3094;stroke-linecap:round;stroke-linejoin:round;stroke-miterlimit:4;stroke-dasharray:none;stroke-opacity:1" />
        <path
           inkscape:connector-curvature="0"
           id="path5104"
           d="m 560,226.3622 v 20"
           style="fill:none;fill-rule:evenodd;stroke:#333333;stroke-width:2.3094;stroke-linecap:round;stroke-linejoin:round;stroke-miterlimit:4;stroke-dasharray:none;stroke-opacity:1" />
      </g>
    </g>
    <path
       sodipodi:nodetypes="cc"
       inkscape:connector-curvature="0"
       id="path5256"
       d="M 126.34297,173.68143 V 219.7478"
       style="fill:none;fill-rule:evenodd;stroke:#ff6347;stroke-width:0.901272;stroke-linecap:round;stroke-linejoin:round;stroke-miterlimit:4;stroke-dasharray:5.40763, 0.901272;stroke-dashoffset:0;stroke-opacity:1" />
    <text
       id="text6093"
       y="199.90149"
       x="37.1436"
       style="font-style:normal;font-variant:normal;font-weight:normal;font-stretch:normal;font-size:10px;line-height:0%;font-family:'EB Garamond';-inkscape-font-specification:'EB Garamond';font-variant-ligatures:normal;font-variant-caps:normal;font-variant-numeric:normal;font-variant-east-asian:normal;text-align:start;letter-spacing:0px;word-spacing:0px;writing-mode:lr-tb;text-anchor:start;fill:#000000;fill-opacity:1;stroke:none;stroke-width:0.450636px;stroke-linecap:round;stroke-linejoin:round;stroke-opacity:1"
       xml:space="preserve"><tspan
         y="199.90149"
         x="37.1436"
         id="tspan6095"
         sodipodi:role="line"
         style="font-style:normal;font-variant:normal;font-weight:normal;font-stretch:normal;font-size:10px;line-height:1.25;font-family:'EB Garamond';-inkscape-font-specification:'EB Garamond';font-variant-ligatures:normal;font-variant-caps:normal;font-variant-numeric:normal;font-variant-east-asian:normal;fill:#000000;stroke-width:0.450636px;stroke-linecap:round;stroke-linejoin:round">0</tspan></text>
    <text
       id="text6099"
       y="209.74255"
       x="88.222343"
       style="font-style:italic;font-variant:normal;font-weight:normal;font-stretch:normal;font-size:10px;line-height:0%;font-family:'EB Garamond';-inkscape-font-specification:'EB Garamond Italic';font-variant-ligatures:normal;font-variant-caps:normal;font-variant-numeric:normal;font-variant-east-asian:normal;text-align:start;letter-spacing:0px;word-spacing:0px;writing-mode:lr-tb;text-anchor:start;fill:#000000;fill-opacity:1;stroke:none;stroke-width:0.450636px;stroke-linecap:round;stroke-linejoin:round;stroke-opacity:1"
       xml:space="preserve"><tspan
         y="209.74255"
         x="88.222343"
         id="tspan6101"
         sodipodi:role="line"
         style="font-style:italic;font-variant:normal;font-weight:normal;font-stretch:normal;font-size:10px;line-height:1.25;font-family:'EB Garamond';-inkscape-font-specification:'EB Garamond Italic';font-variant-ligatures:normal;font-variant-caps:normal;font-variant-numeric:normal;font-variant-east-asian:normal;fill:#000000;stroke-width:0.450636px;stroke-linecap:round;stroke-linejoin:round">x</tspan></text>
    <text
       xml:space="preserve"
       style="font-style:normal;font-variant:normal;font-weight:normal;font-stretch:normal;font-size:10px;line-height:0%;font-family:'EB Garamond';-inkscape-font-specification:'EB Garamond';font-variant-ligatures:normal;font-variant-caps:normal;font-variant-numeric:normal;font-variant-east-asian:normal;text-align:start;letter-spacing:0px;word-spacing:0px;writing-mode:lr-tb;text-anchor:start;fill:#000000;fill-opacity:1;stroke:none;stroke-width:0.450636px;stroke-linecap:round;stroke-linejoin:round;stroke-opacity:1"
       x="24.525797"
       y="226.93964"
       id="text6105"><tspan
         sodipodi:role="line"
         id="tspan6107"
         x="24.525797"
         y="226.93964"
         style="font-style:normal;font-variant:normal;font-weight:normal;font-stretch:normal;font-size:10px;line-height:1.25;font-family:'EB Garamond';-inkscape-font-specification:'EB Garamond';font-variant-ligatures:normal;font-variant-caps:normal;font-variant-numeric:normal;font-variant-east-asian:normal;fill:#000000;stroke-width:0.450636px;stroke-linecap:round;stroke-linejoin:round">(<tspan
   style="font-style:normal;font-variant:normal;font-weight:normal;font-stretch:normal;font-size:10px;font-family:'EB Garamond';-inkscape-font-specification:'EB Garamond';fill:#000000;stroke-width:0.450636px;stroke-linecap:round;stroke-linejoin:round"
   id="tspan30030">a</tspan>)</tspan></text>
    <text
       id="text6109"
       y="272.0032"
       x="24.525797"
       style="font-style:normal;font-variant:normal;font-weight:normal;font-stretch:normal;font-size:10px;line-height:0%;font-family:'EB Garamond';-inkscape-font-specification:'EB Garamond';font-variant-ligatures:normal;font-variant-caps:normal;font-variant-numeric:normal;font-variant-east-asian:normal;text-align:start;letter-spacing:0px;word-spacing:0px;writing-mode:lr-tb;text-anchor:start;fill:#000000;fill-opacity:1;stroke:none;stroke-width:0.450636px;stroke-linecap:round;stroke-linejoin:round;stroke-opacity:1"
       xml:space="preserve"><tspan
         y="272.0032"
         x="24.525797"
         id="tspan6111"
         sodipodi:role="line"
         style="font-style:normal;font-variant:normal;font-weight:normal;font-stretch:normal;font-size:10px;line-height:1.25;font-family:'EB Garamond';-inkscape-font-specification:'EB Garamond';font-variant-ligatures:normal;font-variant-caps:normal;font-variant-numeric:normal;font-variant-east-asian:normal;fill:#000000;stroke-width:0.450636px;stroke-linecap:round;stroke-linejoin:round">(<tspan
   style="font-style:normal;font-variant:normal;font-weight:normal;font-stretch:normal;font-size:10px;font-family:'EB Garamond';-inkscape-font-specification:'EB Garamond';fill:#000000;stroke-width:0.450636px;stroke-linecap:round;stroke-linejoin:round"
   id="tspan30032">b</tspan>)</tspan></text>
    <g
       id="g4333"
       transform="matrix(0.45063578,0,0,0.45063578,13.684024,78.084943)"
       style="stroke-linecap:round;stroke-linejoin:round">
      <ellipse
         style="color:#000000;clip-rule:nonzero;display:inline;overflow:visible;visibility:visible;opacity:1;isolation:auto;mix-blend-mode:normal;color-interpolation:sRGB;color-interpolation-filters:linearRGB;solid-color:#000000;solid-opacity:1;fill:#ff8c00;fill-opacity:1;fill-rule:nonzero;stroke:#000000;stroke-width:1;stroke-linecap:round;stroke-linejoin:round;stroke-miterlimit:4;stroke-dasharray:none;stroke-dashoffset:0;stroke-opacity:1;color-rendering:auto;image-rendering:auto;shape-rendering:auto;text-rendering:auto;enable-background:accumulate"
         id="ellipse3523"
         cx="359.97601"
         cy="357.4917"
         rx="16.528082"
         ry="7.0034242" />
      <path
         sodipodi:nodetypes="cccc"
         inkscape:connector-curvature="0"
         id="rect3521"
         d="m 346.74182,355.09744 v -13.94745 h 25.55873 v 13.94745"
         style="color:#000000;clip-rule:nonzero;display:inline;overflow:visible;visibility:visible;opacity:1;isolation:auto;mix-blend-mode:normal;color-interpolation:sRGB;color-interpolation-filters:linearRGB;solid-color:#000000;solid-opacity:1;fill:#ff8c00;fill-opacity:1;fill-rule:nonzero;stroke:#000000;stroke-width:1;stroke-linecap:round;stroke-linejoin:round;stroke-miterlimit:4;stroke-dasharray:none;stroke-dashoffset:0;stroke-opacity:1;color-rendering:auto;image-rendering:auto;shape-rendering:auto;text-rendering:auto;enable-background:accumulate" />
      <path
         inkscape:connector-curvature="0"
         id="ellipse3517"
         d="m 376.5041,343.4917 a 16.528082,7.0034242 0 0 1 -16.52809,7.00342 16.528082,7.0034242 0 0 1 -16.52808,-7.00342 16.528082,7.0034242 0 0 1 16.52808,-7.00342 16.528082,7.0034242 0 0 1 16.52809,7.00342 z"
         style="color:#000000;clip-rule:nonzero;display:inline;overflow:visible;visibility:visible;opacity:1;isolation:auto;mix-blend-mode:normal;color-interpolation:sRGB;color-interpolation-filters:linearRGB;solid-color:#000000;solid-opacity:1;fill:#ff8c00;fill-opacity:1;fill-rule:nonzero;stroke:#000000;stroke-width:1;stroke-linecap:round;stroke-linejoin:round;stroke-miterlimit:4;stroke-dasharray:none;stroke-dashoffset:0;stroke-opacity:1;color-rendering:auto;image-rendering:auto;shape-rendering:auto;text-rendering:auto;enable-background:accumulate" />
      <path
         inkscape:connector-curvature="0"
         id="path3529"
         d="m 343.48671,343.13737 -0.10447,-7.62607 33.0115,-0.3134 0.10446,8.98414"
         style="fill:#ff8c00;fill-opacity:1;fill-rule:evenodd;stroke:#000000;stroke-width:1px;stroke-linecap:round;stroke-linejoin:round;stroke-opacity:1" />
      <ellipse
         ry="7.0034242"
         rx="16.528082"
         cy="335.4917"
         cx="359.97601"
         id="path3515"
         style="color:#000000;clip-rule:nonzero;display:inline;overflow:visible;visibility:visible;opacity:1;isolation:auto;mix-blend-mode:normal;color-interpolation:sRGB;color-interpolation-filters:linearRGB;solid-color:#000000;solid-opacity:1;fill:#ff8c00;fill-opacity:1;fill-rule:nonzero;stroke:#000000;stroke-width:1;stroke-linecap:round;stroke-linejoin:round;stroke-miterlimit:4;stroke-dasharray:none;stroke-dashoffset:0;stroke-opacity:1;color-rendering:auto;image-rendering:auto;shape-rendering:auto;text-rendering:auto;enable-background:accumulate" />
      <path
         sodipodi:nodetypes="csc"
         inkscape:connector-curvature="0"
         style="color:#000000;clip-rule:nonzero;display:inline;overflow:visible;visibility:visible;opacity:1;isolation:auto;mix-blend-mode:normal;color-interpolation:sRGB;color-interpolation-filters:linearRGB;solid-color:#000000;solid-opacity:1;fill:#ff8c00;fill-opacity:1;fill-rule:nonzero;stroke:#000000;stroke-width:1;stroke-linecap:round;stroke-linejoin:round;stroke-miterlimit:4;stroke-dasharray:none;stroke-dashoffset:0;stroke-opacity:1;color-rendering:auto;image-rendering:auto;shape-rendering:auto;text-rendering:auto;enable-background:accumulate"
         d="m 372.29637,354.97497 c -1e-5,2.19472 -5.71045,4.17723 -12.79047,4.17723 -7.08001,0 -12.7614,-1.98252 -12.76141,-4.17723"
         id="path4331" />
    </g>
    <path
       style="color:#000000;clip-rule:nonzero;display:inline;overflow:visible;visibility:visible;opacity:1;isolation:auto;mix-blend-mode:normal;color-interpolation:sRGB;color-interpolation-filters:linearRGB;solid-color:#000000;solid-opacity:1;fill:#f0e68c;fill-opacity:1;fill-rule:nonzero;stroke:#333333;stroke-width:0.901272;stroke-linecap:round;stroke-linejoin:round;stroke-miterlimit:4;stroke-dasharray:none;stroke-dashoffset:0;stroke-opacity:1;color-rendering:auto;image-rendering:auto;shape-rendering:auto;text-rendering:auto;enable-background:accumulate"
       d="m 248.87717,254.16892 c 0,13.91412 -32.61889,25.19375 -73.65335,25.19375 -41.03446,0 -72.82483,-11.41101 -73.54004,-25.30681"
       id="ellipse3345"
       inkscape:connector-curvature="0"
       sodipodi:nodetypes="csc" />
    <path
       style="color:#000000;clip-rule:nonzero;display:inline;overflow:visible;visibility:visible;opacity:1;isolation:auto;mix-blend-mode:normal;color-interpolation:sRGB;color-interpolation-filters:linearRGB;solid-color:#000000;solid-opacity:1;fill:#f0e68c;fill-opacity:1;fill-rule:nonzero;stroke:#333333;stroke-width:0.901272;stroke-linecap:round;stroke-linejoin:round;stroke-miterlimit:4;stroke-dasharray:none;stroke-dashoffset:0;stroke-opacity:1;color-rendering:auto;image-rendering:auto;shape-rendering:auto;text-rendering:auto;enable-background:accumulate"
       d="m 101.74068,254.13876 -0.1133,-14.23696 147.21036,-1.92202 0.001,16.89534"
       id="rect4357"
       inkscape:connector-curvature="0"
       sodipodi:nodetypes="cccc" />
    <path
       style="color:#000000;clip-rule:nonzero;display:inline;overflow:visible;visibility:visible;opacity:1;isolation:auto;mix-blend-mode:normal;color-interpolation:sRGB;color-interpolation-filters:linearRGB;solid-color:#000000;solid-opacity:1;fill:#6495ed;fill-opacity:1;fill-rule:nonzero;stroke:#333333;stroke-width:0.901272;stroke-linecap:round;stroke-linejoin:round;stroke-miterlimit:4;stroke-dasharray:none;stroke-dashoffset:0;stroke-opacity:1;color-rendering:auto;image-rendering:auto;shape-rendering:auto;text-rendering:auto;enable-background:accumulate"
       d="m 248.87717,238.6952 c 0,13.91412 -32.61889,25.19374 -73.65335,25.19374 -41.03446,0 -73.65334,-11.27962 -73.65334,-25.19374 0,-13.91412 32.61888,-25.19375 73.65334,-25.19375 41.03446,0 73.65335,11.27963 73.65335,25.19375 z"
       id="path3343"
       inkscape:connector-curvature="0"
       sodipodi:nodetypes="sssss" />
    <ellipse
       ry="11.860271"
       rx="36.726353"
       cy="239.49297"
       cx="175.10962"
       id="ellipse3513"
       style="color:#000000;clip-rule:nonzero;display:inline;overflow:visible;visibility:visible;opacity:1;isolation:auto;mix-blend-mode:normal;color-interpolation:sRGB;color-interpolation-filters:linearRGB;solid-color:#000000;solid-opacity:1;fill:url(#radialGradient4518);fill-opacity:1;fill-rule:nonzero;stroke:#333333;stroke-width:0.901272;stroke-linecap:round;stroke-linejoin:round;stroke-miterlimit:4;stroke-dasharray:none;stroke-dashoffset:0;stroke-opacity:1;color-rendering:auto;image-rendering:auto;shape-rendering:auto;text-rendering:auto;enable-background:accumulate" />
    <path
       style="fill:url(#radialGradient4554);fill-opacity:1;fill-rule:evenodd;stroke:#333333;stroke-width:0.901272;stroke-linecap:round;stroke-linejoin:round;stroke-miterlimit:4;stroke-dasharray:none;stroke-opacity:1"
       d="m 118.5998,222.71453 113.63746,31.91278"
       id="path3503"
       inkscape:connector-curvature="0"
       sodipodi:nodetypes="cc" />
    <path
       style="fill:url(#radialGradient4556);fill-opacity:1;fill-rule:evenodd;stroke:#333333;stroke-width:0.901272;stroke-linecap:round;stroke-linejoin:round;stroke-miterlimit:4;stroke-dasharray:none;stroke-opacity:1"
       d="m 248.68625,237.98535 -147.02831,2.27923"
       id="path3505"
       inkscape:connector-curvature="0"
       sodipodi:nodetypes="cc" />
    <path
       style="fill:url(#radialGradient4558);fill-opacity:1;fill-rule:evenodd;stroke:#333333;stroke-width:0.901272;stroke-linecap:round;stroke-linejoin:round;stroke-miterlimit:4;stroke-dasharray:none;stroke-opacity:1"
       d="M 120.08417,255.30803 233.61042,223.28344"
       id="path3507"
       inkscape:connector-curvature="0"
       sodipodi:nodetypes="cc" />
    <path
       style="fill:url(#radialGradient4560);fill-opacity:1;fill-rule:evenodd;stroke:#333333;stroke-width:0.901272;stroke-linecap:round;stroke-linejoin:round;stroke-miterlimit:4;stroke-dasharray:none;stroke-opacity:1"
       d="m 151.94736,214.85064 44.19693,47.86432"
       id="path3509"
       inkscape:connector-curvature="0"
       sodipodi:nodetypes="cc" />
    <path
       style="fill:url(#radialGradient4562);fill-opacity:1;fill-rule:evenodd;stroke:#333333;stroke-width:0.901272;stroke-linecap:round;stroke-linejoin:round;stroke-miterlimit:4;stroke-dasharray:none;stroke-opacity:1"
       d="m 153.97729,262.8243 44.9079,-47.9731"
       id="path3511"
       inkscape:connector-curvature="0"
       sodipodi:nodetypes="cc" />
    <path
       style="fill:#ff6347;fill-rule:evenodd;stroke:#333333;stroke-width:0.901272;stroke-linecap:round;stroke-linejoin:round;stroke-miterlimit:4;stroke-dasharray:none;stroke-opacity:1"
       d="m 175.18029,241.56206 3.86153,-1.386 15.38279,8.26526 8.45435,13.72237 -19.38014,-8.23029 z"
       id="path4450"
       inkscape:connector-curvature="0"
       sodipodi:nodetypes="cccccc" />
    <ellipse
       style="color:#000000;clip-rule:nonzero;display:inline;overflow:visible;visibility:visible;opacity:1;isolation:auto;mix-blend-mode:normal;color-interpolation:sRGB;color-interpolation-filters:linearRGB;solid-color:#000000;solid-opacity:1;fill:#4682b4;fill-opacity:1;fill-rule:nonzero;stroke:#333333;stroke-width:0.901272;stroke-linecap:round;stroke-linejoin:round;stroke-miterlimit:4;stroke-dasharray:none;stroke-dashoffset:0;stroke-opacity:1;color-rendering:auto;image-rendering:auto;shape-rendering:auto;text-rendering:auto;enable-background:accumulate"
       id="ellipse4343"
       cx="175.58098"
       cy="239.43628"
       rx="5.3394895"
       ry="2.2576885" />
    <path
       sodipodi:nodetypes="cccc"
       inkscape:connector-curvature="0"
       id="path4345"
       d="m 171.3056,238.66443 v -4.49622 h 8.25689 v 4.49622"
       style="color:#000000;clip-rule:nonzero;display:inline;overflow:visible;visibility:visible;opacity:1;isolation:auto;mix-blend-mode:normal;color-interpolation:sRGB;color-interpolation-filters:linearRGB;solid-color:#000000;solid-opacity:1;fill:#4682b4;fill-opacity:1;fill-rule:nonzero;stroke:#333333;stroke-width:0.901272;stroke-linecap:round;stroke-linejoin:round;stroke-miterlimit:4;stroke-dasharray:none;stroke-dashoffset:0;stroke-opacity:1;color-rendering:auto;image-rendering:auto;shape-rendering:auto;text-rendering:auto;enable-background:accumulate" />
    <path
       inkscape:connector-curvature="0"
       id="path4347"
       d="m 180.92047,234.9231 a 5.3394897,2.2576887 0 0 1 -5.33949,2.25769 5.3394897,2.2576887 0 0 1 -5.33949,-2.25769 5.3394897,2.2576887 0 0 1 5.33949,-2.25769 5.3394897,2.2576887 0 0 1 5.33949,2.25769 z"
       style="color:#000000;clip-rule:nonzero;display:inline;overflow:visible;visibility:visible;opacity:1;isolation:auto;mix-blend-mode:normal;color-interpolation:sRGB;color-interpolation-filters:linearRGB;solid-color:#000000;solid-opacity:1;fill:#4682b4;fill-opacity:1;fill-rule:nonzero;stroke:#333333;stroke-width:0.901272;stroke-linecap:round;stroke-linejoin:round;stroke-miterlimit:4;stroke-dasharray:none;stroke-dashoffset:0;stroke-opacity:1;color-rendering:auto;image-rendering:auto;shape-rendering:auto;text-rendering:auto;enable-background:accumulate" />
    <path
       inkscape:connector-curvature="0"
       id="path4349"
       d="m 170.25402,234.80888 -0.0338,-2.45842 10.66455,-0.10102 0.0338,2.89621"
       style="fill:#4682b4;fill-opacity:1;fill-rule:evenodd;stroke:#333333;stroke-width:0.901272;stroke-linecap:round;stroke-linejoin:round;stroke-miterlimit:4;stroke-dasharray:none;stroke-opacity:1" />
    <ellipse
       ry="2.2576885"
       rx="5.3394895"
       cy="232.34415"
       cx="175.58098"
       id="ellipse4351"
       style="color:#000000;clip-rule:nonzero;display:inline;overflow:visible;visibility:visible;opacity:1;isolation:auto;mix-blend-mode:normal;color-interpolation:sRGB;color-interpolation-filters:linearRGB;solid-color:#000000;solid-opacity:1;fill:#4682b4;fill-opacity:1;fill-rule:nonzero;stroke:#333333;stroke-width:0.901272;stroke-linecap:round;stroke-linejoin:round;stroke-miterlimit:4;stroke-dasharray:none;stroke-dashoffset:0;stroke-opacity:1;color-rendering:auto;image-rendering:auto;shape-rendering:auto;text-rendering:auto;enable-background:accumulate" />
    <path
       sodipodi:nodetypes="csc"
       inkscape:connector-curvature="0"
       style="color:#000000;clip-rule:nonzero;display:inline;overflow:visible;visibility:visible;opacity:1;isolation:auto;mix-blend-mode:normal;color-interpolation:sRGB;color-interpolation-filters:linearRGB;solid-color:#000000;solid-opacity:1;fill:#4682b4;fill-opacity:1;fill-rule:nonzero;stroke:#333333;stroke-width:0.901272;stroke-linecap:round;stroke-linejoin:round;stroke-miterlimit:4;stroke-dasharray:none;stroke-dashoffset:0;stroke-opacity:1;color-rendering:auto;image-rendering:auto;shape-rendering:auto;text-rendering:auto;enable-background:accumulate"
       d="m 179.56114,238.62495 c 0,0.70752 -1.84479,1.34661 -4.13203,1.34661 -2.28724,0 -4.12265,-0.6391 -4.12265,-1.34661"
       id="path4353" />
    <path
       sodipodi:nodetypes="csc"
       inkscape:connector-curvature="0"
       id="path4438"
       d="m 248.17406,248.74536 c 0,13.91412 -31.91578,23.52519 -72.95024,23.52519 -41.03446,0 -72.82483,-11.41101 -73.54004,-25.30681"
       style="color:#000000;clip-rule:nonzero;display:inline;overflow:visible;visibility:visible;opacity:1;isolation:auto;mix-blend-mode:normal;color-interpolation:sRGB;color-interpolation-filters:linearRGB;solid-color:#000000;solid-opacity:1;fill:none;fill-opacity:1;fill-rule:nonzero;stroke:#ff6347;stroke-width:0.901272;stroke-linecap:round;stroke-linejoin:round;stroke-miterlimit:4;stroke-dasharray:none;stroke-dashoffset:0;stroke-opacity:1;color-rendering:auto;image-rendering:auto;shape-rendering:auto;text-rendering:auto;enable-background:accumulate" />
    <path
       style="color:#000000;clip-rule:nonzero;display:inline;overflow:visible;visibility:visible;opacity:1;isolation:auto;mix-blend-mode:normal;color-interpolation:sRGB;color-interpolation-filters:linearRGB;solid-color:#000000;solid-opacity:1;fill:url(#radialGradient4436);fill-opacity:1;fill-rule:nonzero;stroke:#333333;stroke-width:0.901272;stroke-linecap:round;stroke-linejoin:round;stroke-miterlimit:4;stroke-dasharray:none;stroke-dashoffset:0;stroke-opacity:1;color-rendering:auto;image-rendering:auto;shape-rendering:auto;text-rendering:auto;enable-background:accumulate"
       d="m 153.95017,263.0492 -0.41644,15.11008"
       id="path4360"
       inkscape:connector-curvature="0"
       sodipodi:nodetypes="cc" />
    <path
       style="fill:#ff6347;fill-opacity:1;fill-rule:evenodd;stroke:none;stroke-width:0.450636px;stroke-linecap:round;stroke-linejoin:round;stroke-opacity:1"
       d="m 115.48202,265.54186 -0.15855,-2.6368 2.58957,-2.26766 4.65065,-0.84377 3.22375,1.58208 0.79273,1.37114 -0.26424,6.38106 3.32944,-1.26567 3.43514,-2.47859 -0.49312,9.62178 -5.1088,2.87123 -5.07344,0.22829 -4.65066,-2.3323 -2.53672,-2.6368 z"
       id="path4506"
       inkscape:connector-curvature="0"
       sodipodi:nodetypes="ccccccccccccccc" />
    <path
       style="color:#000000;clip-rule:nonzero;display:inline;overflow:visible;visibility:visible;opacity:1;isolation:auto;mix-blend-mode:normal;color-interpolation:sRGB;color-interpolation-filters:linearRGB;solid-color:#000000;solid-opacity:1;fill:#ff6347;fill-opacity:1;fill-rule:nonzero;stroke:none;stroke-width:0.901272;stroke-linecap:round;stroke-linejoin:round;stroke-miterlimit:4;stroke-dasharray:none;stroke-dashoffset:0;stroke-opacity:1;color-rendering:auto;image-rendering:auto;shape-rendering:auto;text-rendering:auto;enable-background:accumulate"
       d="m 132.87823,274.51112 -0.0865,-2.24032 c -0.0775,-2.00777 0.34699,-9.48875 -0.0277,-10.20621 -0.41429,-0.79342 -3.01071,-2.841 -3.91973,-3.471 6.76655,2.16875 18.29119,3.82995 24.72791,4.55766 -0.12613,4.98409 -0.2635,10.31204 -0.32091,14.65159 -6.60213,-0.40528 -14.50994,-2.07099 -20.37318,-3.29172 z"
       id="path4510"
       inkscape:connector-curvature="0"
       sodipodi:nodetypes="csscccc" />
    <path
       id="path4483"
       style="fill:none;fill-rule:evenodd;stroke:#333333;stroke-width:0.901272;stroke-linecap:round;stroke-linejoin:round;stroke-miterlimit:4;stroke-dasharray:none;stroke-opacity:1"
       d="m 132.88381,264.81472 c 0.10735,3.86382 -0.0557,6.98317 -0.001,9.82775 -4.80868,4.99369 -13.3925,4.66501 -17.57899,-1.36577 0,0 0.15021,-6.79204 0.0686,-9.21956 m 6.5918,-7.87379 c 3.77274,1.15692 11.26893,3.61174 10.92444,8.16138 -0.27737,3.66324 -6.6099,5.28975 -9.70156,5.28312 -3.09165,-0.007 -7.64072,-2.18447 -7.82646,-5.32857 -0.12905,-2.18437 2.79553,-3.97464 4.96397,-4.31281 2.18074,-0.3401 6.02916,0.67419 6.08221,2.61021 0.055,2.00786 -3.50191,2.8641 -5.50244,2.56083 l -0.0732,4.05847 m 5.56598,-0.0476 v -5.891"
       inkscape:connector-curvature="0"
       sodipodi:nodetypes="cccccssssscccc" />
    <path
       style="color:#000000;clip-rule:nonzero;display:inline;overflow:visible;visibility:visible;opacity:1;isolation:auto;mix-blend-mode:normal;color-interpolation:sRGB;color-interpolation-filters:linearRGB;solid-color:#000000;solid-opacity:1;fill:#f0e68c;fill-opacity:1;fill-rule:nonzero;stroke:none;stroke-width:0.901272;stroke-linecap:round;stroke-linejoin:round;stroke-miterlimit:4;stroke-dasharray:none;stroke-dashoffset:0;stroke-opacity:1;color-rendering:auto;image-rendering:auto;shape-rendering:auto;text-rendering:auto;enable-background:accumulate"
       d="m 121.15479,269.03216 c 0.003,-1.1702 0.0236,-2.47164 0.013,-3.5123 1.76659,0.0221 3.64856,-0.27253 4.90878,-1.39216 l -1e-5,4.83489 c -1.73774,0.43029 -3.15695,0.49592 -4.92178,0.0819 z"
       id="path4508"
       inkscape:connector-curvature="0"
       sodipodi:nodetypes="cccccc" />
    <path
       inkscape:connector-curvature="0"
       id="path6156"
       d="m 103.15911,248.13785 v 6.75954"
       style="fill:none;fill-rule:evenodd;stroke:#333333;stroke-width:0.901272;stroke-linecap:round;stroke-linejoin:round;stroke-miterlimit:4;stroke-dasharray:none;stroke-opacity:1" />
    <path
       inkscape:connector-curvature="0"
       id="path6158"
       d="m 106.11213,251.74294 v 6.75954"
       style="fill:none;fill-rule:evenodd;stroke:#333333;stroke-width:0.901272;stroke-linecap:round;stroke-linejoin:round;stroke-miterlimit:4;stroke-dasharray:none;stroke-opacity:1" />
    <path
       style="fill:none;fill-rule:evenodd;stroke:#333333;stroke-width:0.901272;stroke-linecap:round;stroke-linejoin:round;stroke-miterlimit:4;stroke-dasharray:none;stroke-opacity:1"
       d="m 110.44612,255.34803 v 6.75953"
       id="path6160"
       inkscape:connector-curvature="0" />
    <path
       style="fill:none;fill-rule:evenodd;stroke:#333333;stroke-width:0.901272;stroke-linecap:round;stroke-linejoin:round;stroke-miterlimit:4;stroke-dasharray:none;stroke-opacity:1"
       d="m 157.88747,268.29186 v 6.75954"
       id="path6178"
       inkscape:connector-curvature="0" />
    <path
       inkscape:connector-curvature="0"
       id="path6180"
       d="m 166.90019,268.8671 v 6.75954"
       style="fill:none;fill-rule:evenodd;stroke:#333333;stroke-width:0.901272;stroke-linecap:round;stroke-linejoin:round;stroke-miterlimit:4;stroke-dasharray:none;stroke-opacity:1" />
    <path
       inkscape:connector-curvature="0"
       id="path6182"
       d="m 175.91291,268.8671 v 6.75954"
       style="fill:none;fill-rule:evenodd;stroke:#333333;stroke-width:0.901272;stroke-linecap:round;stroke-linejoin:round;stroke-miterlimit:4;stroke-dasharray:none;stroke-opacity:1" />
    <path
       style="fill:none;fill-rule:evenodd;stroke:#333333;stroke-width:0.901272;stroke-linecap:round;stroke-linejoin:round;stroke-miterlimit:4;stroke-dasharray:none;stroke-opacity:1"
       d="m 184.92562,268.8671 v 6.75954"
       id="path6184"
       inkscape:connector-curvature="0" />
    <path
       inkscape:connector-curvature="0"
       id="path6186"
       d="m 193.93834,268.29186 v 6.75954"
       style="fill:none;fill-rule:evenodd;stroke:#333333;stroke-width:0.901272;stroke-linecap:round;stroke-linejoin:round;stroke-miterlimit:4;stroke-dasharray:none;stroke-opacity:1" />
    <path
       style="fill:none;fill-rule:evenodd;stroke:#333333;stroke-width:0.901272;stroke-linecap:round;stroke-linejoin:round;stroke-miterlimit:4;stroke-dasharray:none;stroke-opacity:1"
       d="m 202.95105,267.06456 v 6.75953"
       id="path6188"
       inkscape:connector-curvature="0" />
    <path
       style="fill:none;fill-rule:evenodd;stroke:#333333;stroke-width:0.901272;stroke-linecap:round;stroke-linejoin:round;stroke-miterlimit:4;stroke-dasharray:none;stroke-opacity:1"
       d="m 211.96377,265.51121 v 6.75954"
       id="path6190"
       inkscape:connector-curvature="0" />
    <path
       inkscape:connector-curvature="0"
       id="path6192"
       d="m 220.07521,263.95787 v 6.75954"
       style="fill:none;fill-rule:evenodd;stroke:#333333;stroke-width:0.901272;stroke-linecap:round;stroke-linejoin:round;stroke-miterlimit:4;stroke-dasharray:none;stroke-opacity:1" />
    <path
       style="fill:none;fill-rule:evenodd;stroke:#333333;stroke-width:0.901272;stroke-linecap:round;stroke-linejoin:round;stroke-miterlimit:4;stroke-dasharray:none;stroke-opacity:1"
       d="M 227.28539,261.75246 V 268.512"
       id="path6194"
       inkscape:connector-curvature="0" />
    <path
       inkscape:connector-curvature="0"
       id="path6196"
       d="m 239.00192,257.07374 v 6.75953"
       style="fill:none;fill-rule:evenodd;stroke:#333333;stroke-width:0.901272;stroke-linecap:round;stroke-linejoin:round;stroke-miterlimit:4;stroke-dasharray:none;stroke-opacity:1" />
    <path
       inkscape:connector-curvature="0"
       id="path6198"
       d="m 246.21209,251.66611 v 6.75953"
       style="fill:none;fill-rule:evenodd;stroke:#333333;stroke-width:0.901272;stroke-linecap:round;stroke-linejoin:round;stroke-miterlimit:4;stroke-dasharray:none;stroke-opacity:1" />
    <path
       inkscape:connector-curvature="0"
       id="path6312"
       d="m 115.52771,258.05184 v 6.75954"
       style="fill:none;fill-rule:evenodd;stroke:#333333;stroke-width:0.901272;stroke-linecap:round;stroke-linejoin:round;stroke-miterlimit:4;stroke-dasharray:none;stroke-opacity:1" />
    <path
       style="fill:none;fill-rule:evenodd;stroke:#333333;stroke-width:0.901272;stroke-linecap:round;stroke-linejoin:round;stroke-miterlimit:4;stroke-dasharray:none;stroke-opacity:1"
       d="m 242.607,254.36992 v 6.75954"
       id="path6314"
       inkscape:connector-curvature="0" />
    <path
       style="fill:none;fill-rule:evenodd;stroke:#333333;stroke-width:0.901272;stroke-linecap:round;stroke-linejoin:round;stroke-miterlimit:4;stroke-dasharray:none;stroke-opacity:1"
       d="m 233.59429,259.77755 v 6.75954"
       id="path6316"
       inkscape:connector-curvature="0" />
    <path
       style="fill:none;fill-rule:evenodd;stroke:#333333;stroke-width:1.35191;stroke-linecap:round;stroke-linejoin:round;stroke-miterlimit:4;stroke-dasharray:none;stroke-opacity:1"
       d="m 156.52666,212.51956 3.52427,-2.2564 -51.23256,-63.50853 z"
       id="path4858"
       inkscape:connector-curvature="0" />
    <text
       id="text30120"
       y="207.6933"
       x="295.75192"
       style="font-style:italic;font-variant:normal;font-weight:normal;font-stretch:normal;font-size:10px;line-height:0%;font-family:'EB Garamond';-inkscape-font-specification:'EB Garamond Italic';font-variant-ligatures:normal;font-variant-caps:normal;font-variant-numeric:normal;font-variant-east-asian:normal;text-align:start;letter-spacing:0px;word-spacing:0px;writing-mode:lr-tb;text-anchor:start;fill:#000000;fill-opacity:1;stroke:none;stroke-width:0.450636px;stroke-linecap:round;stroke-linejoin:round;stroke-opacity:1"
       xml:space="preserve"><tspan
         y="207.6933"
         x="295.75192"
         id="tspan30118"
         sodipodi:role="line"
         style="font-style:italic;font-variant:normal;font-weight:normal;font-stretch:normal;font-size:10px;line-height:1.25;font-family:'EB Garamond';-inkscape-font-specification:'EB Garamond Italic';font-variant-ligatures:normal;font-variant-caps:normal;font-variant-numeric:normal;font-variant-east-asian:normal;fill:#000000;stroke-width:0.450636px;stroke-linecap:round;stroke-linejoin:round">x</tspan></text>
  </g>
</svg>
