<?xml version="1.0" encoding="UTF-8" standalone="no"?>
<!-- Created with Inkscape (http://www.inkscape.org/) -->

<svg
   width="45.161682mm"
   height="45.585686mm"
   viewBox="0 0 45.161682 45.585686"
   version="1.1"
   id="svg19090"
   xml:space="preserve"
   inkscape:version="1.2.2 (b0a8486, 2022-12-01)"
   sodipodi:docname="neutron-dist.svg"
   xmlns:inkscape="http://www.inkscape.org/namespaces/inkscape"
   xmlns:sodipodi="http://sodipodi.sourceforge.net/DTD/sodipodi-0.dtd"
   xmlns="http://www.w3.org/2000/svg"
   xmlns:svg="http://www.w3.org/2000/svg"><sodipodi:namedview
     id="namedview19092"
     pagecolor="#ffffff"
     bordercolor="#666666"
     borderopacity="1.0"
     inkscape:showpageshadow="2"
     inkscape:pageopacity="0.0"
     inkscape:pagecheckerboard="0"
     inkscape:deskcolor="#d1d1d1"
     inkscape:document-units="mm"
     showgrid="false"
     inkscape:zoom="1.9716607"
     inkscape:cx="76.838779"
     inkscape:cy="78.360339"
     inkscape:window-width="1309"
     inkscape:window-height="775"
     inkscape:window-x="0"
     inkscape:window-y="0"
     inkscape:window-maximized="0"
     inkscape:current-layer="layer1" /><defs
     id="defs19087"><marker
       style="overflow:visible"
       id="Arrow1L"
       refX="0"
       refY="0"
       orient="auto-start-reverse"
       inkscape:stockid="Arrow1L"
       markerWidth="8.75"
       markerHeight="5"
       viewBox="0 0 8.75 5"
       inkscape:isstock="true"
       inkscape:collect="always"
       preserveAspectRatio="xMidYMid"><path
         style="fill:context-stroke;fill-rule:evenodd;stroke:none"
         d="M 0,0 5,-5 -12.5,0 5,5 Z"
         id="arrow1L"
         transform="scale(-0.5)" /></marker></defs><g
     inkscape:label="Layer 1"
     inkscape:groupmode="layer"
     id="layer1"
     transform="translate(-64.939692,-144.32842)"><path
       style="fill:#ff80b2;stroke:#333333;stroke-width:0.264583px;stroke-linecap:round;stroke-linejoin:round;stroke-opacity:1"
       d="m 68.673336,171.12979 1.073544,0.26839 0.503225,0.12659 c -0.01833,-5.06143 0.284139,-10.11115 0.536773,-15.16383 0.0375,-1.09543 0.164312,-1.81383 0.771613,-1.84515 0.607301,-0.0313 0.613715,4.04597 0.771609,5.80385 0,0 0.283731,9.36334 0.369033,10.03094 0.0853,0.6676 0.07828,1.73288 0.559795,1.89429 1.6772,-1.25765 0.600198,-13.50618 1.587294,-13.56909 0.987096,-0.0629 -0.398633,14.49805 1.744512,14.61025 1.126277,-1.04659 0.423458,-5.90294 1.107093,-5.9884 0.436177,0.0998 0.466845,1.30605 0.536771,1.77805 0.201223,1.67634 0.07315,2.98824 0.201291,4.64895 0.869757,0.36234 1.59171,0.38157 2.314833,0.63742 0.338233,0.11967 0.462965,-4.62169 0.469677,-5.92378 0.01746,-3.18471 0.381141,-18.48585 1.006448,-18.48511 0.625307,7.4e-4 1.047651,23.61524 1.409032,25.09412 0.361381,1.47888 0.851884,-4.28036 1.174189,-4.29414 0.322305,-0.0138 0.744056,4.52392 0.872255,5.90565 l 2.228084,0.9336 c 0.944224,-1.22359 0.941667,-4.90854 1.313146,-4.91379 0.371479,-0.005 0.113531,4.14271 0.451013,4.21388 0,0 0.451282,-0.042 0.670965,0 0.342999,-2.20425 0.800896,-13.02308 1.325163,-13.0335 0.391149,0.041 0.541286,10.32875 1.090324,15.44898 1.02605,0.11177 1.29155,-4.1298 1.620348,-4.06238 0.328798,0.0674 0.659117,4.66685 0.815477,5.71134 0.652519,0.31557 1.179277,0.47078 1.619461,0.70254 0.301968,-0.92995 0.567241,-2.68594 0.909861,-2.65339 0.34262,0.0326 0.52555,2.06786 0.704513,3.21993 l 0.493398,0.18978 c 0.220259,-1.54362 -0.01387,-9.23134 0.378858,-9.21357 0.392728,0.0178 0.763726,7.48487 0.872256,9.77168 l 0.57032,0.2528 c 0.41733,-1.06807 0.29622,-2.33675 0.80517,-2.3587 0.4992,0.0444 0.69298,1.69256 0.81329,3.0527 0.46731,0.12779 0.8893,0.36599 1.33379,0.5202 0.0818,-0.49261 0.31609,-2.97147 0.67097,-2.9187 0.3157,0.0526 0.43613,3.38837 0.43613,3.38837 l 0.43612,0.20129 c 0.20971,-0.67053 0.7131,-2.05403 0.9729,-1.94579 0.2598,0.10824 0.66258,3.39677 0.66258,3.39677 l -0.0252,-0.10904 -10.373879,-4.22712 -14.988642,-6.03869 -12.848992,-3.92515 z"
       id="path24355"
       sodipodi:nodetypes="cccczczczccccsczzzcczsccczcczcczcccccccczcccccc" /><path
       style="fill:#fff6d5;stroke:none;stroke-width:0.264583px;stroke-linecap:round;stroke-linejoin:round;stroke-opacity:1"
       d="m 68.704774,171.84375 12.330324,3.79555 14.233332,5.78823 8.91955,3.4843 4.03878,1.81792 -39.586973,-0.80517 z"
       id="path20630" /><path
       style="fill:none;stroke:#333333;stroke-width:0.3;stroke-linecap:round;stroke-linejoin:round;stroke-dasharray:none;stroke-opacity:1;marker-end:url(#Arrow1L)"
       d="m 68.639787,185.92458 0.0671,-39.72116"
       id="path20558" /><path
       style="fill:none;stroke:#333333;stroke-width:0.3;stroke-linecap:round;stroke-linejoin:round;stroke-dasharray:none;stroke-opacity:1;marker-end:url(#Arrow1L)"
       d="m 68.639787,185.92458 39.586973,0.80517"
       id="path20604"
       sodipodi:nodetypes="cc" /><text
       xml:space="preserve"
       style="font-size:3.175px;line-height:0.65;font-family:'EB Garamond';-inkscape-font-specification:'EB Garamond, Normal';text-align:end;letter-spacing:0.396875px;word-spacing:0px;text-anchor:end;stroke-width:0.264583;stroke-linecap:round;stroke-linejoin:round"
       x="67.511589"
       y="189.45831"
       id="text20618"><tspan
         sodipodi:role="line"
         id="tspan20616"
         style="font-size:3.175px;stroke-width:0.264583;stroke-linecap:round;stroke-linejoin:round"
         x="67.908463"
         y="189.45831">0</tspan></text><text
       xml:space="preserve"
       style="font-size:3.175px;line-height:0.65;font-family:'EB Garamond';-inkscape-font-specification:'EB Garamond, Normal';text-align:end;letter-spacing:0.396875px;word-spacing:0px;text-anchor:end;stroke-width:0.264583;stroke-linecap:round;stroke-linejoin:round"
       x="105.89355"
       y="189.86966"
       id="text20622"><tspan
         sodipodi:role="line"
         id="tspan20620"
         style="font-style:italic;font-size:3.175px;stroke-width:0.264583;stroke-linecap:round;stroke-linejoin:round"
         x="106.29042"
         y="189.86966">x</tspan></text><text
       xml:space="preserve"
       style="font-size:3.175px;line-height:0.65;font-family:'EB Garamond';-inkscape-font-specification:'EB Garamond, Normal';text-align:end;letter-spacing:0.396875px;word-spacing:0px;text-anchor:end;stroke-width:0.264583;stroke-linecap:round;stroke-linejoin:round"
       x="66.758965"
       y="146.84438"
       id="text20626"><tspan
         sodipodi:role="line"
         id="tspan20624"
         style="font-style:italic;font-size:3.175px;stroke-width:0.264583;stroke-linecap:round;stroke-linejoin:round"
         x="67.155838"
         y="146.84438">w</tspan></text><path
       style="fill:none;stroke:#333333;stroke-width:0.264583px;stroke-linecap:round;stroke-linejoin:round;stroke-dasharray:1.05833, 0.529166;stroke-dashoffset:0;stroke-opacity:1"
       d="m 68.679613,171.91923 6.025722,1.73053 6.321376,2.07341 7.085749,2.78845 7.15597,2.91591 6.89646,2.79897 5.88982,2.31931"
       id="path20628"
       sodipodi:nodetypes="ccccccc" /></g></svg>
