<?xml version="1.0" encoding="UTF-8" standalone="no"?>
<!-- Created with Inkscape (http://www.inkscape.org/) -->

<svg
   width="52.732662mm"
   height="39.965748mm"
   viewBox="0 0 52.732662 39.965748"
   version="1.1"
   id="svg6128"
   xml:space="preserve"
   inkscape:version="1.2.2 (b0a8486, 2022-12-01)"
   sodipodi:docname="selection-amp.svg"
   xmlns:inkscape="http://www.inkscape.org/namespaces/inkscape"
   xmlns:sodipodi="http://sodipodi.sourceforge.net/DTD/sodipodi-0.dtd"
   xmlns="http://www.w3.org/2000/svg"
   xmlns:svg="http://www.w3.org/2000/svg"><sodipodi:namedview
     id="namedview6130"
     pagecolor="#ffffff"
     bordercolor="#666666"
     borderopacity="1.0"
     inkscape:showpageshadow="2"
     inkscape:pageopacity="0.0"
     inkscape:pagecheckerboard="0"
     inkscape:deskcolor="#d1d1d1"
     inkscape:document-units="mm"
     showgrid="false"
     showguides="true"
     inkscape:zoom="1.7374102"
     inkscape:cx="98.710137"
     inkscape:cy="82.881981"
     inkscape:window-width="1440"
     inkscape:window-height="878"
     inkscape:window-x="0"
     inkscape:window-y="0"
     inkscape:window-maximized="1"
     inkscape:current-layer="layer1" /><defs
     id="defs6125"><marker
       style="overflow:visible"
       id="marker7297"
       refX="0"
       refY="0"
       orient="auto-start-reverse"
       inkscape:stockid="Arrow1L"
       markerWidth="8.75"
       markerHeight="5"
       viewBox="0 0 8.75 5"
       inkscape:isstock="true"
       inkscape:collect="always"
       preserveAspectRatio="xMidYMid"><path
         style="fill:context-stroke;fill-rule:evenodd;stroke:none"
         d="M 0,0 5,-5 -12.5,0 5,5 Z"
         id="path7295"
         transform="scale(-0.5)" /></marker><marker
       style="overflow:visible"
       id="Arrow1L"
       refX="0"
       refY="0"
       orient="auto-start-reverse"
       inkscape:stockid="Arrow1L"
       markerWidth="8.75"
       markerHeight="5"
       viewBox="0 0 8.75 5"
       inkscape:isstock="true"
       inkscape:collect="always"
       preserveAspectRatio="xMidYMid"><path
         style="fill:context-stroke;fill-rule:evenodd;stroke:none"
         d="M 0,0 5,-5 -12.5,0 5,5 Z"
         id="arrow1L"
         transform="scale(-0.5)" /></marker></defs><g
     inkscape:label="Layer 1"
     inkscape:groupmode="layer"
     id="layer1"
     transform="translate(-82.599896,-144.4843)"><rect
       style="font-variation-settings:normal;fill:#ffaacc;fill-opacity:1;stroke:#333333;stroke-width:0.4;stroke-linecap:round;stroke-linejoin:round;stroke-miterlimit:4;stroke-dasharray:none;stroke-dashoffset:0;stroke-opacity:1;stop-color:#000000"
       id="rect6932"
       width="25.980242"
       height="31.04841"
       x="92.730812"
       y="144.94196" /><path
       id="path7202"
       style="font-variation-settings:normal;fill:#ffcc00;fill-opacity:1;stroke:#333333;stroke-width:0.4;stroke-linecap:round;stroke-linejoin:round;stroke-miterlimit:4;stroke-dasharray:none;stroke-dashoffset:0;stroke-opacity:1;stop-color:#000000"
       inkscape:transform-center-x="-0.62057887"
       inkscape:transform-center-y="-0.076860077"
       d="m 95.290903,153.94946 5.26e-4,1.83151 h -8.957377 v 1.89875 h 8.958942 l 5.26e-4,1.83088 1.896917,-2.78306 z"
       sodipodi:nodetypes="cccccccc" /><path
       id="path7059"
       style="font-variation-settings:normal;fill:#ffcc00;fill-opacity:1;stroke:#333333;stroke-width:0.4;stroke-linecap:round;stroke-linejoin:round;stroke-miterlimit:4;stroke-dasharray:none;stroke-dashoffset:0;stroke-opacity:1;stop-color:#000000"
       inkscape:transform-center-x="-0.62057958"
       inkscape:transform-center-y="-0.076860077"
       d="m 120.94787,153.94946 5.2e-4,1.83151 H 99.697049 v 1.89875 h 21.252911 l 5.2e-4,1.83088 1.89692,-2.78306 z"
       sodipodi:nodetypes="cccccccc" /><rect
       style="fill:#d5f6ff;stroke:#333333;stroke-width:0.4;stroke-linecap:round;stroke-linejoin:round;stroke-dasharray:none;stroke-dashoffset:0;stop-color:#000000"
       id="rect6922"
       width="7.2145686"
       height="10.950685"
       x="82.799896"
       y="151.25468" /><rect
       style="fill:#d5f6ff;stroke:#333333;stroke-width:0.4;stroke-linecap:round;stroke-linejoin:round;stroke-dasharray:none;stroke-dashoffset:0;stop-color:#000000"
       id="rect6924"
       width="4.8956003"
       height="14.815632"
       x="97.473022"
       y="149.32222" /><rect
       style="fill:#d5f6ff;stroke:#333333;stroke-width:0.4;stroke-linecap:round;stroke-linejoin:round;stroke-dasharray:none;stroke-dashoffset:0;stop-color:#000000"
       id="rect6926"
       width="5.4109268"
       height="15.073296"
       x="104.81643"
       y="149.19337" /><rect
       style="fill:#d5f6ff;stroke:#333333;stroke-width:0.4;stroke-linecap:round;stroke-linejoin:round;stroke-dasharray:none;stroke-dashoffset:0;stop-color:#000000"
       id="rect6928"
       width="4.122611"
       height="10.306527"
       x="112.67516"
       y="151.57675" /><rect
       style="fill:#d5f6ff;stroke:#333333;stroke-width:0.4;stroke-linecap:round;stroke-linejoin:round;stroke-dasharray:none;stroke-dashoffset:0;stop-color:#000000"
       id="rect6930"
       width="3.9937794"
       height="6.4415803"
       x="112.80399"
       y="166.19914" /><rect
       style="font-variation-settings:normal;fill:#fff6d5;fill-opacity:1;stroke:#333333;stroke-width:0.4;stroke-linecap:round;stroke-linejoin:round;stroke-miterlimit:4;stroke-dasharray:none;stroke-dashoffset:0;stroke-opacity:1;stop-color:#000000"
       id="rect7005"
       width="11.983654"
       height="30.919579"
       x="123.1489"
       y="144.6843" /><path
       style="fill:none;stroke:#000000;stroke-width:0.4;stroke-linecap:round;stroke-linejoin:round;stroke-dasharray:none;stroke-opacity:1;marker-end:url(#marker7297)"
       d="m 107.5219,164.26666 v 5.15326 l 2.6202,1e-5"
       id="path7273"
       sodipodi:nodetypes="ccc" /><path
       style="fill:none;stroke:#000000;stroke-width:0.4;stroke-linecap:round;stroke-linejoin:round;stroke-dasharray:none;stroke-opacity:1;marker-end:url(#Arrow1L)"
       d="m 114.73647,166.19914 v -2.11871"
       id="path7275"
       sodipodi:nodetypes="cc" /><text
       xml:space="preserve"
       style="font-style:normal;font-variant:normal;font-weight:normal;font-stretch:normal;font-size:3.175px;line-height:0.65;font-family:'EB Garamond';-inkscape-font-specification:'EB Garamond, Normal';font-variant-ligatures:normal;font-variant-caps:normal;font-variant-numeric:normal;font-variant-east-asian:normal;text-align:end;letter-spacing:0.40089px;word-spacing:0px;text-anchor:end;stroke-width:0.4;stroke-dasharray:none"
       x="87.381638"
       y="157.8438"
       id="text7341"><tspan
         sodipodi:role="line"
         id="tspan7339"
         style="font-style:normal;font-variant:normal;font-weight:normal;font-stretch:normal;font-size:3.175px;font-family:'EB Garamond';-inkscape-font-specification:'EB Garamond, Normal';font-variant-ligatures:normal;font-variant-caps:normal;font-variant-numeric:normal;font-variant-east-asian:normal;stroke-width:0.4;stroke-dasharray:none"
         x="87.782524"
         y="157.8438">1</tspan></text><text
       xml:space="preserve"
       style="font-style:normal;font-variant:normal;font-weight:normal;font-stretch:normal;font-size:3.175px;line-height:0.65;font-family:'EB Garamond';-inkscape-font-specification:'EB Garamond, Normal';font-variant-ligatures:normal;font-variant-caps:normal;font-variant-numeric:normal;font-variant-east-asian:normal;text-align:end;letter-spacing:0.40089px;word-spacing:0px;text-anchor:end;stroke-width:0.4;stroke-dasharray:none"
       x="100.74464"
       y="157.8438"
       id="text7345"><tspan
         sodipodi:role="line"
         id="tspan7343"
         style="font-style:normal;font-variant:normal;font-weight:normal;font-stretch:normal;font-size:3.175px;font-family:'EB Garamond';-inkscape-font-specification:'EB Garamond, Normal';font-variant-ligatures:normal;font-variant-caps:normal;font-variant-numeric:normal;font-variant-east-asian:normal;stroke-width:0.4;stroke-dasharray:none"
         x="101.14552"
         y="157.8438">2</tspan></text><text
       xml:space="preserve"
       style="font-style:normal;font-variant:normal;font-weight:normal;font-stretch:normal;font-size:3.175px;line-height:0.65;font-family:'EB Garamond';-inkscape-font-specification:'EB Garamond, Normal';font-variant-ligatures:normal;font-variant-caps:normal;font-variant-numeric:normal;font-variant-east-asian:normal;text-align:end;letter-spacing:0.40089px;word-spacing:0px;text-anchor:end;stroke-width:0.4;stroke-dasharray:none"
       x="108.22792"
       y="157.8438"
       id="text7349"><tspan
         sodipodi:role="line"
         id="tspan7347"
         style="font-style:normal;font-variant:normal;font-weight:normal;font-stretch:normal;font-size:3.175px;font-family:'EB Garamond';-inkscape-font-specification:'EB Garamond, Normal';font-variant-ligatures:normal;font-variant-caps:normal;font-variant-numeric:normal;font-variant-east-asian:normal;stroke-width:0.4;stroke-dasharray:none"
         x="108.62881"
         y="157.8438">3</tspan></text><text
       xml:space="preserve"
       style="font-style:normal;font-variant:normal;font-weight:normal;font-stretch:normal;font-size:3.175px;line-height:0.65;font-family:'EB Garamond';-inkscape-font-specification:'EB Garamond, Normal';font-variant-ligatures:normal;font-variant-caps:normal;font-variant-numeric:normal;font-variant-east-asian:normal;text-align:end;letter-spacing:0.40089px;word-spacing:0px;text-anchor:end;stroke-width:0.4;stroke-dasharray:none"
       x="115.54363"
       y="170.47363"
       id="text7353"><tspan
         sodipodi:role="line"
         id="tspan7351"
         style="font-style:normal;font-variant:normal;font-weight:normal;font-stretch:normal;font-size:3.175px;font-family:'EB Garamond';-inkscape-font-specification:'EB Garamond, Normal';font-variant-ligatures:normal;font-variant-caps:normal;font-variant-numeric:normal;font-variant-east-asian:normal;stroke-width:0.4;stroke-dasharray:none"
         x="115.94452"
         y="170.47363">4</tspan></text><text
       xml:space="preserve"
       style="font-style:normal;font-variant:normal;font-weight:normal;font-stretch:normal;font-size:3.175px;line-height:0.65;font-family:'EB Garamond';-inkscape-font-specification:'EB Garamond, Normal';font-variant-ligatures:normal;font-variant-caps:normal;font-variant-numeric:normal;font-variant-east-asian:normal;text-align:end;letter-spacing:0.40089px;word-spacing:0px;text-anchor:end;stroke-width:0.4;stroke-dasharray:none"
       x="115.58577"
       y="157.89029"
       id="text7357"><tspan
         sodipodi:role="line"
         id="tspan7355"
         style="font-style:normal;font-variant:normal;font-weight:normal;font-stretch:normal;font-size:3.175px;font-family:'EB Garamond';-inkscape-font-specification:'EB Garamond, Normal';font-variant-ligatures:normal;font-variant-caps:normal;font-variant-numeric:normal;font-variant-east-asian:normal;stroke-width:0.4;stroke-dasharray:none"
         x="115.98666"
         y="157.89029">5</tspan></text><text
       xml:space="preserve"
       style="font-style:normal;font-variant:normal;font-weight:normal;font-stretch:normal;font-size:3.175px;line-height:1;font-family:'EB Garamond';-inkscape-font-specification:'EB Garamond, Normal';font-variant-ligatures:normal;font-variant-caps:normal;font-variant-numeric:normal;font-variant-east-asian:normal;text-align:center;letter-spacing:0px;word-spacing:0px;text-anchor:middle;stroke-width:0.4;stroke-dasharray:none"
       x="106.49803"
       y="180.35429"
       id="text7361"><tspan
         sodipodi:role="line"
         id="tspan7359"
         style="font-style:normal;font-variant:normal;font-weight:normal;font-stretch:normal;font-size:3.175px;font-family:'EB Garamond';-inkscape-font-specification:'EB Garamond, Normal';font-variant-ligatures:normal;font-variant-caps:normal;font-variant-numeric:normal;font-variant-east-asian:normal;text-align:center;text-anchor:middle;stroke-width:0.4;stroke-dasharray:none"
         x="106.49803"
         y="180.35429">Amplifier's first</tspan><tspan
         sodipodi:role="line"
         style="font-style:normal;font-variant:normal;font-weight:normal;font-stretch:normal;font-size:3.175px;font-family:'EB Garamond';-inkscape-font-specification:'EB Garamond, Normal';font-variant-ligatures:normal;font-variant-caps:normal;font-variant-numeric:normal;font-variant-east-asian:normal;text-align:center;text-anchor:middle;stroke-width:0.4;stroke-dasharray:none"
         x="106.49803"
         y="183.5293"
         id="tspan7363">stage</tspan></text><text
       xml:space="preserve"
       style="font-style:normal;font-variant:normal;font-weight:normal;font-stretch:normal;font-size:3.175px;line-height:1;font-family:'EB Garamond';-inkscape-font-specification:'EB Garamond, Normal';font-variant-ligatures:normal;font-variant-caps:normal;font-variant-numeric:normal;font-variant-east-asian:normal;text-align:center;letter-spacing:0px;word-spacing:0px;text-anchor:middle;stroke-width:0.4;stroke-dasharray:none"
       x="129.08781"
       y="180.35039"
       id="text7369"><tspan
         sodipodi:role="line"
         id="tspan7365"
         style="font-style:normal;font-variant:normal;font-weight:normal;font-stretch:normal;font-size:3.175px;font-family:'EB Garamond';-inkscape-font-specification:'EB Garamond, Normal';font-variant-ligatures:normal;font-variant-caps:normal;font-variant-numeric:normal;font-variant-east-asian:normal;text-align:center;text-anchor:middle;stroke-width:0.4;stroke-dasharray:none"
         x="129.08781"
         y="180.35039">Second</tspan><tspan
         sodipodi:role="line"
         style="font-style:normal;font-variant:normal;font-weight:normal;font-stretch:normal;font-size:3.175px;font-family:'EB Garamond';-inkscape-font-specification:'EB Garamond, Normal';font-variant-ligatures:normal;font-variant-caps:normal;font-variant-numeric:normal;font-variant-east-asian:normal;text-align:center;text-anchor:middle;stroke-width:0.4;stroke-dasharray:none"
         x="129.08781"
         y="183.52539"
         id="tspan7367">stage</tspan></text></g></svg>
