<?xml version="1.0" encoding="UTF-8" standalone="no"?>
<svg
   width="275.00827"
   height="275"
   viewBox="0 0 275.00827 275"
   id="svg2"
   version="1.1"
   inkscape:version="1.2.2 (b0a8486, 2022-12-01)"
   sodipodi:docname="fig-19.svg"
   xml:space="preserve"
   xmlns:inkscape="http://www.inkscape.org/namespaces/inkscape"
   xmlns:sodipodi="http://sodipodi.sourceforge.net/DTD/sodipodi-0.dtd"
   xmlns:xlink="http://www.w3.org/1999/xlink"
   xmlns="http://www.w3.org/2000/svg"
   xmlns:svg="http://www.w3.org/2000/svg"
   xmlns:rdf="http://www.w3.org/1999/02/22-rdf-syntax-ns#"
   xmlns:cc="http://creativecommons.org/ns#"
   xmlns:dc="http://purl.org/dc/elements/1.1/"><metadata
     id="metadata1489"><rdf:RDF><cc:Work
         rdf:about=""><dc:format>image/svg+xml</dc:format><dc:type
           rdf:resource="http://purl.org/dc/dcmitype/StillImage" /><dc:title>Gnuplot</dc:title></cc:Work></rdf:RDF></metadata><defs
     id="defs1487"><marker
       style="overflow:visible"
       id="Arrow1L"
       refX="0"
       refY="0"
       orient="auto-start-reverse"
       inkscape:stockid="Arrow1L"
       markerWidth="8.75"
       markerHeight="5"
       viewBox="0 0 8.75 5"
       inkscape:isstock="true"
       inkscape:collect="always"
       preserveAspectRatio="xMidYMid"><path
         style="fill:context-stroke;fill-rule:evenodd;stroke:none"
         d="M 0,0 5,-5 -12.5,0 5,5 Z"
         id="arrow1L"
         transform="scale(-0.5)" /></marker><marker
       inkscape:stockid="Arrow1Lend"
       orient="auto"
       refY="0"
       refX="0"
       id="marker8447"
       style="overflow:visible"
       inkscape:isstock="true"><path
         id="path8449"
         d="M 0,0 5,-5 -12.5,0 5,5 Z"
         style="fill:#ff6248;fill-opacity:1;fill-rule:evenodd;stroke:#ff6248;stroke-width:1pt;stroke-opacity:1"
         transform="matrix(-0.8,0,0,-0.8,-10,0)"
         inkscape:connector-curvature="0" /></marker><marker
       inkscape:isstock="true"
       style="overflow:visible"
       id="marker8353"
       refX="0"
       refY="0"
       orient="auto"
       inkscape:stockid="Arrow1Lend"><path
         transform="matrix(-0.8,0,0,-0.8,-10,0)"
         style="fill:#4782b3;fill-opacity:1;fill-rule:evenodd;stroke:#4782b3;stroke-width:1pt;stroke-opacity:1"
         d="M 0,0 5,-5 -12.5,0 5,5 Z"
         id="path8355"
         inkscape:connector-curvature="0" /></marker><marker
       inkscape:stockid="Arrow1Lend"
       orient="auto"
       refY="0"
       refX="0"
       id="marker8229"
       style="overflow:visible"
       inkscape:isstock="true"><path
         id="path8231"
         d="M 0,0 5,-5 -12.5,0 5,5 Z"
         style="fill:#ff6248;fill-opacity:1;fill-rule:evenodd;stroke:#ff6248;stroke-width:1pt;stroke-opacity:1"
         transform="matrix(-0.8,0,0,-0.8,-10,0)"
         inkscape:connector-curvature="0" /></marker><marker
       inkscape:isstock="true"
       style="overflow:visible"
       id="marker7795"
       refX="0"
       refY="0"
       orient="auto"
       inkscape:stockid="Arrow1Lend"><path
         transform="matrix(-0.8,0,0,-0.8,-10,0)"
         style="fill:#4782b3;fill-opacity:1;fill-rule:evenodd;stroke:#4782b3;stroke-width:1pt;stroke-opacity:1"
         d="M 0,0 5,-5 -12.5,0 5,5 Z"
         id="path7797"
         inkscape:connector-curvature="0" /></marker><marker
       inkscape:isstock="true"
       style="overflow:visible"
       id="marker6929"
       refX="0"
       refY="0"
       orient="auto"
       inkscape:stockid="Arrow1Lend"><path
         transform="matrix(-0.8,0,0,-0.8,-10,0)"
         style="fill:#696969;fill-opacity:1;fill-rule:evenodd;stroke:#696969;stroke-width:1pt;stroke-opacity:1"
         d="M 0,0 5,-5 -12.5,0 5,5 0,0 Z"
         id="path6931"
         inkscape:connector-curvature="0" /></marker><marker
       inkscape:isstock="true"
       style="overflow:visible"
       id="marker10482"
       refX="0"
       refY="0"
       orient="auto"
       inkscape:stockid="Arrow1Lend"><path
         transform="matrix(-0.8,0,0,-0.8,-10,0)"
         style="fill:#696969;fill-opacity:1;fill-rule:evenodd;stroke:#696969;stroke-width:1pt;stroke-opacity:1"
         d="M 0,0 5,-5 -12.5,0 5,5 0,0 Z"
         id="path10484"
         inkscape:connector-curvature="0" /></marker><defs
       id="defs11"><circle
         r="0.5"
         id="gpDot"
         cx="0"
         cy="0"
         style="stroke-width:0.5" /><path
         d="M -1,0 1,0 M 0,-1 0,1"
         id="gpPt0"
         inkscape:connector-curvature="0"
         style="stroke:currentColor;stroke-width:0.222" /><path
         d="M -1,-1 1,1 M 1,-1 -1,1"
         id="gpPt1"
         inkscape:connector-curvature="0"
         style="stroke:currentColor;stroke-width:0.222" /><path
         d="M -1,0 1,0 M 0,-1 0,1 m -1,-2 2,2 m -2,0 2,-2"
         id="gpPt2"
         inkscape:connector-curvature="0"
         style="stroke:currentColor;stroke-width:0.222" /><rect
         height="2"
         width="2"
         y="-1"
         x="-1"
         id="gpPt3"
         style="stroke:currentColor;stroke-width:0.222" /><rect
         height="2"
         width="2"
         y="-1"
         x="-1"
         id="gpPt4"
         style="fill:currentColor;stroke:currentColor;stroke-width:0.222" /><circle
         r="1"
         cy="0"
         cx="0"
         id="gpPt5"
         style="stroke:currentColor;stroke-width:0.222" /><use
         id="gpPt6"
         xlink:href="#gpPt5"
         style="fill:currentColor;stroke:none"
         x="0"
         y="0"
         width="100%"
         height="100%" /><path
         d="m 0,-1.33 -1.33,2 2.66,0 z"
         id="gpPt7"
         inkscape:connector-curvature="0"
         style="stroke:currentColor;stroke-width:0.222" /><use
         id="gpPt8"
         xlink:href="#gpPt7"
         style="fill:currentColor;stroke:none"
         x="0"
         y="0"
         width="100%"
         height="100%" /><use
         transform="scale(-1,-1)"
         id="gpPt9"
         xlink:href="#gpPt7"
         style="stroke:currentColor"
         x="0"
         y="0"
         width="100%"
         height="100%" /><use
         id="gpPt10"
         xlink:href="#gpPt9"
         style="fill:currentColor;stroke:none"
         x="0"
         y="0"
         width="100%"
         height="100%" /><use
         transform="matrix(0.70710678,0.70710678,-0.70710678,0.70710678,0,0)"
         id="gpPt11"
         xlink:href="#gpPt3"
         style="stroke:currentColor"
         x="0"
         y="0"
         width="100%"
         height="100%" /><use
         id="gpPt12"
         xlink:href="#gpPt11"
         style="fill:currentColor;stroke:none"
         x="0"
         y="0"
         width="100%"
         height="100%" /><path
         d="M 0,1.33 1.265,0.411 0.782,-1.067 -0.782,-1.076 -1.265,0.411 Z"
         id="gpPt13"
         inkscape:connector-curvature="0"
         style="stroke:currentColor;stroke-width:0.222" /><use
         id="gpPt14"
         xlink:href="#gpPt13"
         style="fill:currentColor;stroke:none"
         x="0"
         y="0"
         width="100%"
         height="100%" /><filter
         width="1"
         height="1"
         y="0"
         x="0"
         filterUnits="objectBoundingBox"
         id="textbox"><feFlood
           id="feFlood30"
           result="bgnd"
           flood-opacity="1"
           flood-color="white" /><feComposite
           id="feComposite32"
           operator="atop"
           in2="bgnd"
           in="SourceGraphic" /></filter><filter
         width="1"
         height="1"
         y="0"
         x="0"
         filterUnits="objectBoundingBox"
         id="greybox"><feFlood
           id="feFlood35"
           result="grey"
           flood-opacity="1"
           flood-color="lightgrey" /><feComposite
           id="feComposite37"
           operator="atop"
           in2="grey"
           in="SourceGraphic" /></filter></defs><marker
       inkscape:isstock="true"
       style="overflow:visible"
       id="marker6588"
       refX="0"
       refY="0"
       orient="auto"
       inkscape:stockid="Arrow1Mstart"><path
         inkscape:connector-curvature="0"
         transform="matrix(0.4,0,0,0.4,4,0)"
         style="fill:#ff4500;fill-opacity:1;fill-rule:evenodd;stroke:#ff4500;stroke-width:1pt;stroke-opacity:1"
         d="M 0,0 5,-5 -12.5,0 5,5 0,0 Z"
         id="path6590" /></marker><marker
       inkscape:isstock="true"
       style="overflow:visible"
       id="marker6230"
       refX="0"
       refY="0"
       orient="auto"
       inkscape:stockid="Arrow1Mend"><path
         transform="matrix(-0.4,0,0,-0.4,-4,0)"
         style="fill:#ff4500;fill-opacity:1;fill-rule:evenodd;stroke:#ff4500;stroke-width:1pt;stroke-opacity:1"
         d="M 0,0 5,-5 -12.5,0 5,5 0,0 Z"
         id="path6232"
         inkscape:connector-curvature="0" /></marker><marker
       inkscape:stockid="Arrow1Lend"
       orient="auto"
       refY="0"
       refX="0"
       id="marker8447-1"
       style="overflow:visible"
       inkscape:isstock="true"><path
         id="path8449-4"
         d="M 0,0 5,-5 -12.5,0 5,5 Z"
         style="fill:#ff6248;fill-opacity:1;fill-rule:evenodd;stroke:#ff6248;stroke-width:1pt;stroke-opacity:1"
         transform="matrix(-0.8,0,0,-0.8,-10,0)"
         inkscape:connector-curvature="0" /></marker><marker
       inkscape:isstock="true"
       style="overflow:visible"
       id="marker8353-8"
       refX="0"
       refY="0"
       orient="auto"
       inkscape:stockid="Arrow1Lend"><path
         transform="matrix(-0.8,0,0,-0.8,-10,0)"
         style="fill:#4782b3;fill-opacity:1;fill-rule:evenodd;stroke:#4782b3;stroke-width:1pt;stroke-opacity:1"
         d="M 0,0 5,-5 -12.5,0 5,5 Z"
         id="path8355-8"
         inkscape:connector-curvature="0" /></marker><marker
       inkscape:stockid="Arrow1Lend"
       orient="auto"
       refY="0"
       refX="0"
       id="marker8229-7"
       style="overflow:visible"
       inkscape:isstock="true"><path
         id="path8231-1"
         d="M 0,0 5,-5 -12.5,0 5,5 Z"
         style="fill:#ff6248;fill-opacity:1;fill-rule:evenodd;stroke:#ff6248;stroke-width:1pt;stroke-opacity:1"
         transform="matrix(-0.8,0,0,-0.8,-10,0)"
         inkscape:connector-curvature="0" /></marker><marker
       inkscape:isstock="true"
       style="overflow:visible"
       id="marker7795-9"
       refX="0"
       refY="0"
       orient="auto"
       inkscape:stockid="Arrow1Lend"><path
         transform="matrix(-0.8,0,0,-0.8,-10,0)"
         style="fill:#4782b3;fill-opacity:1;fill-rule:evenodd;stroke:#4782b3;stroke-width:1pt;stroke-opacity:1"
         d="M 0,0 5,-5 -12.5,0 5,5 Z"
         id="path7797-3"
         inkscape:connector-curvature="0" /></marker><marker
       inkscape:isstock="true"
       style="overflow:visible"
       id="marker6929-1"
       refX="0"
       refY="0"
       orient="auto"
       inkscape:stockid="Arrow1Lend"><path
         transform="matrix(-0.8,0,0,-0.8,-10,0)"
         style="fill:#696969;fill-opacity:1;fill-rule:evenodd;stroke:#696969;stroke-width:1pt;stroke-opacity:1"
         d="M 0,0 5,-5 -12.5,0 5,5 0,0 Z"
         id="path6931-1"
         inkscape:connector-curvature="0" /></marker><marker
       inkscape:isstock="true"
       style="overflow:visible"
       id="marker10482-4"
       refX="0"
       refY="0"
       orient="auto"
       inkscape:stockid="Arrow1Lend"><path
         transform="matrix(-0.8,0,0,-0.8,-10,0)"
         style="fill:#696969;fill-opacity:1;fill-rule:evenodd;stroke:#696969;stroke-width:1pt;stroke-opacity:1"
         d="M 0,0 5,-5 -12.5,0 5,5 0,0 Z"
         id="path10484-9"
         inkscape:connector-curvature="0" /></marker><defs
       id="defs11-5"><circle
         r="0.5"
         id="gpDot-9"
         cx="0"
         cy="0"
         style="stroke-width:0.5" /><path
         d="M -1,0 1,0 M 0,-1 0,1"
         id="gpPt0-0"
         inkscape:connector-curvature="0"
         style="stroke:currentColor;stroke-width:0.222" /><path
         d="M -1,-1 1,1 M 1,-1 -1,1"
         id="gpPt1-9"
         inkscape:connector-curvature="0"
         style="stroke:currentColor;stroke-width:0.222" /><path
         d="M -1,0 1,0 M 0,-1 0,1 m -1,-2 2,2 m -2,0 2,-2"
         id="gpPt2-3"
         inkscape:connector-curvature="0"
         style="stroke:currentColor;stroke-width:0.222" /><rect
         height="2"
         width="2"
         y="-1"
         x="-1"
         id="gpPt3-4"
         style="stroke:currentColor;stroke-width:0.222" /><rect
         height="2"
         width="2"
         y="-1"
         x="-1"
         id="gpPt4-0"
         style="fill:currentColor;stroke:currentColor;stroke-width:0.222" /><circle
         r="1"
         cy="0"
         cx="0"
         id="gpPt5-7"
         style="stroke:currentColor;stroke-width:0.222" /><use
         id="gpPt6-5"
         xlink:href="#gpPt5-7"
         style="fill:currentColor;stroke:none"
         x="0"
         y="0"
         width="100%"
         height="100%" /><path
         d="m 0,-1.33 -1.33,2 2.66,0 z"
         id="gpPt7-7"
         inkscape:connector-curvature="0"
         style="stroke:currentColor;stroke-width:0.222" /><use
         id="gpPt8-5"
         xlink:href="#gpPt7-7"
         style="fill:currentColor;stroke:none"
         x="0"
         y="0"
         width="100%"
         height="100%" /><use
         transform="scale(-1,-1)"
         id="gpPt9-0"
         xlink:href="#gpPt7-7"
         style="stroke:currentColor"
         x="0"
         y="0"
         width="100%"
         height="100%" /><use
         id="gpPt10-6"
         xlink:href="#gpPt9-0"
         style="fill:currentColor;stroke:none"
         x="0"
         y="0"
         width="100%"
         height="100%" /><use
         transform="matrix(0.70710678,0.70710678,-0.70710678,0.70710678,0,0)"
         id="gpPt11-4"
         xlink:href="#gpPt3-4"
         style="stroke:currentColor"
         x="0"
         y="0"
         width="100%"
         height="100%" /><use
         id="gpPt12-7"
         xlink:href="#gpPt11-4"
         style="fill:currentColor;stroke:none"
         x="0"
         y="0"
         width="100%"
         height="100%" /><path
         d="M 0,1.33 1.265,0.411 0.782,-1.067 -0.782,-1.076 -1.265,0.411 Z"
         id="gpPt13-8"
         inkscape:connector-curvature="0"
         style="stroke:currentColor;stroke-width:0.222" /><use
         id="gpPt14-4"
         xlink:href="#gpPt13-8"
         style="fill:currentColor;stroke:none"
         x="0"
         y="0"
         width="100%"
         height="100%" /><filter
         width="1"
         height="1"
         y="0"
         x="0"
         filterUnits="objectBoundingBox"
         id="textbox-0"><feFlood
           id="feFlood30-0"
           result="bgnd"
           flood-opacity="1"
           flood-color="white" /><feComposite
           id="feComposite32-6"
           operator="atop"
           in2="bgnd"
           in="SourceGraphic" /></filter><filter
         width="1"
         height="1"
         y="0"
         x="0"
         filterUnits="objectBoundingBox"
         id="greybox-2"><feFlood
           id="feFlood35-4"
           result="grey"
           flood-opacity="1"
           flood-color="lightgrey" /><feComposite
           id="feComposite37-7"
           operator="atop"
           in2="grey"
           in="SourceGraphic" /></filter></defs><marker
       inkscape:isstock="true"
       style="overflow:visible"
       id="marker6588-4"
       refX="0"
       refY="0"
       orient="auto"
       inkscape:stockid="Arrow1Mstart"><path
         inkscape:connector-curvature="0"
         transform="matrix(0.4,0,0,0.4,4,0)"
         style="fill:#ff4500;fill-opacity:1;fill-rule:evenodd;stroke:#ff4500;stroke-width:1pt;stroke-opacity:1"
         d="M 0,0 5,-5 -12.5,0 5,5 0,0 Z"
         id="path6590-1" /></marker><marker
       inkscape:isstock="true"
       style="overflow:visible"
       id="marker6230-8"
       refX="0"
       refY="0"
       orient="auto"
       inkscape:stockid="Arrow1Mend"><path
         transform="matrix(-0.4,0,0,-0.4,-4,0)"
         style="fill:#ff4500;fill-opacity:1;fill-rule:evenodd;stroke:#ff4500;stroke-width:1pt;stroke-opacity:1"
         d="M 0,0 5,-5 -12.5,0 5,5 0,0 Z"
         id="path6232-5"
         inkscape:connector-curvature="0" /></marker><circle
       r="0.5"
       id="circle5353"
       cx="0"
       cy="0"
       style="stroke-width:0.5" /><path
       d="M -1,0 1,0 M 0,-1 0,1"
       id="path5355"
       inkscape:connector-curvature="0"
       style="stroke:currentColor;stroke-width:0.222" /><path
       d="M -1,-1 1,1 M 1,-1 -1,1"
       id="path5357"
       inkscape:connector-curvature="0"
       style="stroke:currentColor;stroke-width:0.222" /><path
       d="M -1,0 1,0 M 0,-1 0,1 m -1,-2 2,2 m -2,0 2,-2"
       id="path5359"
       inkscape:connector-curvature="0"
       style="stroke:currentColor;stroke-width:0.222" /><rect
       height="2"
       width="2"
       y="-1"
       x="-1"
       id="rect5361"
       style="stroke:currentColor;stroke-width:0.222" /><rect
       height="2"
       width="2"
       y="-1"
       x="-1"
       id="rect5363"
       style="fill:currentColor;stroke:currentColor;stroke-width:0.222" /><circle
       r="1"
       cy="0"
       cx="0"
       id="circle5365"
       style="stroke:currentColor;stroke-width:0.222" /><use
       id="use5367"
       xlink:href="#gpPt5-7"
       style="fill:currentColor;stroke:none"
       x="0"
       y="0"
       width="100%"
       height="100%" /><path
       d="m 0,-1.33 -1.33,2 2.66,0 z"
       id="path5369"
       inkscape:connector-curvature="0"
       style="stroke:currentColor;stroke-width:0.222" /><use
       id="use5371"
       xlink:href="#gpPt7-7"
       style="fill:currentColor;stroke:none"
       x="0"
       y="0"
       width="100%"
       height="100%" /><use
       transform="scale(-1,-1)"
       id="use5373"
       xlink:href="#gpPt7-7"
       style="stroke:currentColor"
       x="0"
       y="0"
       width="100%"
       height="100%" /><use
       id="use5375"
       xlink:href="#gpPt9-0"
       style="fill:currentColor;stroke:none"
       x="0"
       y="0"
       width="100%"
       height="100%" /><use
       transform="matrix(0.70710678,0.70710678,-0.70710678,0.70710678,0,0)"
       id="use5377"
       xlink:href="#gpPt3-4"
       style="stroke:currentColor"
       x="0"
       y="0"
       width="100%"
       height="100%" /><use
       id="use5379"
       xlink:href="#gpPt11-4"
       style="fill:currentColor;stroke:none"
       x="0"
       y="0"
       width="100%"
       height="100%" /><path
       d="M 0,1.33 1.265,0.411 0.782,-1.067 -0.782,-1.076 -1.265,0.411 Z"
       id="path5381"
       inkscape:connector-curvature="0"
       style="stroke:currentColor;stroke-width:0.222" /><use
       id="use5383"
       xlink:href="#gpPt13-8"
       style="fill:currentColor;stroke:none"
       x="0"
       y="0"
       width="100%"
       height="100%" /><filter
       width="1"
       height="1"
       y="0"
       x="0"
       filterUnits="objectBoundingBox"
       id="filter5389"><feFlood
         id="feFlood5385"
         result="bgnd"
         flood-opacity="1"
         flood-color="white" /><feComposite
         id="feComposite5387"
         operator="atop"
         in2="bgnd"
         in="SourceGraphic" /></filter><filter
       width="1"
       height="1"
       y="0"
       x="0"
       filterUnits="objectBoundingBox"
       id="filter5395"><feFlood
         id="feFlood5391"
         result="grey"
         flood-opacity="1"
         flood-color="lightgrey" /><feComposite
         id="feComposite5393"
         operator="atop"
         in2="grey"
         in="SourceGraphic" /></filter></defs><sodipodi:namedview
     pagecolor="#ffffff"
     bordercolor="#666666"
     borderopacity="1"
     objecttolerance="10"
     gridtolerance="10"
     guidetolerance="10"
     inkscape:pageopacity="0"
     inkscape:pageshadow="2"
     inkscape:window-width="1440"
     inkscape:window-height="878"
     id="namedview1485"
     showgrid="false"
     inkscape:zoom="1.8229951"
     inkscape:cx="137.95978"
     inkscape:cy="137.6855"
     inkscape:window-x="0"
     inkscape:window-y="0"
     inkscape:window-maximized="0"
     inkscape:current-layer="svg2"
     fit-margin-top="0"
     fit-margin-left="0"
     fit-margin-right="0"
     fit-margin-bottom="0"
     inkscape:showpageshadow="2"
     inkscape:pagecheckerboard="0"
     inkscape:deskcolor="#d1d1d1"><inkscape:grid
       type="xygrid"
       id="grid10124"
       originx="223.27298"
       originy="37.549576" /></sodipodi:namedview><title
     id="title4">Gnuplot</title><desc
     id="desc6">Produced by GNUPLOT 5.0 patchlevel 1 </desc><path
     sodipodi:nodetypes="cc"
     inkscape:connector-curvature="0"
     id="path7793"
     d="M 99.22203,249.88452 36.530574,187.19306"
     style="fill:none;fill-opacity:1;fill-rule:evenodd;stroke:#ff6248;stroke-width:2.83465;stroke-linecap:round;stroke-linejoin:round;stroke-miterlimit:4;stroke-dasharray:none;stroke-opacity:1;marker-end:url(#Arrow1L)" /><path
     style="fill:none;fill-opacity:1;fill-rule:evenodd;stroke:#4782b3;stroke-width:2.83465;stroke-linecap:round;stroke-linejoin:round;stroke-miterlimit:4;stroke-dasharray:none;stroke-opacity:1;marker-end:url(#Arrow1L)"
     d="m 60.398205,175.00002 28.261357,28.74131"
     id="path8227"
     inkscape:connector-curvature="0"
     sodipodi:nodetypes="cc" /><path
     style="fill:none;fill-opacity:1;fill-rule:evenodd;stroke:#4782b3;stroke-width:2.83465;stroke-linecap:round;stroke-linejoin:round;stroke-miterlimit:4;stroke-dasharray:none;stroke-opacity:1;marker-end:url(#Arrow1L)"
     d="m 176.33605,223.28997 36.30138,-36.30138"
     id="path27103"
     inkscape:connector-curvature="0"
     sodipodi:nodetypes="cc" /><path
     style="fill:none;fill-opacity:1;fill-rule:evenodd;stroke:#4782b3;stroke-width:2.83465;stroke-linecap:round;stroke-linejoin:round;stroke-miterlimit:4;stroke-dasharray:none;stroke-opacity:1;marker-end:url(#Arrow1L)"
     d="M 219.09747,99.390866 186.48344,66.776833"
     id="path28001"
     inkscape:connector-curvature="0"
     sodipodi:nodetypes="cc" /><path
     style="fill:none;fill-opacity:1;fill-rule:evenodd;stroke:#4782b3;stroke-width:2.83465;stroke-linecap:round;stroke-linejoin:round;stroke-miterlimit:4;stroke-dasharray:none;stroke-opacity:1;marker-end:url(#Arrow1L)"
     d="M 98.967802,62.490704 72.925707,88.532797"
     id="path28061"
     inkscape:connector-curvature="0"
     sodipodi:nodetypes="cc" /><path
     sodipodi:nodetypes="cc"
     inkscape:connector-curvature="0"
     id="path28961"
     d="m 175.46663,19.826549 68.13573,68.135723"
     style="fill:none;fill-opacity:1;fill-rule:evenodd;stroke:#ff6248;stroke-width:2.83465;stroke-linecap:round;stroke-linejoin:round;stroke-miterlimit:4;stroke-dasharray:none;stroke-opacity:1;marker-end:url(#Arrow1L)" /><path
     sodipodi:nodetypes="cc"
     inkscape:connector-curvature="0"
     id="path29859"
     d="m 261.7451,176.03912 -74.65225,74.65225"
     style="fill:none;fill-opacity:1;fill-rule:evenodd;stroke:#ff6248;stroke-width:2.83465;stroke-linecap:round;stroke-linejoin:round;stroke-miterlimit:4;stroke-dasharray:none;stroke-opacity:1;marker-end:url(#Arrow1L)" /><path
     sodipodi:nodetypes="cc"
     inkscape:connector-curvature="0"
     id="path29919"
     d="M 24.423626,100.00002 86.73132,37.432088"
     style="fill:none;fill-opacity:1;fill-rule:evenodd;stroke:#ff6248;stroke-width:2.83465;stroke-linecap:round;stroke-linejoin:round;stroke-miterlimit:4;stroke-dasharray:none;stroke-opacity:1;marker-end:url(#Arrow1L)" /><g
     style="color:#ffffff;fill:none;stroke:#000000;stroke-width:1;stroke-linecap:butt;stroke-linejoin:miter"
     id="g39"
     transform="translate(-530.62741,244.08886)" /><g
     style="color:#000000;fill:none;stroke:currentColor;stroke-width:1;stroke-linecap:butt;stroke-linejoin:miter"
     id="g201"
     transform="translate(-530.62741,244.08886)" /><g
     style="color:#000000;fill:none;stroke:currentColor;stroke-width:1;stroke-linecap:butt;stroke-linejoin:miter"
     id="g207"
     transform="translate(-530.62741,244.08886)" /><g
     id="g837"
     style="color:#000000;fill:none;stroke:currentColor;stroke-width:1;stroke-linecap:butt;stroke-linejoin:miter"
     transform="translate(-1190.6274,244.08886)"><g
       id="g839"
       style="stroke:none;shape-rendering:crispEdges" /></g><g
     id="g1450"
     style="color:#ffffff;fill:none;stroke:#009e73;stroke-width:2;stroke-linecap:butt;stroke-linejoin:miter"
     transform="translate(-1210.6274,244.08886)" /><g
     style="color:#000000;fill:none;stroke:currentColor;stroke-width:2;stroke-linecap:butt;stroke-linejoin:miter"
     id="g1475"
     transform="translate(-530.62741,244.08886)" /><g
     style="color:#000000;fill:none;stroke:#000000;stroke-width:1;stroke-linecap:butt;stroke-linejoin:miter"
     id="g1477"
     transform="translate(-530.62741,244.08886)" /><g
     style="color:#000000;fill:none;stroke:currentColor;stroke-width:1;stroke-linecap:butt;stroke-linejoin:miter"
     id="g1483"
     transform="translate(-530.62741,244.08886)" /><text
     xml:space="preserve"
     style="font-style:normal;font-variant:normal;font-weight:normal;font-stretch:normal;line-height:0%;font-family:'Libertinus Serif';-inkscape-font-specification:'Libertinus Serif';text-align:start;letter-spacing:0px;word-spacing:0px;writing-mode:lr-tb;text-anchor:start;fill:#000000;fill-opacity:1;stroke:none;stroke-width:1px;stroke-linecap:butt;stroke-linejoin:miter;stroke-opacity:1"
     x="797.78357"
     y="208.16544"
     id="text10620"><tspan
       sodipodi:role="line"
       id="tspan10622"
       x="797.78357"
       y="208.16544"
       style="font-size:17.5px;line-height:1.25"> </tspan></text><rect
     style="color:#000000;clip-rule:nonzero;display:inline;overflow:visible;visibility:visible;isolation:auto;mix-blend-mode:normal;color-interpolation:sRGB;color-interpolation-filters:linearRGB;solid-color:#000000;solid-opacity:1;fill:#008080;fill-opacity:1;fill-rule:nonzero;stroke:none;stroke-width:1;stroke-linecap:butt;stroke-linejoin:miter;stroke-miterlimit:4;stroke-dasharray:none;stroke-dashoffset:0;stroke-opacity:1;color-rendering:auto;image-rendering:auto;shape-rendering:auto;text-rendering:auto;enable-background:accumulate"
     id="rect4781"
     width="75"
     height="75"
     x="100.27224"
     y="200.00002"
     rx="7.9487181"
     ry="7.9487181" /><rect
     style="color:#000000;clip-rule:nonzero;display:inline;overflow:visible;visibility:visible;isolation:auto;mix-blend-mode:normal;color-interpolation:sRGB;color-interpolation-filters:linearRGB;solid-color:#000000;solid-opacity:1;fill:#00ccff;fill-opacity:1;fill-rule:nonzero;stroke:none;stroke-width:1;stroke-linecap:butt;stroke-linejoin:miter;stroke-miterlimit:4;stroke-dasharray:none;stroke-dashoffset:0;stroke-opacity:1;color-rendering:auto;image-rendering:auto;shape-rendering:auto;text-rendering:auto;enable-background:accumulate"
     id="rect4785"
     width="75"
     height="75"
     x="200.00826"
     y="100.06601"
     rx="7.9487181"
     ry="7.9487181" /><rect
     style="color:#000000;clip-rule:nonzero;display:inline;overflow:visible;visibility:visible;isolation:auto;mix-blend-mode:normal;color-interpolation:sRGB;color-interpolation-filters:linearRGB;solid-color:#000000;solid-opacity:1;fill:#ff6248;fill-opacity:1;fill-rule:nonzero;stroke:none;stroke-width:1;stroke-linecap:butt;stroke-linejoin:miter;stroke-miterlimit:4;stroke-dasharray:none;stroke-dashoffset:0;stroke-opacity:1;color-rendering:auto;image-rendering:auto;shape-rendering:auto;text-rendering:auto;enable-background:accumulate"
     id="rect4767"
     width="75"
     height="75"
     x="99.731903"
     y="5.6640626e-08"
     rx="7.9487181"
     ry="7.9487181" /><text
     xml:space="preserve"
     style="font-style:normal;font-variant:normal;font-weight:normal;font-stretch:normal;line-height:0%;font-family:'Libertinus Serif';-inkscape-font-specification:'Libertinus Serif';text-align:start;letter-spacing:0px;word-spacing:0px;writing-mode:lr-tb;baseline-shift:baseline;text-anchor:start;fill:#ffffff;fill-opacity:1;stroke:none;stroke-width:1px;stroke-linecap:butt;stroke-linejoin:miter;stroke-opacity:1"
     x="127.44344"
     y="43.364132"
     id="text4725"><tspan
       style="font-style:normal;font-variant:normal;font-weight:normal;font-stretch:normal;font-size:25.3831px;line-height:1.25;font-family:'EB Garamond';-inkscape-font-specification:'EB Garamond';fill:#ffffff;fill-opacity:1"
       sodipodi:role="line"
       id="tspan4727"
       x="127.44344"
       y="43.364132"><tspan
         style="font-style:italic"
         id="tspan14896">S</tspan><tspan
         style="font-style:normal;font-variant:normal;font-weight:normal;font-stretch:normal;font-size:16.499px;font-family:'EB Garamond';-inkscape-font-specification:'EB Garamond';baseline-shift:sub;fill:#ffffff;fill-opacity:1"
         id="tspan4731">1</tspan></tspan></text><rect
     ry="7.9487181"
     rx="7.9487181"
     y="100.00002"
     x="2.6367186e-07"
     height="75"
     width="75"
     id="rect4783"
     style="color:#000000;clip-rule:nonzero;display:inline;overflow:visible;visibility:visible;isolation:auto;mix-blend-mode:normal;color-interpolation:sRGB;color-interpolation-filters:linearRGB;solid-color:#000000;solid-opacity:1;fill:#ffcc00;fill-opacity:1;fill-rule:nonzero;stroke:none;stroke-width:1;stroke-linecap:butt;stroke-linejoin:miter;stroke-miterlimit:4;stroke-dasharray:none;stroke-dashoffset:0;stroke-opacity:1;color-rendering:auto;image-rendering:auto;shape-rendering:auto;text-rendering:auto;enable-background:accumulate" /><text
     xml:space="preserve"
     style="font-style:normal;font-variant:normal;font-weight:normal;font-stretch:normal;line-height:0%;font-family:'Libertinus Serif';-inkscape-font-specification:'Libertinus Serif';text-align:start;letter-spacing:0px;word-spacing:0px;writing-mode:lr-tb;baseline-shift:baseline;text-anchor:start;fill:#ffffff;fill-opacity:1;stroke:none;stroke-width:1px;stroke-linecap:butt;stroke-linejoin:miter;stroke-opacity:1"
     x="27.865225"
     y="143.36415"
     id="text15070"><tspan
       style="font-style:normal;font-variant:normal;font-weight:normal;font-stretch:normal;font-size:25.3831px;line-height:1.25;font-family:'EB Garamond';-inkscape-font-specification:'EB Garamond';fill:#ffffff;fill-opacity:1"
       sodipodi:role="line"
       id="tspan15068"
       x="27.865225"
       y="143.36415"><tspan
         style="font-style:italic"
         id="tspan15064">S</tspan><tspan
         style="font-style:normal;font-variant:normal;font-weight:normal;font-stretch:normal;font-size:16.499px;font-family:'EB Garamond';-inkscape-font-specification:'EB Garamond';baseline-shift:sub;fill:#ffffff;fill-opacity:1"
         id="tspan15066">2</tspan></tspan></text><text
     xml:space="preserve"
     style="font-style:normal;font-variant:normal;font-weight:normal;font-stretch:normal;line-height:0%;font-family:'Libertinus Serif';-inkscape-font-specification:'Libertinus Serif';text-align:start;letter-spacing:0px;word-spacing:0px;writing-mode:lr-tb;baseline-shift:baseline;text-anchor:start;fill:#ffffff;fill-opacity:1;stroke:none;stroke-width:1px;stroke-linecap:butt;stroke-linejoin:miter;stroke-opacity:1"
     x="228.13747"
     y="143.1414"
     id="text15150"><tspan
       style="font-style:normal;font-variant:normal;font-weight:normal;font-stretch:normal;font-size:25.3831px;line-height:1.25;font-family:'EB Garamond';-inkscape-font-specification:'EB Garamond';fill:#ffffff;fill-opacity:1"
       sodipodi:role="line"
       id="tspan15148"
       x="228.13747"
       y="143.1414"><tspan
         style="font-style:italic"
         id="tspan15144">S</tspan><tspan
         style="font-style:normal;font-variant:normal;font-weight:normal;font-stretch:normal;font-size:16.499px;font-family:'EB Garamond';-inkscape-font-specification:'EB Garamond';baseline-shift:sub;fill:#ffffff;fill-opacity:1"
         id="tspan15146">3</tspan></tspan></text><text
     xml:space="preserve"
     style="font-style:normal;font-variant:normal;font-weight:normal;font-stretch:normal;line-height:0%;font-family:'Libertinus Serif';-inkscape-font-specification:'Libertinus Serif';text-align:start;letter-spacing:0px;word-spacing:0px;writing-mode:lr-tb;baseline-shift:baseline;text-anchor:start;fill:#ffffff;fill-opacity:1;stroke:none;stroke-width:1px;stroke-linecap:butt;stroke-linejoin:miter;stroke-opacity:1"
     x="128.04672"
     y="243.36414"
     id="text15230"><tspan
       style="font-style:normal;font-variant:normal;font-weight:normal;font-stretch:normal;font-size:25.3831px;line-height:1.25;font-family:'EB Garamond';-inkscape-font-specification:'EB Garamond';fill:#ffffff;fill-opacity:1"
       sodipodi:role="line"
       id="tspan15228"
       x="128.04672"
       y="243.36414"><tspan
         style="font-style:italic"
         id="tspan15224">S</tspan><tspan
         style="font-size:65%;baseline-shift:sub"
         id="tspan15306">4</tspan></tspan></text><text
     xml:space="preserve"
     style="font-size:20px;line-height:0.65;font-family:'EB Garamond';-inkscape-font-specification:'EB Garamond, Normal';text-align:end;letter-spacing:0px;word-spacing:0px;text-anchor:end"
     x="46.512978"
     y="41.976883"
     id="text21156"><tspan
       sodipodi:role="line"
       id="tspan21154"
       x="46.512978"
       y="41.976883">𝜇<tspan
   style="font-size:65%;baseline-shift:sub"
   id="tspan21270">1</tspan></tspan></text><text
     xml:space="preserve"
     style="font-size:20px;line-height:0.65;font-family:'EB Garamond';-inkscape-font-specification:'EB Garamond, Normal';text-align:end;letter-spacing:0px;word-spacing:0px;text-anchor:end"
     x="102.77679"
     y="95.961021"
     id="text21214"><tspan
       sodipodi:role="line"
       id="tspan21212"
       x="102.77679"
       y="95.961021">𝜆<tspan
   style="font-size:65%;baseline-shift:sub"
   id="tspan21272">1</tspan></tspan></text><text
     xml:space="preserve"
     style="font-size:20px;line-height:0.65;font-family:'EB Garamond';-inkscape-font-specification:'EB Garamond, Normal';text-align:end;letter-spacing:0px;word-spacing:0px;text-anchor:end"
     x="237.63832"
     y="43.68288"
     id="text21278"><tspan
       sodipodi:role="line"
       id="tspan21276"
       x="237.63832"
       y="43.68288">𝜆<tspan
   style="font-size:65%;baseline-shift:sub"
   id="tspan21274">2</tspan></tspan></text><text
     xml:space="preserve"
     style="font-size:20px;line-height:0.65;font-family:'EB Garamond';-inkscape-font-specification:'EB Garamond, Normal';text-align:end;letter-spacing:0px;word-spacing:0px;text-anchor:end"
     x="192.63132"
     y="92.110519"
     id="text21338"><tspan
       sodipodi:role="line"
       id="tspan21336"
       x="192.63132"
       y="92.110519">𝜇<tspan
   style="font-size:65%;baseline-shift:sub"
   id="tspan21334">2</tspan></tspan></text><text
     xml:space="preserve"
     style="font-size:20px;line-height:0.65;font-family:'EB Garamond';-inkscape-font-specification:'EB Garamond, Normal';text-align:end;letter-spacing:0px;word-spacing:0px;text-anchor:end"
     x="94.974419"
     y="186.76929"
     id="text22555"><tspan
       sodipodi:role="line"
       id="tspan22553"
       x="94.974419"
       y="186.76929">𝜆<tspan
   style="font-size:65%;baseline-shift:sub"
   id="tspan22551">2</tspan></tspan></text><text
     xml:space="preserve"
     style="font-size:20px;line-height:0.65;font-family:'EB Garamond';-inkscape-font-specification:'EB Garamond, Normal';text-align:end;letter-spacing:0px;word-spacing:0px;text-anchor:end"
     x="192.97581"
     y="182.91879"
     id="text22723"><tspan
       sodipodi:role="line"
       id="tspan22721"
       x="192.97581"
       y="182.91879">𝜇<tspan
   style="font-size:65%;baseline-shift:sub"
   id="tspan22719">1</tspan></tspan></text><text
     xml:space="preserve"
     style="font-size:20px;line-height:0.65;font-family:'EB Garamond';-inkscape-font-specification:'EB Garamond, Normal';text-align:end;letter-spacing:0px;word-spacing:0px;text-anchor:end"
     x="236.65642"
     y="246.44366"
     id="text22837"><tspan
       sodipodi:role="line"
       id="tspan22835"
       x="236.65642"
       y="246.44366">𝜆<tspan
   style="font-size:65%;baseline-shift:sub"
   id="tspan22833">1</tspan></tspan></text><text
     xml:space="preserve"
     style="font-size:20px;line-height:0.65;font-family:'EB Garamond';-inkscape-font-specification:'EB Garamond, Normal';text-align:end;letter-spacing:0px;word-spacing:0px;text-anchor:end"
     x="46.341717"
     y="242.59317"
     id="text22951"><tspan
       sodipodi:role="line"
       id="tspan22949"
       x="46.341717"
       y="242.59317">𝜇<tspan
   style="font-size:65%;baseline-shift:sub"
   id="tspan22947">2</tspan></tspan></text></svg>
