<?xml version="1.0" encoding="UTF-8" standalone="no"?>
<!-- Created with Inkscape (http://www.inkscape.org/) -->

<svg
   id="svg2"
   version="1.1"
   inkscape:version="1.2.2 (b0a8486, 2022-12-01)"
   xml:space="preserve"
   width="329.03165"
   height="316.88681"
   viewBox="0 0 329.03165 316.88681"
   sodipodi:docname="three-balls.svg"
   xmlns:inkscape="http://www.inkscape.org/namespaces/inkscape"
   xmlns:sodipodi="http://sodipodi.sourceforge.net/DTD/sodipodi-0.dtd"
   xmlns:xlink="http://www.w3.org/1999/xlink"
   xmlns="http://www.w3.org/2000/svg"
   xmlns:svg="http://www.w3.org/2000/svg"
   xmlns:rdf="http://www.w3.org/1999/02/22-rdf-syntax-ns#"
   xmlns:cc="http://creativecommons.org/ns#"
   xmlns:dc="http://purl.org/dc/elements/1.1/"><metadata
     id="metadata8"><rdf:RDF><cc:Work
         rdf:about=""><dc:format>image/svg+xml</dc:format><dc:type
           rdf:resource="http://purl.org/dc/dcmitype/StillImage" /><dc:title /></cc:Work></rdf:RDF></metadata><defs
     id="defs6"><linearGradient
       inkscape:collect="always"
       id="linearGradient5127"><stop
         style="stop-color:#ffffff;stop-opacity:1"
         offset="0"
         id="stop5129" /><stop
         style="stop-color:#ff6347;stop-opacity:1"
         offset="1"
         id="stop5131" /></linearGradient><linearGradient
       inkscape:collect="always"
       id="linearGradient5119"><stop
         style="stop-color:#ffffff;stop-opacity:1"
         offset="0"
         id="stop5121" /><stop
         style="stop-color:#4682b4;stop-opacity:1"
         offset="1"
         id="stop5123" /></linearGradient><marker
       inkscape:stockid="Arrow1Mend"
       orient="auto"
       refY="0"
       refX="0"
       id="marker8269"
       style="overflow:visible"
       inkscape:isstock="true"><path
         id="path8271"
         d="M 0,0 5,-5 -12.5,0 5,5 0,0 Z"
         style="fill:#ff6347;fill-opacity:1;fill-rule:evenodd;stroke:#ff6347;stroke-width:1pt;stroke-opacity:1"
         transform="matrix(-0.4,0,0,-0.4,-4,0)"
         inkscape:connector-curvature="0" /></marker><marker
       inkscape:stockid="Arrow1Mend"
       orient="auto"
       refY="0"
       refX="0"
       id="marker8175"
       style="overflow:visible"
       inkscape:isstock="true"><path
         id="path8177"
         d="M 0,0 5,-5 -12.5,0 5,5 0,0 Z"
         style="fill:#ff6347;fill-opacity:1;fill-rule:evenodd;stroke:#ff6347;stroke-width:1pt;stroke-opacity:1"
         transform="matrix(-0.4,0,0,-0.4,-4,0)"
         inkscape:connector-curvature="0" /></marker><marker
       inkscape:isstock="true"
       style="overflow:visible"
       id="marker8081"
       refX="0"
       refY="0"
       orient="auto"
       inkscape:stockid="Arrow1Mend"><path
         transform="matrix(-0.4,0,0,-0.4,-4,0)"
         style="fill:#ff6347;fill-opacity:1;fill-rule:evenodd;stroke:#ff6347;stroke-width:1pt;stroke-opacity:1"
         d="M 0,0 5,-5 -12.5,0 5,5 0,0 Z"
         id="path8083"
         inkscape:connector-curvature="0" /></marker><marker
       inkscape:isstock="true"
       style="overflow:visible"
       id="marker8017"
       refX="0"
       refY="0"
       orient="auto"
       inkscape:stockid="Arrow1Mend"><path
         transform="matrix(-0.4,0,0,-0.4,-4,0)"
         style="fill:#ff6347;fill-opacity:1;fill-rule:evenodd;stroke:#ff6347;stroke-width:1pt;stroke-opacity:1"
         d="M 0,0 5,-5 -12.5,0 5,5 0,0 Z"
         id="path8019"
         inkscape:connector-curvature="0" /></marker><marker
       inkscape:isstock="true"
       style="overflow:visible"
       id="marker7911"
       refX="0"
       refY="0"
       orient="auto"
       inkscape:stockid="Arrow1Mend"><path
         transform="matrix(-0.4,0,0,-0.4,-4,0)"
         style="fill:#ff6347;fill-opacity:1;fill-rule:evenodd;stroke:#ff6347;stroke-width:1pt;stroke-opacity:1"
         d="M 0,0 5,-5 -12.5,0 5,5 0,0 Z"
         id="path7913"
         inkscape:connector-curvature="0" /></marker><marker
       inkscape:stockid="Arrow1Lend"
       orient="auto"
       refY="0"
       refX="0"
       id="Arrow1Lend"
       style="overflow:visible"
       inkscape:isstock="true"><path
         id="path7128"
         d="M 0,0 5,-5 -12.5,0 5,5 0,0 Z"
         style="fill:#ff6347;fill-opacity:1;fill-rule:evenodd;stroke:#ff6347;stroke-width:1pt;stroke-opacity:1"
         transform="matrix(-0.8,0,0,-0.8,-10,0)"
         inkscape:connector-curvature="0" /></marker><radialGradient
       inkscape:collect="always"
       xlink:href="#linearGradient5119"
       id="radialGradient5125"
       cx="269.08365"
       cy="-660.15051"
       fx="269.08365"
       fy="-660.15051"
       r="14.319777"
       gradientTransform="matrix(1,0,0,0.99982431,-138.2207,-134.92544)"
       gradientUnits="userSpaceOnUse" /><radialGradient
       inkscape:collect="always"
       xlink:href="#linearGradient5127"
       id="radialGradient5133"
       cx="267.29648"
       cy="-547.08948"
       fx="267.29648"
       fy="-547.08948"
       r="14.319777"
       gradientTransform="matrix(1,0,0,0.99982431,-138.03357,-80.495761)"
       gradientUnits="userSpaceOnUse" /><radialGradient
       inkscape:collect="always"
       xlink:href="#linearGradient5119"
       id="radialGradient5145"
       gradientUnits="userSpaceOnUse"
       gradientTransform="matrix(1,0,0,0.99982431,-54.446786,-51.132143)"
       cx="269.08365"
       cy="-660.15051"
       fx="269.08365"
       fy="-660.15051"
       r="14.319777" /><radialGradient
       inkscape:collect="always"
       xlink:href="#linearGradient5119"
       id="radialGradient5153"
       gradientUnits="userSpaceOnUse"
       gradientTransform="matrix(1,0,0,0.99982431,-221.99625,-51.132143)"
       cx="269.08365"
       cy="-660.15051"
       fx="269.08365"
       fy="-660.15051"
       r="14.319777" /></defs><sodipodi:namedview
     pagecolor="#ffffff"
     bordercolor="#666666"
     borderopacity="1"
     objecttolerance="10"
     gridtolerance="10"
     guidetolerance="10"
     inkscape:pageopacity="0"
     inkscape:pageshadow="2"
     inkscape:window-width="1309"
     inkscape:window-height="691"
     id="namedview4"
     showgrid="false"
     inkscape:zoom="1.6756772"
     inkscape:cx="164.70953"
     inkscape:cy="158.44341"
     inkscape:window-x="0"
     inkscape:window-y="0"
     inkscape:window-maximized="0"
     inkscape:current-layer="g10"
     fit-margin-top="0"
     fit-margin-left="0"
     fit-margin-right="0"
     fit-margin-bottom="0"
     inkscape:snap-object-midpoints="false"
     inkscape:showpageshadow="2"
     inkscape:pagecheckerboard="0"
     inkscape:deskcolor="#d1d1d1"><inkscape:grid
       type="xygrid"
       id="grid6104"
       originx="1.1058806"
       originy="-723.81586" /></sodipodi:namedview><g
     id="g10"
     inkscape:groupmode="layer"
     inkscape:label="tarasov-twibop"
     transform="matrix(1.25,0,0,-1.25,1.1058807,1040.7026)"><text
   transform="scale(1,-1)"
   id="text6741"
   y="-89.04245"
   x="114.08331"
   style="font-style:normal;font-variant:normal;font-weight:normal;font-stretch:normal;line-height:0%;font-family:'Alegreya SC';-inkscape-font-specification:'Alegreya SC';text-align:start;letter-spacing:0px;word-spacing:0px;writing-mode:lr-tb;text-anchor:start;fill:#000000;fill-opacity:1;stroke:none;stroke-width:2;stroke-linecap:butt;stroke-linejoin:miter;stroke-miterlimit:4;stroke-dasharray:none;stroke-opacity:1"
   xml:space="preserve"><tspan
     id="tspan6743"
     y="-89.04245"
     x="114.08331"
     sodipodi:role="line"
     style="font-size:14px;line-height:1.25"> </tspan></text>
<text
   xml:space="preserve"
   style="font-style:normal;font-variant:normal;font-weight:normal;font-stretch:normal;line-height:0%;font-family:'Alegreya SC';-inkscape-font-specification:'Alegreya SC';text-align:start;letter-spacing:0px;word-spacing:0px;writing-mode:lr-tb;text-anchor:start;fill:#000000;fill-opacity:1;stroke:none;stroke-width:2;stroke-linecap:butt;stroke-linejoin:miter;stroke-miterlimit:4;stroke-dasharray:none;stroke-opacity:1"
   x="143.1312"
   y="-89.462448"
   id="text6745"
   transform="scale(1,-1)"><tspan
     sodipodi:role="line"
     x="143.1312"
     y="-89.462448"
     id="tspan6747"
     style="font-size:14px;line-height:1.25"> </tspan></text>
<text
   xml:space="preserve"
   style="font-style:normal;font-variant:normal;font-weight:normal;font-stretch:normal;line-height:0%;font-family:'Alegreya SC';-inkscape-font-specification:'Alegreya SC';text-align:start;letter-spacing:0px;word-spacing:0px;writing-mode:lr-tb;text-anchor:start;fill:#000000;fill-opacity:1;stroke:none;stroke-width:2;stroke-linecap:butt;stroke-linejoin:miter;stroke-miterlimit:4;stroke-dasharray:none;stroke-opacity:1"
   x="169.68332"
   y="-89.04245"
   id="text6767"
   transform="scale(1,-1)"><tspan
     sodipodi:role="line"
     x="169.68332"
     y="-89.04245"
     id="tspan6769"
     style="font-size:14px;line-height:1.25"> </tspan></text>
<text
   transform="scale(1,-1)"
   id="text6771"
   y="-89.462448"
   x="198.7312"
   style="font-style:normal;font-variant:normal;font-weight:normal;font-stretch:normal;line-height:0%;font-family:'Alegreya SC';-inkscape-font-specification:'Alegreya SC';text-align:start;letter-spacing:0px;word-spacing:0px;writing-mode:lr-tb;text-anchor:start;fill:#000000;fill-opacity:1;stroke:none;stroke-width:2;stroke-linecap:butt;stroke-linejoin:miter;stroke-miterlimit:4;stroke-dasharray:none;stroke-opacity:1"
   xml:space="preserve"><tspan
     id="tspan6773"
     y="-89.462448"
     x="198.7312"
     sodipodi:role="line"
     style="font-size:14px;line-height:1.25"> </tspan></text>
<text
   xml:space="preserve"
   style="font-style:normal;font-variant:normal;font-weight:normal;font-stretch:normal;line-height:0%;font-family:'Alegreya SC';-inkscape-font-specification:'Alegreya SC';text-align:start;letter-spacing:0px;word-spacing:0px;writing-mode:lr-tb;text-anchor:start;fill:#000000;fill-opacity:1;stroke:none;stroke-width:2;stroke-linecap:butt;stroke-linejoin:miter;stroke-miterlimit:4;stroke-dasharray:none;stroke-opacity:1"
   x="225.28333"
   y="-89.04245"
   id="text6781"
   transform="scale(1,-1)"><tspan
     sodipodi:role="line"
     x="225.28333"
     y="-89.04245"
     id="tspan6783"
     style="font-size:14px;line-height:1.25"> </tspan></text>
<text
   xml:space="preserve"
   style="font-style:normal;font-variant:normal;font-weight:normal;font-stretch:normal;line-height:0%;font-family:'Alegreya SC';-inkscape-font-specification:'Alegreya SC';text-align:start;letter-spacing:0px;word-spacing:0px;writing-mode:lr-tb;text-anchor:start;fill:#000000;fill-opacity:1;stroke:none;stroke-width:2;stroke-linecap:butt;stroke-linejoin:miter;stroke-miterlimit:4;stroke-dasharray:none;stroke-opacity:1"
   x="254.33121"
   y="-89.462448"
   id="text6797"
   transform="scale(1,-1)"><tspan
     sodipodi:role="line"
     x="254.33121"
     y="-89.462448"
     id="tspan6799"
     style="font-size:14px;line-height:1.25"> </tspan></text>
<text
   xml:space="preserve"
   style="font-style:normal;font-variant:normal;font-weight:normal;font-stretch:normal;line-height:0%;font-family:'Alegreya SC';-inkscape-font-specification:'Alegreya SC';text-align:start;letter-spacing:0px;word-spacing:0px;writing-mode:lr-tb;text-anchor:start;fill:#000000;fill-opacity:1;stroke:none;stroke-width:2;stroke-linecap:butt;stroke-linejoin:miter;stroke-miterlimit:4;stroke-dasharray:none;stroke-opacity:1"
   x="280.88333"
   y="-89.04245"
   id="text6819"
   transform="scale(1,-1)"><tspan
     sodipodi:role="line"
     x="280.88333"
     y="-89.04245"
     id="tspan6821"
     style="font-size:14px;line-height:1.25"> </tspan></text>
<text
   transform="scale(1,-1)"
   id="text6823"
   y="-89.462448"
   x="309.93121"
   style="font-style:normal;font-variant:normal;font-weight:normal;font-stretch:normal;line-height:0%;font-family:'Alegreya SC';-inkscape-font-specification:'Alegreya SC';text-align:start;letter-spacing:0px;word-spacing:0px;writing-mode:lr-tb;text-anchor:start;fill:#000000;fill-opacity:1;stroke:none;stroke-width:2;stroke-linecap:butt;stroke-linejoin:miter;stroke-miterlimit:4;stroke-dasharray:none;stroke-opacity:1"
   xml:space="preserve"><tspan
     id="tspan6825"
     y="-89.462448"
     x="309.93121"
     sodipodi:role="line"
     style="font-size:14px;line-height:1.25"> </tspan></text>
<text
   transform="scale(1,-1)"
   id="text6845"
   y="-89.04245"
   x="336.48334"
   style="font-style:normal;font-variant:normal;font-weight:normal;font-stretch:normal;line-height:0%;font-family:'Alegreya SC';-inkscape-font-specification:'Alegreya SC';text-align:start;letter-spacing:0px;word-spacing:0px;writing-mode:lr-tb;text-anchor:start;fill:#000000;fill-opacity:1;stroke:none;stroke-width:2;stroke-linecap:butt;stroke-linejoin:miter;stroke-miterlimit:4;stroke-dasharray:none;stroke-opacity:1"
   xml:space="preserve"><tspan
     id="tspan6847"
     y="-89.04245"
     x="336.48334"
     sodipodi:role="line"
     style="font-size:14px;line-height:1.25"> </tspan></text>
<text
   xml:space="preserve"
   style="font-style:normal;font-variant:normal;font-weight:normal;font-stretch:normal;line-height:0%;font-family:'Alegreya SC';-inkscape-font-specification:'Alegreya SC';text-align:start;letter-spacing:0px;word-spacing:0px;writing-mode:lr-tb;text-anchor:start;fill:#000000;fill-opacity:1;stroke:none;stroke-width:2;stroke-linecap:butt;stroke-linejoin:miter;stroke-miterlimit:4;stroke-dasharray:none;stroke-opacity:1"
   x="365.53122"
   y="-89.462448"
   id="text6849"
   transform="scale(1,-1)"><tspan
     sodipodi:role="line"
     x="365.53122"
     y="-89.462448"
     id="tspan6851"
     style="font-size:14px;line-height:1.25"> </tspan></text>
<ellipse
   style="color:#000000;clip-rule:nonzero;display:inline;overflow:visible;visibility:visible;opacity:1;isolation:auto;mix-blend-mode:normal;color-interpolation:sRGB;color-interpolation-filters:linearRGB;solid-color:#000000;solid-opacity:1;fill:url(#radialGradient5153);fill-opacity:1;fill-rule:evenodd;stroke:none;stroke-width:0.80000001;stroke-linecap:butt;stroke-linejoin:miter;stroke-miterlimit:4;stroke-dasharray:none;stroke-dashoffset:0;stroke-opacity:1;color-rendering:auto;image-rendering:auto;shape-rendering:auto;text-rendering:auto;enable-background:accumulate"
   id="ellipse5151"
   cx="48.687473"
   cy="-706.36652"
   transform="scale(1,-1)"
   rx="13.719777"
   ry="13.717261" /><ellipse
   ry="13.717261"
   rx="13.719777"
   transform="scale(1,-1)"
   cy="-622.68903"
   cx="132.46294"
   id="ellipse4935"
   style="color:#000000;clip-rule:nonzero;display:inline;overflow:visible;visibility:visible;opacity:1;isolation:auto;mix-blend-mode:normal;color-interpolation:sRGB;color-interpolation-filters:linearRGB;solid-color:#000000;solid-opacity:1;fill:url(#radialGradient5133);fill-opacity:1;fill-rule:evenodd;stroke:none;stroke-width:0.80000001;stroke-linecap:butt;stroke-linejoin:miter;stroke-miterlimit:4;stroke-dasharray:none;stroke-dashoffset:0;stroke-opacity:1;color-rendering:auto;image-rendering:auto;shape-rendering:auto;text-rendering:auto;enable-background:accumulate" /><ellipse
   ry="13.717261"
   rx="13.719777"
   transform="scale(1,-1)"
   cy="-790.1601"
   cx="132.46294"
   id="ellipse4983"
   style="color:#000000;clip-rule:nonzero;display:inline;overflow:visible;visibility:visible;opacity:1;isolation:auto;mix-blend-mode:normal;color-interpolation:sRGB;color-interpolation-filters:linearRGB;solid-color:#000000;solid-opacity:1;fill:url(#radialGradient5125);fill-opacity:1;fill-rule:evenodd;stroke:none;stroke-width:0.80000001;stroke-linecap:butt;stroke-linejoin:miter;stroke-miterlimit:4;stroke-dasharray:none;stroke-dashoffset:0;stroke-opacity:1;color-rendering:auto;image-rendering:auto;shape-rendering:auto;text-rendering:auto;enable-background:accumulate" /><ellipse
   ry="13.717261"
   rx="13.719777"
   transform="scale(1,-1)"
   cy="-706.36652"
   cx="216.23692"
   id="ellipse5143"
   style="color:#000000;clip-rule:nonzero;display:inline;overflow:visible;visibility:visible;opacity:1;isolation:auto;mix-blend-mode:normal;color-interpolation:sRGB;color-interpolation-filters:linearRGB;solid-color:#000000;solid-opacity:1;fill:url(#radialGradient5145);fill-opacity:1;fill-rule:evenodd;stroke:none;stroke-width:0.80000001;stroke-linecap:butt;stroke-linejoin:miter;stroke-miterlimit:4;stroke-dasharray:none;stroke-dashoffset:0;stroke-opacity:1;color-rendering:auto;image-rendering:auto;shape-rendering:auto;text-rendering:auto;enable-background:accumulate" /><ellipse
   style="color:#000000;clip-rule:nonzero;display:inline;overflow:visible;visibility:visible;opacity:1;isolation:auto;mix-blend-mode:normal;color-interpolation:sRGB;color-interpolation-filters:linearRGB;solid-color:#000000;solid-opacity:1;fill:none;fill-opacity:1;fill-rule:evenodd;stroke:#4682b4;stroke-width:1.99999988;stroke-linecap:butt;stroke-linejoin:miter;stroke-miterlimit:4;stroke-dasharray:none;stroke-dashoffset:0;stroke-opacity:1;color-rendering:auto;image-rendering:auto;shape-rendering:auto;text-rendering:auto;enable-background:accumulate"
   id="path5157"
   cx="130.72795"
   cy="-706.26044"
   transform="scale(1,-1)"
   rx="130.61266"
   ry="31.200001" /><ellipse
   ry="31.200001"
   rx="125.75472"
   transform="matrix(0,1,1,0,0,0)"
   cy="132.56897"
   cx="705.80737"
   id="ellipse5159"
   style="color:#000000;clip-rule:nonzero;display:inline;overflow:visible;visibility:visible;opacity:1;isolation:auto;mix-blend-mode:normal;color-interpolation:sRGB;color-interpolation-filters:linearRGB;solid-color:#000000;solid-opacity:1;fill:none;fill-opacity:1;fill-rule:evenodd;stroke:#ff6347;stroke-width:2;stroke-linecap:butt;stroke-linejoin:miter;stroke-miterlimit:4;stroke-dasharray:none;stroke-dashoffset:0;stroke-opacity:1;color-rendering:auto;image-rendering:auto;shape-rendering:auto;text-rendering:auto;enable-background:accumulate" /><ellipse
   style="color:#000000;clip-rule:nonzero;display:inline;overflow:visible;visibility:visible;opacity:1;isolation:auto;mix-blend-mode:normal;color-interpolation:sRGB;color-interpolation-filters:linearRGB;solid-color:#000000;solid-opacity:1;fill:none;fill-opacity:1;fill-rule:evenodd;stroke:#ff6347;stroke-width:2;stroke-linecap:butt;stroke-linejoin:miter;stroke-miterlimit:4;stroke-dasharray:none;stroke-dashoffset:0;stroke-opacity:1;color-rendering:auto;image-rendering:auto;shape-rendering:auto;text-rendering:auto;enable-background:accumulate"
   id="ellipse5169"
   cx="408.98026"
   cy="533.10455"
   transform="matrix(-0.70710678,0.70710678,0.70710678,0.70710678,0,0)"
   rx="103.2"
   ry="31.200001" /><ellipse
   ry="31.200001"
   rx="103.2"
   transform="matrix(0.70710678,0.70710678,-0.70710678,0.70710678,0,0)"
   cy="347.88614"
   cx="591.93585"
   id="ellipse5171"
   style="color:#000000;clip-rule:nonzero;display:inline;overflow:visible;visibility:visible;opacity:1;isolation:auto;mix-blend-mode:normal;color-interpolation:sRGB;color-interpolation-filters:linearRGB;solid-color:#000000;solid-opacity:1;fill:none;fill-opacity:1;fill-rule:evenodd;stroke:#ff6347;stroke-width:2;stroke-linecap:butt;stroke-linejoin:miter;stroke-miterlimit:4;stroke-dasharray:none;stroke-dashoffset:0;stroke-opacity:1;color-rendering:auto;image-rendering:auto;shape-rendering:auto;text-rendering:auto;enable-background:accumulate" /><ellipse
   ry="31.200001"
   rx="103.2"
   transform="matrix(0.70710678,0.70710678,0.70710678,-0.70710678,0,0)"
   cy="-464.56747"
   cx="588.54132"
   id="ellipse5173"
   style="color:#000000;clip-rule:nonzero;display:inline;overflow:visible;visibility:visible;opacity:1;isolation:auto;mix-blend-mode:normal;color-interpolation:sRGB;color-interpolation-filters:linearRGB;solid-color:#000000;solid-opacity:1;fill:none;fill-opacity:1;fill-rule:evenodd;stroke:#4682b4;stroke-width:2;stroke-linecap:butt;stroke-linejoin:miter;stroke-miterlimit:4;stroke-dasharray:none;stroke-dashoffset:0;stroke-opacity:1;color-rendering:auto;image-rendering:auto;shape-rendering:auto;text-rendering:auto;enable-background:accumulate" /><ellipse
   style="color:#000000;clip-rule:nonzero;display:inline;overflow:visible;visibility:visible;opacity:1;isolation:auto;mix-blend-mode:normal;color-interpolation:sRGB;color-interpolation-filters:linearRGB;solid-color:#000000;solid-opacity:1;fill:none;fill-opacity:1;fill-rule:evenodd;stroke:#4682b4;stroke-width:2;stroke-linecap:butt;stroke-linejoin:miter;stroke-miterlimit:4;stroke-dasharray:none;stroke-dashoffset:0;stroke-opacity:1;color-rendering:auto;image-rendering:auto;shape-rendering:auto;text-rendering:auto;enable-background:accumulate"
   id="ellipse5175"
   cx="401.2103"
   cy="-651.89679"
   transform="matrix(-0.70710678,0.70710678,-0.70710678,-0.70710678,0,0)"
   rx="103.2"
   ry="31.200001" /></g></svg>
